{
"08/04/2016 00:00:00": {
   "clock": "08/04/2016 23:59:59",
    "violator": "",
    "redirect": "",
    "expiration": "08/04/16 11:59pm EST"
},
"08/05/2016 00:00:00": {
   "clock": "08/05/2016 23:59:59",
    "violator": "",
    "redirect": "",
    "expiration": "08/05/16 11:59pm EST"
},
"08/06/2016 00:00:00": {
   "clock": "08/06/2016 23:59:59",
    "violator": "",
    "redirect": "",
    "expiration": "08/06/16 11:59pm EST"
},
"08/07/2016 00:00:00": {
   "clock": "08/07/2016 23:59:59",
    "violator": "",
    "redirect": "",
    "expiration": "08/07/16 11:59pm EST"
},
"08/08/2016 00:00:00": {
   "clock": "08/08/2016 23:59:59",
    "violator": "",
    "redirect": "",
    "expiration": "08/08/16 11:59pm EST"
},
"08/11/2016 00:00:00": {
   "clock": "08/11/2016 23:59:59",
    "violator": "",
    "redirect": "",
    "expiration": "08/11/16 11:59pm EST"
},
"08/13/2016 00:00:00": {
   "clock": "08/13/2016 23:59:59",
    "violator": "",
    "redirect": "",
    "expiration": "08/13/16 11:59pm EST"
},
"08/17/2016 00:00:00": {
   "clock": "08/17/2016 23:59:59",
    "violator": "",
    "redirect": "",
    "expiration": "08/17/16 11:59pm EST"
},
"08/19/2016 00:00:00": {
   "clock": "08/19/2016 23:59:59",
    "violator": "",
    "redirect": "",
    "expiration": "08/19/16 11:59pm EST"
},
"08/21/2016 00:00:00": {
   "clock": "08/21/2016 23:59:59",
    "violator": "",
    "redirect": "",
    "expiration": "08/21/16 11:59pm EST"
},
"08/24/2016 00:00:00": {
   "clock": "08/24/2016 23:59:59",
    "violator": "",
    "redirect": "",
    "expiration": "08/24/16 11:59pm EST"
},
"08/26/2016 00:00:00": {
   "clock": "08/26/2016 23:59:59",
    "violator": "",
    "redirect": "",
    "expiration": "08/26/16 11:59pm EST"
},
"08/28/2016 00:00:00": {
   "clock": "08/28/2016 23:59:59",
    "violator": "",
    "redirect": "",
    "expiration": "08/28/16 11:59pm EST"
},
"08/30/2016 00:00:00": {
   "clock": "08/30/2016 23:59:59",
    "violator": "",
    "redirect": "",
    "expiration": "08/30/16 11:59pm EST"
},
"08/31/2016 00:00:00": {
   "clock": "08/31/2016 23:59:59",
    "violator": "",
    "redirect": "",
    "expiration": "08/31/16 11:59pm EST"
},
"stop": "08/31/2016 23:59:59"
}