{ 
	"07/01/2016 00:00:00": {
    "clock": "",
    "violator": "",
    "redirect": "",
    "expiration": "07/01/16 11:59pm EST"
  },
  "07/02/2016 00:00:00": {
    "clock": "",
    "violator": "Ends Soon!",
    "redirect": "",
    "expiration": "07/02/16 11:59pm EST"
  },
  "07/03/2016 00:00:00": {
    "clock": "",
    "violator": "Last Chance!",
    "redirect": "",
    "expiration": "07/03/16 11:59pm EST"
  },
  "07/04/2016 00:00:00": {
    "clock": "07/04/2016 23:59:59",
    "violator": "Final Hours!",
    "redirect": "",
    "expiration": "07/04/16 11:59pm EST"
  },
  "07/05/2016 00:00:00": {
    "clock": "07/05/2016 23:59:59",
    "violator": "Sale Extended!",
    "redirect": "",
    "expiration": "07/05/16 11:59pm EST"
  },
  "stop": "07/05/2016 23:59:59"
}