{
    "11/26/2015 00:00:00": {
        "clock": "",
        "violator": "",
        "redirect": "",
        "expiration": "11/27/15 11:59pm EST"
    },
    "11/27/2015 00:00:00": {
        "clock": "11/27/2015 23:59:59",
        "violator": "FINAL HOURS!",
        "redirect": "",
        "expiration": "11/27/15 11:59pm EST"
    },
    "11/28/2015 00:00:00": {
        "clock": "11/28/2015 23:59:59",
        "violator": "SALE EXTENDED",
        "redirect": "",
        "expiration": "11/28/15 11:59pm EST"
    },
    "11/29/2015 00:00:00": {
        "clock": "11/29/2015 23:59:59",
        "violator": "SALE EXTENDED",
        "redirect": "",
        "expiration": "11/29/15 11:59pm EST"
    },
    "11/30/2015 00:00:00": {
        "clock": "11/30/2015 23:59:59",
        "violator": "FINAL HOURS!",
        "redirect": "",
        "expiration": "11/30/15 11:59pm EST"
    },
    "12/01/2015 00:00:00": {
        "clock": "12/01/2015 23:59:59",
        "violator": "SALE EXTENDED!",
        "redirect": "",
        "expiration": "12/01/15 11:59pm EST"
    },
    "stop": "12/01/2015 23:59:59"
}