<?xml version="1.0" encoding="UTF-8" standalone="no"?>
<svg width="300px" height="142px" viewBox="0 0 300 142" version="1.1" xmlns="http://www.w3.org/2000/svg" xmlns:xlink="http://www.w3.org/1999/xlink" xmlns:sketch="http://www.bohemiancoding.com/sketch/ns">
    <!-- Generator: Sketch 3.2.2 (9983) - http://www.bohemiancoding.com/sketch -->
    <title>Box 1</title>
    <desc>Created with Sketch.</desc>
    <defs></defs>
    <g id="Welcome" stroke="none" stroke-width="1" fill="none" fill-rule="evenodd" sketch:type="MSPage">
        <g id="01_Desktop_Default" sketch:type="MSArtboardGroup" transform="translate(-170.000000, -2315.000000)">
            <g id="Review" sketch:type="MSLayerGroup" transform="translate(170.000000, 1991.000000)">
                <g id="Box-1" transform="translate(0.000000, 324.000000)">
                    <rect id="Rectangle-30" stroke="#979797" sketch:type="MSShapeGroup" x="0" y="0" width="300" height="142"></rect>
                    <text id="8,000+" sketch:type="MSTextLayer" font-family="Gotham HTF" font-size="30" font-weight="313" sketch:alignment="middle" fill="#4A4A4A">
                        <tspan x="95.9" y="100">8,000+</tspan>
                        <tspan x="82.892" y="132" font-size="16">CORPORATIONS</tspan>
                    </text>
                    <g id="urban7" transform="translate(125.000000, 19.000000)" fill="#000000" sketch:type="MSShapeGroup">
                        <path d="M24.3876812,0 L1.3442029,0 C0.920202899,0 0.576086957,0.343466667 0.576086957,0.766666667 L0.576086957,46 L3.64855072,46 L3.64855072,39.1 C3.64855072,38.6768 3.99266667,38.3333333 4.41666667,38.3333333 L7.48913043,38.3333333 C7.91313043,38.3333333 8.25724638,38.6768 8.25724638,39.1 L8.25724638,46 L25.1557971,46 L25.1557971,0.766666667 C25.1557971,0.343466667 24.8116812,0 24.3876812,0 L24.3876812,0 Z M8.25724638,34.1166667 C8.25724638,34.3282667 8.08518841,34.5 7.87318841,34.5 L4.0326087,34.5 C3.8206087,34.5 3.64855072,34.3282667 3.64855072,34.1166667 L3.64855072,30.2833333 C3.64855072,30.0717333 3.8206087,29.9 4.0326087,29.9 L7.87318841,29.9 C8.08518841,29.9 8.25724638,30.0717333 8.25724638,30.2833333 L8.25724638,34.1166667 L8.25724638,34.1166667 Z M8.25724638,25.6833333 C8.25724638,25.8949333 8.08518841,26.0666667 7.87318841,26.0666667 L4.0326087,26.0666667 C3.8206087,26.0666667 3.64855072,25.8949333 3.64855072,25.6833333 L3.64855072,21.85 C3.64855072,21.6384 3.8206087,21.4666667 4.0326087,21.4666667 L7.87318841,21.4666667 C8.08518841,21.4666667 8.25724638,21.6384 8.25724638,21.85 L8.25724638,25.6833333 L8.25724638,25.6833333 Z M8.25724638,17.25 C8.25724638,17.4616 8.08518841,17.6333333 7.87318841,17.6333333 L4.0326087,17.6333333 C3.8206087,17.6333333 3.64855072,17.4616 3.64855072,17.25 L3.64855072,13.4166667 C3.64855072,13.2050667 3.8206087,13.0333333 4.0326087,13.0333333 L7.87318841,13.0333333 C8.08518841,13.0333333 8.25724638,13.2050667 8.25724638,13.4166667 L8.25724638,17.25 L8.25724638,17.25 Z M8.25724638,8.81666667 C8.25724638,9.02826667 8.08518841,9.2 7.87318841,9.2 L4.0326087,9.2 C3.8206087,9.2 3.64855072,9.02826667 3.64855072,8.81666667 L3.64855072,4.98333333 C3.64855072,4.77173333 3.8206087,4.6 4.0326087,4.6 L7.87318841,4.6 C8.08518841,4.6 8.25724638,4.77173333 8.25724638,4.98333333 L8.25724638,8.81666667 L8.25724638,8.81666667 Z M15.1702899,34.1166667 C15.1702899,34.3282667 14.9982319,34.5 14.7862319,34.5 L10.9456522,34.5 C10.7336522,34.5 10.5615942,34.3282667 10.5615942,34.1166667 L10.5615942,30.2833333 C10.5615942,30.0717333 10.7336522,29.9 10.9456522,29.9 L14.7862319,29.9 C14.9982319,29.9 15.1702899,30.0717333 15.1702899,30.2833333 L15.1702899,34.1166667 L15.1702899,34.1166667 Z M15.1702899,25.6833333 C15.1702899,25.8949333 14.9982319,26.0666667 14.7862319,26.0666667 L10.9456522,26.0666667 C10.7336522,26.0666667 10.5615942,25.8949333 10.5615942,25.6833333 L10.5615942,21.85 C10.5615942,21.6384 10.7336522,21.4666667 10.9456522,21.4666667 L14.7862319,21.4666667 C14.9982319,21.4666667 15.1702899,21.6384 15.1702899,21.85 L15.1702899,25.6833333 L15.1702899,25.6833333 Z M15.1702899,17.25 C15.1702899,17.4616 14.9982319,17.6333333 14.7862319,17.6333333 L10.9456522,17.6333333 C10.7336522,17.6333333 10.5615942,17.4616 10.5615942,17.25 L10.5615942,13.4166667 C10.5615942,13.2050667 10.7336522,13.0333333 10.9456522,13.0333333 L14.7862319,13.0333333 C14.9982319,13.0333333 15.1702899,13.2050667 15.1702899,13.4166667 L15.1702899,17.25 L15.1702899,17.25 Z M15.1702899,8.81666667 C15.1702899,9.02826667 14.9982319,9.2 14.7862319,9.2 L10.9456522,9.2 C10.7336522,9.2 10.5615942,9.02826667 10.5615942,8.81666667 L10.5615942,4.98333333 C10.5615942,4.77173333 10.7336522,4.6 10.9456522,4.6 L14.7862319,4.6 C14.9982319,4.6 15.1702899,4.77173333 15.1702899,4.98333333 L15.1702899,8.81666667 L15.1702899,8.81666667 Z M22.0833333,34.1166667 C22.0833333,34.3282667 21.9112754,34.5 21.6992754,34.5 L17.8586957,34.5 C17.6466957,34.5 17.4746377,34.3282667 17.4746377,34.1166667 L17.4746377,30.2833333 C17.4746377,30.0717333 17.6466957,29.9 17.8586957,29.9 L21.6992754,29.9 C21.9112754,29.9 22.0833333,30.0717333 22.0833333,30.2833333 L22.0833333,34.1166667 L22.0833333,34.1166667 Z M22.0833333,25.6833333 C22.0833333,25.8949333 21.9112754,26.0666667 21.6992754,26.0666667 L17.8586957,26.0666667 C17.6466957,26.0666667 17.4746377,25.8949333 17.4746377,25.6833333 L17.4746377,21.85 C17.4746377,21.6384 17.6466957,21.4666667 17.8586957,21.4666667 L21.6992754,21.4666667 C21.9112754,21.4666667 22.0833333,21.6384 22.0833333,21.85 L22.0833333,25.6833333 L22.0833333,25.6833333 Z M22.0833333,17.25 C22.0833333,17.4616 21.9112754,17.6333333 21.6992754,17.6333333 L17.8586957,17.6333333 C17.6466957,17.6333333 17.4746377,17.4616 17.4746377,17.25 L17.4746377,13.4166667 C17.4746377,13.2050667 17.6466957,13.0333333 17.8586957,13.0333333 L21.6992754,13.0333333 C21.9112754,13.0333333 22.0833333,13.2050667 22.0833333,13.4166667 L22.0833333,17.25 L22.0833333,17.25 Z M22.0833333,8.81666667 C22.0833333,9.02826667 21.9112754,9.2 21.6992754,9.2 L17.8586957,9.2 C17.6466957,9.2 17.4746377,9.02826667 17.4746377,8.81666667 L17.4746377,4.98333333 C17.4746377,4.77173333 17.6466957,4.6 17.8586957,4.6 L21.6992754,4.6 C21.9112754,4.6 22.0833333,4.77173333 22.0833333,4.98333333 L22.0833333,8.81666667 L22.0833333,8.81666667 Z M52.2480145,22.0761667 L29.2045362,15.6070333 C28.7144783,15.4698 28.2282609,15.8370333 28.2282609,16.3453333 L28.2282609,46 L31.3007246,46 L31.3007246,39.8666667 C31.3007246,39.4434667 31.6448406,39.1 32.0688406,39.1 L35.1413043,39.1 C35.5653043,39.1 35.9094203,39.4434667 35.9094203,39.8666667 L35.9094203,46 L52.807971,46 L52.807971,22.8144667 C52.807971,22.471 52.5790725,22.1689333 52.2480145,22.0761667 L52.2480145,22.0761667 Z M35.9094203,35.65 C35.9094203,35.8616 35.7373623,36.0333333 35.5253623,36.0333333 L31.6847826,36.0333333 C31.4727826,36.0333333 31.3007246,35.8616 31.3007246,35.65 L31.3007246,31.8166667 C31.3007246,31.6050667 31.4727826,31.4333333 31.6847826,31.4333333 L35.5253623,31.4333333 C35.7373623,31.4333333 35.9094203,31.6050667 35.9094203,31.8166667 L35.9094203,35.65 L35.9094203,35.65 Z M35.9094203,27.2166667 C35.9094203,27.4282667 35.7373623,27.6 35.5253623,27.6 L31.6847826,27.6 C31.4727826,27.6 31.3007246,27.4282667 31.3007246,27.2166667 L31.3007246,23.3833333 C31.3007246,23.1717333 31.4727826,23 31.6847826,23 L35.5253623,23 C35.7373623,23 35.9094203,23.1717333 35.9094203,23.3833333 L35.9094203,27.2166667 L35.9094203,27.2166667 Z M42.8224638,35.65 C42.8224638,35.8616 42.6504058,36.0333333 42.4384058,36.0333333 L38.5978261,36.0333333 C38.3858261,36.0333333 38.2137681,35.8616 38.2137681,35.65 L38.2137681,31.8166667 C38.2137681,31.6050667 38.3858261,31.4333333 38.5978261,31.4333333 L42.4384058,31.4333333 C42.6504058,31.4333333 42.8224638,31.6050667 42.8224638,31.8166667 L42.8224638,35.65 L42.8224638,35.65 Z M42.8224638,27.2166667 C42.8224638,27.4282667 42.6504058,27.6 42.4384058,27.6 L38.5978261,27.6 C38.3858261,27.6 38.2137681,27.4282667 38.2137681,27.2166667 L38.2137681,23.3833333 C38.2137681,23.1717333 38.3858261,23 38.5978261,23 L42.4384058,23 C42.6504058,23 42.8224638,23.1717333 42.8224638,23.3833333 L42.8224638,27.2166667 L42.8224638,27.2166667 Z M49.7355072,35.65 C49.7355072,35.8616 49.5634493,36.0333333 49.3514493,36.0333333 L45.5108696,36.0333333 C45.2988696,36.0333333 45.1268116,35.8616 45.1268116,35.65 L45.1268116,31.8166667 C45.1268116,31.6050667 45.2988696,31.4333333 45.5108696,31.4333333 L49.3514493,31.4333333 C49.5634493,31.4333333 49.7355072,31.6050667 49.7355072,31.8166667 L49.7355072,35.65 L49.7355072,35.65 Z M49.7355072,27.2166667 C49.7355072,27.4282667 49.5634493,27.6 49.3514493,27.6 L45.5108696,27.6 C45.2988696,27.6 45.1268116,27.4282667 45.1268116,27.2166667 L45.1268116,23.3833333 C45.1268116,23.1717333 45.2988696,23 45.5108696,23 L49.3514493,23 C49.5634493,23 49.7355072,23.1717333 49.7355072,23.3833333 L49.7355072,27.2166667 L49.7355072,27.2166667 Z" id="Shape"></path>
                    </g>
                </g>
            </g>
        </g>
    </g>
</svg>