<?xml version="1.0" encoding="UTF-8" standalone="no"?>
<svg width="16px" height="16px" viewBox="0 0 16 16" version="1.1" xmlns="http://www.w3.org/2000/svg" xmlns:xlink="http://www.w3.org/1999/xlink" xmlns:sketch="http://www.bohemiancoding.com/sketch/ns">
    <!-- Generator: Sketch 3.2.2 (9983) - http://www.bohemiancoding.com/sketch -->
    <title>Radio Background</title>
    <desc>Created with Sketch.</desc>
    <defs></defs>
    <g id="Welcome" stroke="none" stroke-width="1" fill="none" fill-rule="evenodd" sketch:type="MSPage">
        <g id="01_Desktop_Default" sketch:type="MSArtboardGroup" transform="translate(-835.000000, -1372.000000)" stroke="#979797" fill="#FFFFFF">
            <g id="Products" sketch:type="MSLayerGroup" transform="translate(170.000000, 794.000000)">
                <g id="ONLINE-SUBSCRIPTION" transform="translate(640.000000, 115.000000)" sketch:type="MSShapeGroup">
                    <g id="Pricing-5" transform="translate(25.000000, 408.000000)">
                        <g id="Form-/-Radiobutton-(Unchecked)" transform="translate(0.000000, 53.000000)">
                            <circle id="Radio-Background" cx="8" cy="10" r="8"></circle>
                        </g>
                    </g>
                </g>
            </g>
        </g>
    </g>
</svg>