<?xml version="1.0" encoding="UTF-8" standalone="no"?>
<svg width="189px" height="39px" viewBox="0 0 189 39" version="1.1" xmlns="http://www.w3.org/2000/svg" xmlns:xlink="http://www.w3.org/1999/xlink" xmlns:sketch="http://www.bohemiancoding.com/sketch/ns">
    <!-- Generator: Sketch 3.2.2 (9983) - http://www.bohemiancoding.com/sketch -->
    <title>Button Solid</title>
    <desc>Created with Sketch.</desc>
    <defs></defs>
    <g id="Welcome" stroke="none" stroke-width="1" fill="none" fill-rule="evenodd" sketch:type="MSPage">
        <g id="01_Desktop_Default" sketch:type="MSArtboardGroup" transform="translate(-226.000000, -1467.000000)">
            <g id="Products" sketch:type="MSLayerGroup" transform="translate(170.000000, 794.000000)">
                <g id="CD-PRODUCT" transform="translate(0.000000, 115.000000)">
                    <g id="Button-Solid" transform="translate(56.000000, 558.000000)">
                        <rect id="Rectangle-27" stroke="#0098DB" stroke-width="2" sketch:type="MSShapeGroup" x="0" y="0" width="189" height="39" rx="4"></rect>
                        <text id="SELECT-A-LANGUAGE" sketch:type="MSTextLayer" font-family="Gotham HTF" font-size="14" font-weight="420" fill="#0098DB">
                            <tspan x="15" y="25">SELECT A LANGUAGE</tspan>
                        </text>
                    </g>
                </g>
            </g>
        </g>
    </g>
</svg>