<?xml version="1.0" encoding="UTF-8" standalone="no"?>
<svg width="38px" height="18px" viewBox="0 0 38 18" version="1.1" xmlns="http://www.w3.org/2000/svg" xmlns:xlink="http://www.w3.org/1999/xlink" xmlns:sketch="http://www.bohemiancoding.com/sketch/ns">
    <!-- Generator: Sketch 3.2.2 (9983) - http://www.bohemiancoding.com/sketch -->
    <title>Windows 2 + Apple_logo_black 3</title>
    <desc>Created with Sketch.</desc>
    <defs></defs>
    <g id="Welcome" stroke="none" stroke-width="1" fill="none" fill-rule="evenodd" sketch:type="MSPage">
        <g id="01_Desktop_Default" sketch:type="MSArtboardGroup" transform="translate(-301.000000, -1148.000000)" fill="#D1D4D3">
            <g id="Products" sketch:type="MSLayerGroup" transform="translate(170.000000, 794.000000)">
                <g id="Windows-2-+-Apple_logo_black-3" transform="translate(131.000000, 354.000000)" sketch:type="MSShapeGroup">
                    <g id="Windows-2" transform="translate(22.000000, 2.000000)">
                        <path d="M15.0824779,15.0921188 L14.8440354,15.0921188 L14.8440354,15.9174653 L14.7471858,15.9174653 L14.7471858,15.0921188 L14.5097345,15.0921188 L14.5097345,14.9942178 L15.0824779,14.9942178 L15.0824779,15.0921188" id="Fill-1"></path>
                        <path d="M15.9943363,15.9174653 L15.8981947,15.9174653 L15.8981947,15.2980594 C15.8981947,15.2492673 15.9010265,15.1892277 15.9062655,15.1184158 L15.904,15.1184158 C15.8947965,15.1600792 15.8865841,15.1900198 15.8790796,15.2080792 L15.5971681,15.9174653 L15.5500177,15.9174653 L15.268531,15.2129901 C15.2604602,15.1925545 15.2522478,15.1610297 15.2437522,15.1184158 L15.2414867,15.1184158 C15.2446018,15.1554851 15.2461593,15.2156832 15.2461593,15.2993267 L15.2461593,15.9174653 L15.1529912,15.9174653 L15.1529912,14.9942178 L15.280708,14.9942178 L15.5338761,15.6381782 C15.5534159,15.687604 15.5661593,15.7245149 15.5719646,15.7489109 L15.5752212,15.7489109 C15.5917876,15.6982178 15.6050973,15.6603564 15.6150088,15.6356436 L15.8734159,14.9942178 L15.9943363,14.9942178 L15.9943363,15.9174653" id="Fill-2"></path>
                        <path d="M13.9940531,7.67936634 L13.9940531,0.0925148515 L6.20488496,1.36364356 L6.20488496,7.67936634 L13.9940531,7.67936634" id="Fill-3"></path>
                        <path d="M5.65621239,1.45330693 L0,2.37639604 L0,7.67936634 L5.65621239,7.67936634 L5.65621239,1.45330693" id="Fill-4"></path>
                        <path d="M0,8.29338614 L0,13.6635248 L5.65621239,14.5972277 L5.65621239,8.29338614 L0,8.29338614" id="Fill-5"></path>
                        <path d="M6.20488496,14.688 L13.9940531,15.973703 L13.9940531,8.29338614 L6.20488496,8.29338614 L6.20488496,14.688" id="Fill-6"></path>
                    </g>
                    <g id="Apple_logo_black-2">
                        <path d="M11.6923738,9.56285154 C11.7165357,12.2868254 13.9749785,13.1932954 14,13.2048661 C13.9809038,13.2687944 13.6391379,14.4966734 12.8101437,15.7649857 C12.0935159,16.8615048 11.3497483,17.9540064 10.1780978,17.9766336 C9.02683286,17.9988429 8.6566376,17.2619162 7.34041508,17.2619162 C6.02459167,17.2619162 5.61328749,17.9540064 4.52348643,17.9988429 C3.39254574,18.0436473 2.53134594,16.8131006 1.80876213,15.7205991 C0.332248557,13.4858419 -0.796113226,9.40571465 0.718991772,6.65156044 C1.47166278,5.28383634 2.81674444,4.41773535 4.27671006,4.39552599 C5.38726514,4.37334876 6.43549675,5.17770707 7.11439273,5.17770707 C7.7928589,5.17770707 9.06668304,4.21039437 10.4058087,4.35245717 C10.9664129,4.37688426 12.5400344,4.58952849 13.5505035,6.13794877 C13.4690839,6.19078842 11.6728478,7.28550767 11.6923738,9.56285154 M9.52870564,2.87397551 C10.1291293,2.11310385 10.5332494,1.0539003 10.4230014,0 C9.55753408,0.0364156462 8.51099104,0.603766914 7.89021245,1.36422074 C7.33387572,2.037637 6.84664743,3.11548227 6.97811003,4.14852313 C7.94277293,4.22665767 8.92825126,3.63532928 9.52870564,2.87397551" id="Shape"></path>
                    </g>
                </g>
            </g>
        </g>
    </g>
</svg>