<?xml version="1.0" encoding="utf-8"?>
<!-- Generator: Adobe Illustrator 16.0.0, SVG Export Plug-In . SVG Version: 6.00 Build 0)  -->
<!DOCTYPE svg PUBLIC "-//W3C//DTD SVG 1.1//EN" "http://www.w3.org/Graphics/SVG/1.1/DTD/svg11.dtd">
<svg version="1.1" id="Layer_1" xmlns="http://www.w3.org/2000/svg" xmlns:xlink="http://www.w3.org/1999/xlink" x="0px" y="0px"
	 width="1088.5px" height="369.5px" viewBox="0 0 1088.5 369.5" enable-background="new 0 0 1088.5 369.5" xml:space="preserve">
<path fill-rule="evenodd" clip-rule="evenodd" fill="none" d="M170,106.5c0,0,487.145-46.145,803,245"/>
<g>
	<g>
		<g>
			<path fill="none" stroke="#F7DE4D" stroke-width="5" stroke-miterlimit="10" d="M1,12c0,0,4.121-0.563,11.916-1.387"/>
			<path fill="none" stroke="#F7DE4D" stroke-width="5" stroke-miterlimit="10" stroke-dasharray="23.622,23.622" d="M36.434,8.449
				C178.053-2.89,712.937-18.236,1069.126,349.2"/>
			<path fill="none" stroke="#F7DE4D" stroke-width="5" stroke-miterlimit="10" d="M1077.303,357.736
				c2.743,2.898,5.476,5.819,8.197,8.764"/>
		</g>
	</g>
</g>
</svg>
