<?xml version="1.0" encoding="utf-8"?>
<!-- Generator: Adobe Illustrator 16.0.0, SVG Export Plug-In . SVG Version: 6.00 Build 0)  -->
<!DOCTYPE svg PUBLIC "-//W3C//DTD SVG 1.1//EN" "http://www.w3.org/Graphics/SVG/1.1/DTD/svg11.dtd">
<svg version="1.1" id="Layer_1" xmlns="http://www.w3.org/2000/svg" xmlns:xlink="http://www.w3.org/1999/xlink" x="0px" y="0px"
	 viewBox="0 0 1389 1003" enable-background="new 0 0 1389 1003" xml:space="preserve">
<path fill-rule="evenodd" clip-rule="evenodd" fill="#00929A" stroke="#82D2E5" stroke-width="3" stroke-miterlimit="10" d="
	M1387.495,116.613c-4.792-0.761-5.952,3.322-9.138,0c1.223-5.285-2.268-5.856-1.522-10.666c-4.044-0.015-8.695,0.576-10.658-1.523
	c-2.534-16.257-8.985-28.594-12.183-44.188c-6.02-0.07-8.83-3.355-13.705-4.572c-3.75,3.357-6.676,7.539-12.18,9.143
	c-4.296-0.275-1.9-7.242-7.615-6.095c-5.993,14.706-16.663,37.959-9.136,56.378c-3.911,6.244-7.988,12.322-7.612,22.855
	c-5.466-1.262-7.368,3.436-10.66,0c-1.512,4.583-1.126,11.063-6.09,12.189c-15.791,2.798-33.426,9.888-50.252,13.714
	c-8.061,1.832-16.45,0.494-22.84,4.57c-7.388,4.714-9.944,15.578-15.229,22.856c-3.668,5.054-11.236,5.833-9.135,13.714
	c7.032,2.439,5.71,10.603,6.09,15.237c-14.367,20.718-41.094,10.627-63.954,21.332c0.431,7.189,5.018,10.216,7.613,15.238
	c-19.626,26.58-47.919,44.488-79.181,59.425c-4.828-6.343-20.13-2.205-22.84-10.666c7.916-7.583,6.391-28.346,18.271-27.427
	c-1.473-19.859-4.078-38.584-16.749-47.236c-9.977,1.192-8.614,13.73-16.75,16.761c-6.069,0.995-4.363-5.793-4.569-10.666
	c17.445-4.506,5.743-31.443,9.137-39.617c-4.017,0.464-3.927-3.181-4.567-6.095c-16.411-0.071-30.444-18.299-39.591-1.524
	c-1.34,4.896,5.019,2.089,4.567,6.096c-5.267-1.207-6.429,1.694-9.136,3.047c-1.15,9.275,4.149,15.537-4.569,16.761
	c-2.327-7.317,6.468-13.062,0-15.238c-13.987,15.316-14.737,31.609-16.749,57.902c16.975,16.425,11.928,57.538-10.659,63.996
	c-31.895-28.682-14.015-87.702-6.091-120.373c-6.184,7.541-12.562,22.963-19.795,24.379c5.119-14.686,14.399-25.206,18.273-41.14
	c13.047,3.328,20.471-6.513,36.543-10.666c13.534,2.233,25.49-0.121,35.023-1.524c-6.896-1.225-8.762-7.486-7.613-16.761
	c-8.131,0.229-14.201,6.356-21.318,3.047c0-3.047,0-6.094,0-9.143c-22.17,2.469-33.666,16.774-53.296,13.714
	c-2.573-12.349-20.009-14.875-24.362-9.143c2.34-9.849,10.295-14.077,15.228-21.332c-15.047,0.183-20.347,10.115-27.411,18.285
	c-10.412,5.832-22.519,9.97-31.976,16.76c-1.629-5.758-9.032,0.055-10.659-3.047c1.353-3.218,4.635-4.503,4.566-9.143
	c-7.801-2.886-17.83,12.362-28.93,6.095c11.104-6.167,15.641-20.01,25.885-27.427c8.608-6.231,21.132-5.016,27.41-15.237
	c-8.968-1.772-23.267-0.627-28.932-6.094c-7.869,8.108-23.783,7.264-25.887-3.048c-13.088,4.027-24.141-14.655-36.545-3.047
	c-6.311-2.32-10.994-6.268-19.796-6.094c-6.64-4.53-0.401-21.948-12.181-21.332c-3.492,1.584,0.721,10.879-3.047,12.19
	C525.48,96.451,335.093,57.389,163.226,13c7.078,11.159,0.665,24.644,3.045,33.521c-7.248-5.77-3.646-10.576-3.045-15.237
	c-6.128-1.053-3.739,6.417-9.136,6.095c-15.66-2.614-24.275-12.279-36.546-18.284c-1.099,14.203-2.395,37.957,4.568,48.758
	c-2.652-0.114-4.736,0.341-6.091,1.523c-1.628,5.693,3.781,4.344,3.046,9.143c-6.293,3.996-8.559,11.855-1.523,15.238
	c-4.888-1.336-3.156,3.951-6.09,4.571c-10.574,34.624-22.92,67.472-42.636,92.947c0.412,9.047-1.66,15.608-3.046,22.856
	c9.122,23.621-11.087,42.177-18.272,59.425c17.183,10.92,1.208,31.001,3.045,45.711c0.795,6.365,11.675,15.992,12.181,25.904
	c0.495,9.681,1.417,12.686,7.614,18.283c-8.058,13.053-0.193,29.988,9.136,35.045c-0.843,5.253-7,5.187-7.614,10.667
	c0.619,20.017,20.021,35.909,21.318,53.331c0.599,8.035-7.293,13.853-1.522,21.332c26.643-0.758,29.534,22.251,48.728,28.95
	c0.903,4.86-2.858,4.713,0,7.618c17.733,4.096,24.042,19.623,22.84,42.664c18.673,6.712,44.358,6.404,65.477,10.667
	c-0.02,3.027-4.154,1.938-3.045,6.094c23.943,11.816,46.48,28.151,68.522,41.141c28.406,16.742,61.955,20.816,105.068,25.905
	c0.774-5.321,0.685-11.505,3.045-15.238c14.866,2.393,29.432,5.087,45.682,6.094c10.544,13.321,18.583,29.149,35.022,36.57
	c8.601,9.202,5.877,19.204,9.137,31.999c4.312,16.921,25.738,20.882,39.591,30.474c10.883-6.888,9.502-26.045,25.887-27.426
	c32.246,3.793,48.008,24.082,53.296,54.852c10.974,5.779,13.785,19.727,24.361,25.905c-6.721,38.339,36.454,47.694,62.433,53.328
	c-4.807-20.285-3.748-40.347-1.521-62.472c25.696-17.457,57.009-29.297,77.658-51.806c21.681-18.135,59.846-4.699,82.228-4.572
	c-0.864-8.569-10.188-0.267-12.183-6.095c9.547-8.846,17.146,6.009,25.886,7.62c0.343,2.879-1.716,3.361-1.522,6.095
	c5.302,2.313,9.444,5.784,16.75,6.094c3.77-2.831,5.725-7.478,12.183-7.618c5.027,3.033-3.775,6.508,0,7.618
	c12.073-3.751,2.712-11.615,12.181-15.238c2.296,7.246,22.786,16.908,24.363,6.097c-4.271-5.884-16.893-3.411-19.796-10.667
	c4.774-4.014,10.795-5.361,7.615-16.761c-6.761-0.669-3.768,8.42-12.183,6.096c6.785-18.139,22.66-15.845,44.158-16.761
	c3.005-2.584,0.572-10.604,6.093-10.667c3.194,2.513,7.367,11.151,1.522,13.714c25.168-8.228,61.822-14.972,74.612,9.141
	c13.494-1.125,25.784-6.697,27.41-15.234c26.067-2.723,24.393,22.317,45.681,24.379c12.756,10.401-1.775,38.776,10.66,48.758
	c3.73-4.253-1.168-10.26,0-10.665c2.278,0.259,5.619-0.546,6.09,1.523c0.63,7.232-5.749,7.452-6.09,13.713
	c7.923,8.833,14.326,19.185,19.794,30.476c4.305,1.258,3.946-2.147,7.614-1.524c3.111,5.013,4.741,11.509,7.613,16.762
	c13.372-3.063,19.071,11.567,22.84,22.854c5.781-1.875,15.756-7.541,19.796-6.094c-2.026,9.167-17.268,13.165-16.75,19.809
	c10.609-7.67,20.351-16.208,22.843-31.998c-5.413-2.37-0.919,5.174-4.57,4.57c11.506-39.939-10.488-67.293-24.362-91.423
	c0.019-3.027,4.154-1.938,3.044-6.097c-23.038-20.653-47.355-62.005-33.498-102.089c3.221-9.318,13.522-14.548,13.703-24.379
	c14.502-4.791,18.277-20.312,30.455-27.426c-0.866-20.167,10.096-28.5,27.409-30.476c-1.352-30.172,37.171-24.423,38.067-44.188
	c-1.191,2.677-13.179,4.534-15.227,0c6.353,5.081,10.618-8.173,4.569-10.665c9.846,2.831,20.398-1.59,21.317-12.19
	c-2.432-4.166-9.293,3.557-12.182-1.524c5.418,0.343,9.123-1.028,10.659-4.571l-0.761-2.287l2.283,0.764
	c-6.468-9.783-11.637-20.863-16.75-31.999c-3.46,0.013-7.348-0.404-9.632,0.783c6.048-5.032-6.993-10.949-4.073-14.495
	c1.528-0.006,1.813,1.233,3.045,1.523c-0.88-11.31-4.268-20.108-12.18-24.381c4.094,1.051,2.941-3.148,4.567-4.571
	c-10.577-6.778-12.224-35.042-1.522-36.569c-6.904,6.374,4.405,13.992-3.045,21.334c6.828,0.089,2.509,2.166,3.045,10.665
	c8.104,0.526,6.435,10.829,12.18,13.712c2.23-5.42-4.893-9.129-1.521-10.665c15.982,5.623-2.925,27.912,9.137,36.57
	c3.027-19.658,17.13-38.109,9.136-59.425c-10.674-3.032-12.202-15.217-18.272-22.856c4.129,6.026,9.971,10.34,19.795,10.666
	c0.623,3.671-2.78,3.312-1.522,7.619c11.438-10.818,20.471-30.738,15.228-53.331c-1.801-3.751-5.752,3.121-7.613-1.523
	c3.104-0.448,2.985-4.123,6.091-4.572l-0.761-4.114l2.283-3.504c10.755-21.744,42.13-22.854,60.909-36.57
	c1.9-4.573-0.729-7.621,6.09-9.143c0.868,4.932-0.461,7.665-3.045,9.143c6.914-3.748,10.237-11.088,19.796-12.189
	c-0.229-7.899-2.364-13.887-10.658-13.714c0.721,4.866,7.807,3.361,7.612,9.143c-13.178,11.675-15.862-14.177-25.886-10.666
	c0.935-13.441-0.784-31.838,6.091-51.807c8.478,1.463,14.184-7.811,21.317-12.189c1.116-5.282-1.662-14.452,0-15.236
	c1.786,2.275,6.328,1.794,6.091,6.094c-3.606,2.296-5.621,2.313-3.046,7.619c7.668-1.83,4.121-12.279,9.138-16.761
	c-0.427,3.98-0.514,7.625,4.567,6.095c2.887-8.976-1.842-4.259-3.045-9.143C1379.18,151.243,1401.598,128.014,1387.495,116.613z"/>
<path fill="#00929A" stroke="#83D2E5" stroke-width="3" stroke-miterlimit="10" d="M1140.725,925.641
	c-1.891,0.574-4.611,3.216-5.777,3.917C1134.327,929.615,1143.365,926.901,1140.725,925.641
	C1140.029,925.853,1140.873,925.712,1140.725,925.641z M1323.819,957.647c1.005,0.355,2.011,0.712,3.016,1.067
	C1326.289,955.613,1324.312,957.676,1323.819,957.647z M1236.508,964.44l-0.372-0.209l-0.288,0.111l-0.09,0.519
	c-1.027-2.085-2.038-2.62-3.033-1.604c1.639,0.825,2.604,2.221,4.261,2.725C1237.134,965.367,1236.878,964.91,1236.508,964.44z
	 M1252.062,906.322l0.351,0.513l-0.236,0.458c0.491,1.409,1.433,2.335,2.824,2.78
	C1254.02,908.776,1250.217,904.867,1252.062,906.322z M1233.584,959.111c-1.229-0.376-0.992,0.272-1.51-0.21
	c-2.297,0.518-2.591,0.977-0.88,1.379C1231.99,959.89,1232.787,959.501,1233.584,959.111
	C1233.133,958.974,1232.947,959.864,1233.584,959.111z M1154.851,873.555c0.81,0.885,1.425,0.996,1.847,0.334l-0.102-0.295
	C1156.227,873.565,1153.947,872.357,1154.851,873.555C1155.046,874.015,1154.746,873.416,1154.851,873.555z M1157.414,874.977
	c0.399,0.084,4.713,1.101,4.285,0.296c-0.843-0.099-4.16-0.592-4.703-0.699C1157.185,874.641,1157.32,874.8,1157.414,874.977
	C1157.948,875.09,1157.32,874.8,1157.414,874.977z M1162.064,876.048c0.586,0.042,0.873-0.149,0.859-0.575
	C1164.534,874.822,1160.837,874.826,1162.064,876.048C1162.111,875.532,1161.447,875.434,1162.064,876.048z M1169.73,877.77
	c0.63-0.14,2.03-0.791,2.583-0.867C1171.941,876.813,1169.179,877.09,1169.73,877.77
	C1170.202,877.665,1169.663,877.688,1169.73,877.77z M1174.832,877.91c0.147,0.396,2.74,2.105,1.494,0.394
	C1175.377,876.999,1174.383,877.729,1174.832,877.91C1174.952,878.235,1174.653,877.838,1174.832,877.91z M1181.494,880.79
	c0.444,0.104,0.801,0.045,1.004,0.315c-0.033-1.153-0.392-1.59-1.074-1.309c0.119,0.479,0.047,0.671-0.216,0.574
	C1181.223,880.55,1181.331,880.694,1181.494,880.79C1181.69,880.836,1181.331,880.694,1181.494,880.79z M1188.831,884.091
	c-0.582,1.062,0.327,0.755,0.755,0.579C1190.912,884.622,1187.672,884.058,1188.831,884.091
	C1188.721,884.293,1188.625,884.085,1188.831,884.091z M1193.295,887.1c2.4,0.286,0.644-0.664-0.502-1.721
	c0.201,0.432,0.084,0.637-0.355,0.618C1192.236,886.519,1192.955,886.859,1193.295,887.1
	C1193.447,887.118,1192.955,886.859,1193.295,887.1z M1209.028,894.679v0.229C1212.041,895.059,1208.363,892.89,1209.028,894.679z
	 M1223.147,898.501c0.952,0.146,1.233-0.569,0.964-1.106C1223.597,898.044,1222.729,897.178,1223.147,898.501
	C1223.449,898.548,1223.066,898.245,1223.147,898.501z M1125.708,927.505c-1.323,0.341-1.698,0.526-1.124,0.559
	c-0.751,1.418-1.536,0.959,1.549-0.648L1125.708,927.505z M1121.647,928.039c-0.455,0.771-3.278,2.427-4.2,2.616
	C1117.671,930.841,1123.706,929.428,1121.647,928.039C1121.428,928.41,1121.96,928.251,1121.647,928.039z M1226.758,961.156
	l-0.1,0.033l-0.045,0.183c0.531,0.393,0.81,0.388,0.834-0.017C1227.226,961.27,1226.994,961.193,1226.758,961.156z M1228.96,961.268
	c0.14,0.636-0.739,0.2-1,0.123C1228.939,962.02,1229.273,961.979,1228.96,961.268C1228.979,961.353,1229.073,961.39,1228.96,961.268
	z M1100.686,917.656l-0.723,0.185C1102.943,918.956,1103.185,918.894,1100.686,917.656z M1104.814,894.882
	c-0.031-0.441-0.178-0.61-0.439-0.509C1104.537,896.46,1105.928,898.366,1104.814,894.882
	C1104.763,894.677,1105.101,895.777,1104.814,894.882z M1135.352,914.604C1135.334,911.928,1132.562,915.287,1135.352,914.604
	C1135.349,914.11,1135.125,914.66,1135.352,914.604z M1072.032,917.427C1068.344,916.166,1071.772,917.451,1072.032,917.427
	C1071.572,917.27,1072.111,917.419,1072.032,917.427z M1103.176,929.252l-0.252-0.427c0.473-0.594-1.152-1.449-1.07-2.497
	c2.615-4.667-8.914-9.239-12.509-8.155c0.803,1.066-4.62,7.286,2.026,11.721l-0.57,1.05l-0.214-0.208
	c-1.415,2.263-4.719-2.28-7.134-2.1C1085.272,942.172,1103.484,929.498,1103.176,929.252z M1247.245,906.406
	c-0.112,3.133-1.104,5.191,1.664,4.898c0.974-0.508,2.245,1.029,2.752,1.455c1.241-1.509-0.035-3.466-0.128-4.33
	c-0.173,0.414-2.196-0.814-1.296,0.739C1248.161,909.344,1246.836,903.856,1247.245,906.406
	C1247.201,907.642,1247.186,906.038,1247.245,906.406z M1226.515,897.38c-0.605-0.296-0.849-0.1-0.729,0.588
	c-0.624-0.503-0.733-0.195-0.328,0.925c0.662-0.985,1.209-1.061,1.643-0.228l-0.456,0.374c1.604,1.097,8.092,1.656,8.017,1.968
	c-0.637-0.2-0.93,0.103-0.881,0.907c1.863-0.433,3.002-0.57,4.688-0.688c-0.596-1.198-1.355-2.285-2.277-3.259
	C1235.258,897.381,1229.334,897.622,1226.515,897.38C1226.333,897.236,1227.559,897.469,1226.515,897.38z M1237.919,901.852
	l-0.44,0.549c0.499,0.396,0.952,0.33,1.359-0.201c1.502,1.414,1.818,1.903,0.947,1.469c-0.782,0.951,1.876-0.699,1.362,1.285
	c1.409,1.121,4.781,1.649,5.856,1.621c-1.517-0.06-4.108-4.44-5.891-5.292C1240.088,901.682,1239.022,901.872,1237.919,901.852z
	 M1254.686,913.799c-1.287-0.875-4.919-0.97-5.504-0.925c-0.422,2.002,1.56,2.776,2.78,2.315l0.214,0.696
	c1.449-1.806,3.701,4.169,4.79,3.111c-0.418-0.498-0.301-0.904,0.353-1.223c-0.201,1.266,0.326,1.335,1.582,0.211
	C1257.252,915.468,1259.421,912.968,1254.686,913.799C1254.281,913.523,1255.022,913.74,1254.686,913.799z M1099.634,896.389
	c0.034-0.813-0.569-0.486-0.335,0.268L1099.634,896.389z M1210.866,898.076l0.405-0.15c-0.571-0.595-0.744-0.602-0.815-0.141
	c-0.163-0.412-0.282-0.407-0.356,0.016L1210.866,898.076z M1216.315,898.943c0.558-0.086,0.669-0.321,0.335-0.707
	c-0.396-0.031-0.566,0.127-0.512,0.474l0.141,0.05l-0.034,0.099L1216.315,898.943z M1109.414,899.256l-0.009-0.25l-0.187,0.083
	C1109.297,899.764,1109.045,900.817,1109.414,899.256z M1244.98,910.027c-1.762-1.226,0.23,0.245,0.449,0.381l0.055-0.302
	c-0.199,0.131-0.156,0.188-0.385,0.206l0.072-0.125L1244.98,910.027z M1255.929,919.77l-0.109,0.009
	c-0.534-0.409-0.734-0.402-0.601,0.022l0.644,0.368C1256.088,919.998,1256.169,919.839,1255.929,919.77z M1126.354,920.231
	c-0.71,0.748,0.394,0.083,0.473,0.017L1126.354,920.231z M1223.021,936.319l0.255-0.509l-0.275-0.016l0.082,0.299l-0.162,0.049
	L1223.021,936.319z M1224.744,946.569c-0.2-0.467-0.494-0.567-0.884-0.302C1223.873,946.294,1225.84,948.09,1224.744,946.569
	C1224.646,946.389,1224.879,946.757,1224.744,946.569z M1231.809,958.553c0.192-0.434-0.186-0.861-0.489-1.167
	C1231.389,957.858,1231.55,958.153,1231.809,958.553z M1234.919,961.828c0.371,0.236,0.597,0.176,0.68-0.181l-0.21-0.014
	c0.02-0.315-0.081-0.475-0.304-0.478c-0.25,0.237-0.247,0.408,0.009,0.514C1235.002,961.688,1234.94,961.739,1234.919,961.828
	C1235.066,961.969,1234.94,961.739,1234.919,961.828z M1345.117,960.698c-0.076,0.139-0.051,0.191,0.076,0.158l-0.04-0.456
	l-0.6-0.215C1344.647,960.458,1344.887,960.552,1345.117,960.698C1345.073,960.745,1344.887,960.552,1345.117,960.698z
	 M1152.778,873.79c0.38-0.91-0.374,0.61-0.37,0.536L1152.778,873.79z M1183.496,882.007c1.848-1.153,0.325-1.274,0.039-1.151
	C1183.641,880.797,1183.461,881.392,1183.496,882.007z M1185.25,883.211l0.052,0.44c1.566-0.144-0.112-0.828-0.294-0.871
	C1185.137,882.889,1185.22,883.039,1185.25,883.211z M1189.186,885.33C1188.867,885.999,1189.332,885.794,1189.186,885.33
	C1189.109,885.491,1189.186,885.33,1189.186,885.33z M1063.908,889.352c-0.191-0.616,1.641-0.83,1.496-0.806
	C1063.653,889.785,1063.154,890.053,1063.908,889.352C1063.824,889.082,1063.844,889.453,1063.908,889.352z M1200.043,893.574
	c-0.032-0.23-0.103-0.271-0.211-0.125c-0.307-0.501-0.057-1.099-0.441-0.415C1199.62,894.499,1199.838,894.68,1200.043,893.574
	C1200.049,893.48,1199.811,893.756,1200.043,893.574z M1210.912,895.164l0.177,0.06c-0.054,0.555,0.439,0.09,0.521,0.017
	c0.029-0.987-0.693-0.743-1.176-0.19C1210.568,895.193,1210.728,895.23,1210.912,895.164z M1225.381,895.541
	c-0.076,0.144-0.076,0.27,0.002,0.381c0.229-0.031,0.42-0.023,0.515-0.104l-0.19,0.389l0.119,0.158l0.159-0.139
	c-0.228-0.735,0.676,0.335,0.819,0.514l0.228-0.073C1226.886,895.383,1224.982,895.436,1225.381,895.541
	C1225.432,895.652,1225.273,895.513,1225.381,895.541z M1220.219,899.489l0.211,0.075l0.066-0.041
	c0.248,0.441,0.48,0.534,0.699,0.278C1220.35,898.163,1219.712,899.573,1220.219,899.489z M1241.785,900.854
	c0.463,0.043,0.672-0.185,0.787-0.648C1242.772,900.528,1242.334,900.611,1241.785,900.854
	C1241.9,900.865,1241.627,900.925,1241.785,900.854z M1043.953,902.562c0.923,0.147,1.209,0.69,2.03-0.014l-0.067-0.244
	c-1.103-0.197-1.543-0.665-2.092,0.157L1043.953,902.562z M1249.59,904.72c0.189,0.324,0.805,0.895,0.977,1.03
	c0.4-0.806-1.195-1.479-1.338-1.488C1249.319,904.436,1249.448,904.584,1249.59,904.72
	C1249.709,904.924,1249.448,904.584,1249.59,904.72z M1249.408,907.63C1250.744,906.978,1249.453,906.211,1249.408,907.63
	C1249.733,907.472,1249.415,907.415,1249.408,907.63z M1236.689,908.663c1.232-0.202,1.597-2.619,0.181-0.409l0.079,0.144
	C1236.892,908.515,1236.805,908.603,1236.689,908.663C1237.098,908.597,1236.805,908.603,1236.689,908.663z M1142.635,914.923
	c-0.787,0.544-1.254-1.179-1.224-0.946l0.028,0.224l-0.083,0.075c-0.075-0.126-0.178-0.175-0.307-0.146
	c0.087,1.137-0.23,1.109-1.002,0.606c-0.32-0.035-1.316-0.961-1.67-1.186l-0.121,0.151c0.829,1.658,3.16,1.92,4.657,1.347
	l-0.053-0.097L1142.635,914.923z M1077.918,917.723c-2.025-0.288-2.725-0.137-2.1,0.454
	C1078.65,918.156,1079.352,918.006,1077.918,917.723C1077.113,917.562,1078.114,917.715,1077.918,917.723z M1100.889,919.394
	c0.153,0.312,0.297,0.396,0.432,0.254C1101.213,919.498,1101.068,919.413,1100.889,919.394
	C1100.995,919.519,1101.068,919.413,1100.889,919.394z M1102.052,920.348l0.177,0.066c0.789-0.537-0.328-0.757-0.579-0.736
	C1102.334,919.725,1102.468,919.948,1102.052,920.348z M1083.685,923.794c0.042-0.438-0.364-1.442-0.689-1.757
	C1082.781,922.531,1083.326,923.46,1083.685,923.794z M1104.318,925.07c-0.471,0.287-1.197-0.479-1.454-0.828
	c0.473,0.415,0.432,1.233,0.185,1.492C1104.202,925.908,1104.702,926.113,1104.318,925.07
	C1104.197,925.144,1104.418,925.344,1104.318,925.07z M1112.102,930.139l-0.081-0.091l0.017-0.05l0.107-0.025l0.034-0.084
	c0.225-0.013-2.493,1.129-1.718,0.884C1112.318,930.706,1112.865,930.494,1112.102,930.139z M1107.652,930.648
	C1106.377,929.389,1107.854,930.69,1107.652,930.648C1107.396,930.395,1107.777,930.675,1107.652,930.648z M1227.546,955.227
	c-0.682-0.106-0.032,0.576,0.177,0.651C1227.795,955.633,1227.706,955.42,1227.546,955.227
	C1227.425,955.207,1227.706,955.42,1227.546,955.227z M1227.105,958.906l0.094-0.124c-0.214-0.288-0.071-1.026-0.07-1.035
	C1227.023,957.926,1226.053,957.382,1227.105,958.906z M1244.009,960.636l-0.067,0.103c0.246,0.381,0.418,0.327,0.516-0.158
	l-0.082-0.063L1244.009,960.636z M1250.707,964.15l-0.359,0.087c0.37,0.019,0.516,0.202,0.436,0.548
	c0.33-0.068,0.457-0.235,0.383-0.501L1250.707,964.15z M1179.088,879.807c1.699-0.779-0.257-1.497-1.328-1.943
	C1176.572,879.111,1177.016,879.76,1179.088,879.807C1179.469,879.632,1178.363,879.669,1179.088,879.807z M1155.871,877.267
	c1.619-0.164,3.472,0.631,2.197-1.272v0.47c-0.267-0.741-0.547-0.897-0.843-0.47c1.302,1.646,0.073,2.423-3.684,2.333
	C1154.318,877.974,1155.095,877.62,1155.871,877.267C1156.215,877.231,1155.055,877.553,1155.871,877.267z M1185.806,884.552
	c0.503-0.141,2.058-0.301,1.972-1.07C1185.77,883.859,1186.646,883.922,1185.806,884.552z M1176.898,883.5
	c0.102-1.656-2.191-2.594-3.664-0.932C1174.455,882.879,1175.677,883.189,1176.898,883.5
	C1176.926,883.062,1175.704,883.294,1176.898,883.5z M1166.409,875.797l0.124,0.197c1.159,0.679,2.071,0.483,2.738-0.584
	C1168.747,875.364,1164.678,875.694,1166.409,875.797z M1221.873,958.063l-0.615,0.131c0.836,1.56,1.633,1.865,2.393,0.917
	C1223.059,958.698,1222.539,958.338,1221.873,958.063z M1196.2,889.506c1.284-0.539,8.138,4.664,9.265,5.672
	c-1.6-3.537-7.674-5.704-9.684-5.693L1196.2,889.506z M1219.676,956.312l-1.551,0.05
	C1218.131,956.126,1220.771,956.934,1219.676,956.312z M1204.502,945.6l-0.994,0.148c0.979,1.379,1.908,2.101,3.035,1.63
	C1205.863,946.785,1205.183,946.192,1204.502,945.6z M1215.355,953.857c-4.406-0.965,0.501,0.049,0.78,1.454
	C1217.123,954.218,1216.862,953.732,1215.355,953.857C1214.949,953.769,1215.842,953.913,1215.355,953.857z M1212.813,952.664
	c2.068-0.069-2.812-3.036-4.111-2.967c1.071,1.197,1.357,1.268,0.859,0.21C1210.872,950.076,1212.687,952.401,1212.813,952.664
	C1213.029,952.657,1212.918,952.886,1212.813,952.664z M1213.751,893.688c1.495,0.097,2.038,0.498,3.257,0.383l0.01-0.374
	C1212.91,892.768,1211.822,892.765,1213.751,893.688C1214.65,893.745,1213.488,893.603,1213.751,893.688z M1369.357,975.951
	c0.153,0.668-14.564-8.637-15.962-9.446c-4.882-2.833-7.991-6.507-13.38-5.767c-0.509,0.472-1.521,0.28-1.601-0.306
	c-0.574,0.308-1.052,0.257-1.433-0.152c-0.23,0.406-0.59,0.406-1.076,0v-0.229l0.516-0.146c-0.416-1.187-2.338-0.435-2.243-0.549
	c-3.377,0.106-3.449,0.642-0.216,1.607c-1.657,0.821-2.599,0.593-2.824-0.685c-0.001,0.372-0.144,0.525-0.428,0.458
	c-0.722-0.767-0.613-1.114,0.323-1.04c-1.038-2.321-3.89-1.168-3.124,0.582c-0.267-0.502-0.627-0.732-1.08-0.691l-0.492,0.613
	l-1.855-0.434l0.176,0.739c-1.962-0.65-0.91-1.89-2.59-3.233c-3.203,6.795-6.822-5.061,2.59-1.376
	c-1.799,0.307-2.402-3.044-5.39-1.126c-1.161-1.276-1.096-1.819,0.195-1.628c-0.032-0.592-0.887-0.59,0.609-0.721
	c1.774,2.273,3.939-10.703-5.429-5.66l-0.163,0.144c-2.103-0.741-4.293-0.336-5.167,0.471c0.075-0.806-12.047-10-15.47-6.826
	c-0.306,1.291,0.442,1.874,2.247,1.746c-3.389,1.073-2.055,0.399-4.743,0.229c0.638-0.255,0.564-0.332-0.22-0.229v-0.23
	c1.641-0.069,2.531-0.05,1.943-1.863v0.709c-2.98-1.419-4.283-1.619-1.943,0.671c-1.636-0.097-5.328-2.238-3.252-1.38
	c0.838-0.385,1.678-0.764,2.52-1.138c-1.426-3.563-5.508-1-5.749-0.914c-0.606,1.682-0.791,1.861-0.557,0.54l-1.616,0.849
	c-0.568-1.082,2.244-3.54,1.738-3.043l0.217-0.46c-5.588-4.335-9.504-8.033-12.092-2.191c0.318,0.037-4.912-4.396-4.92-4.584
	c0.212-0.521,2.713-0.121,2.512-0.143c2.145,0.204,2.532,1.275,4.119,2.074c1.777-5.13-13.958-12.361-14.525-11.146
	c0.569-0.276,4.342,2.689,3.899,2.331l0.453,0.483l0.547-0.281c0.509,0.279,3.863,5.008,3.872,5.383
	c-1.383,1.646-5.771-2.275-2.693-3.254c-1.658-1.783-16.192-1.049-12.13-7.442c-2.337-0.045-2.199,1.313-2.585,3.26
	c-9.577-8.642-15.645-11.164-26.827-17.432c1.83,0.851,0.392,1.896-0.214,1.856c0.257-0.109-19.971-1.412-21.607-5.414
	c-2.15-5.246-13.306-10.524-12.37-13.009c-0.42,0.286-5.915-0.216-7.235-2.212c-1.875,0.351-3.018-2.062-3.346-0.119
	c-7.16,2.814-15.653-5.496-14.583-6.591c-1.363,5.077-18.934,0.811-21.098,0.255c-0.117-1.252,4.732-2.619,4.919-2.78
	c-2.715-1.076-11.528,6.302-13.32,5.17c-0.399-10.203-40-0.604-45.05,2.061c0.685-1.015-4.176,0.346-5.174,1.4
	c0.091-0.086-5.4-1.004-8.012,2.352c-1.507-0.659-2.442-0.18-3.254,0.698c0.733-1.065-5.013,3.201-4.095,1.881
	c-2.477,1.048-6.729,1.824-8.877,2.561c-1.426,1.031-4.808,0.78-4.977,1.184c2.09-0.188-1.893,4.559-4.547,3.931
	c-0.253,1.937-2.491,3.886-2.391,3.738v0.253c-6.153,3.721-4.469,11.184-0.615,14.57c2.377-1.87,0.521-1.195,0.615,0.539
	c-1.883-0.293-4.87-0.318-6.346-0.75c-0.298-0.313-12.436,4.243-11.317,4.127c-0.766,1.38-1.569,1.422-2.411,0.129
	c-2.478,0.733,3.898,2.297,7.236,0.709c7.164-3.409,7.867-0.27,5.902,4.384c6.498-0.595,17.387-7.868,16.91-9.986
	c-0.29-7.386,8.71-1.908,9.522-3.727c0.75-1.746,1.828-2.596,3.233-2.55c0.662,0.567,0.739,1.038,0.234,1.413
	c9.598,3.896,18.281-17.78,27.913-16.594c6.005,0.738,34.646-2.036,32.457,5.947c-1.204,4.389-17.122,2.445-16.23,4.191
	c1.729,3.388,12.483,6.418,13.604,6.455c6.992-0.199,10.781,3.573,15.558,1.832c1.592,0.867,0.179,2.325,1.089,3.077
	c0.207-0.88-0.391-7.425,0.339-7.508c2.476-0.282,1.932,7.271,6.632,7.739c5.127,0.514,11.293-1.444,16.197,0.416
	c0.731-3.023-2.506-2.587-1.959-4.906c2.403,1.061,2.133,0.98,3.393,2.571c2.042,0.316-0.527,1.373,1.152,0.947
	c-4.01,3.405,9.865,9.344,12.559,11.814c-0.682-0.063-0.91-0.294-0.684-0.693c1.836-0.742,3.717,0.113,4.35,1.176v0.209
	l-0.647,0.254v0.23c6.467,2.372,21.2,6.117,29.194,3.482c2.775-1.718,6.909-0.897,8.762,0.462c-1.03-0.694-1.641-0.624-1.832,0.213
	c0.712,2.346,5.849,4.132,6.449,9.004c0.254,2.044,0.96,4.779,1.635,8.755c0.424,2.484,12.361,10.069,13.751,10.867h0.238
	l0.339,0.72c7.607,1.989,19.271-1.609,24.943,1.426c1.406,0.291,1.29,3.021,1.95,4.066l-0.202-0.376
	c7.404,0.421,0.673,8.065-0.872,8.425c-1.153-0.313-10.13,6.54-11.521,7.313c2.819,2.825-11.734,12.129,8.697,6.685h-0.863
	c3.671-4.372,26.856-1.552,33.208-3.273c11.294-3.057,24.033,6.811,33.408,1.427c2.978-1.379,1.796-2.678,1.985-2.761
	c1.316,1.281,2.101,0.826,2.352-1.366c0.209,3.673-0.583,0.571-1.491,3.217c0.713,0.892,2.017,0.064,1.382,2.365
	c5.302-2.347,9.34-5.119,16.379-5.318C1358.298,981.578,1369.967,981.331,1369.357,975.951
	C1369.146,975.026,1369.465,976.893,1369.357,975.951z M1195.943,893.783c0.012,0.002,0.023,0.006,0.033,0.011L1195.943,893.783z
	 M1196.146,893.985l-0.097,0.009l0.095-0.009l0.002-0.027V893.985z"/>
<g>
	<g>
		<g>
			<path fill="none" stroke="#F7DE4D" stroke-width="5" stroke-miterlimit="10" d="M90.698,476.47c0,0,4.121-0.563,11.916-1.387"/>
			<path fill="none" stroke="#F7DE4D" stroke-width="5" stroke-miterlimit="10" stroke-dasharray="23.622,23.622" d="
				M126.131,472.919c141.619-11.339,676.502-26.686,1032.692,340.75"/>
			<path fill="none" stroke="#F7DE4D" stroke-width="5" stroke-miterlimit="10" d="M1167.001,822.205
				c2.744,2.898,5.477,5.82,8.197,8.766"/>
		</g>
	</g>
</g>
<g opacity="0.3">
	<g>
		<g>
			
				<line fill="none" stroke="#000000" stroke-width="5" stroke-miterlimit="10" x1="98.265" y1="482.765" x2="109.669" y2="486.498"/>
			
				<line fill="none" stroke="#000000" stroke-width="5" stroke-miterlimit="10" stroke-dasharray="24.4842,24.4842" x1="132.938" y1="494.114" x2="1145.158" y2="825.429"/>
			
				<line fill="none" stroke="#000000" stroke-width="5" stroke-miterlimit="10" x1="1156.793" y1="829.237" x2="1168.197" y2="832.97"/>
		</g>
	</g>
</g>
</svg>