<?xml version="1.0" encoding="UTF-8" standalone="no"?>
<svg width="30px" height="30px" viewBox="0 0 30 30" version="1.1" xmlns="http://www.w3.org/2000/svg" xmlns:xlink="http://www.w3.org/1999/xlink" xmlns:sketch="http://www.bohemiancoding.com/sketch/ns">
    <!-- Generator: Sketch 3.2.2 (9983) - http://www.bohemiancoding.com/sketch -->
    <title>Blog</title>
    <desc>Created with Sketch.</desc>
    <defs></defs>
    <g id="Welcome" stroke="none" stroke-width="1" fill="none" fill-rule="evenodd" sketch:type="MSPage">
        <g id="01_Desktop_Default" sketch:type="MSArtboardGroup" transform="translate(-706.000000, -2547.000000)">
            <g id="Footer" sketch:type="MSLayerGroup" transform="translate(0.000000, 2497.000000)">
                <g id="Social" transform="translate(544.000000, 50.000000)" sketch:type="MSShapeGroup">
                    <g id="Blog" transform="translate(162.000000, 0.000000)">
                        <path d="M30,15 C30,6.71590909 23.2840909,0 15,0 C6.71590909,0 0,6.71590909 0,15 C0,23.2840909 6.71590909,30 15,30 C23.2840909,30 30,23.2840909 30,15 L30,15 Z" id="Shape" fill="#FC8020"></path>
                        <path d="M18.8427273,7.605 C18.8427273,7.605 20.2090909,6.94227273 20.7572727,7.37045455 L21.8318182,8.20909091 C22.3827273,8.63863636 22.0663636,10.1236364 22.0663636,10.1236364 L21.2263636,11.1981818 L18.0027273,8.67954545 L18.8427273,7.605 L18.8427273,7.605 Z" id="Path" fill="#FFFFFF"></path>
                        <path d="M9.54409091,22.9240909 L9.61090909,19.515 L17.5868182,9.30681818 L18.6613636,10.1468182 L10.9390909,20.0304545 L10.8027273,21.3122727 L12.0136364,20.8704545 L19.7359091,10.9868182 L20.8104545,11.8268182 L12.8345455,22.035 L9.54409091,22.9240909 L9.54409091,22.9240909 Z" id="Path" fill="#FFFFFF"></path>
                    </g>
                </g>
            </g>
        </g>
    </g>
</svg>