<?xml version="1.0" standalone="no"?>
<!DOCTYPE svg PUBLIC "-//W3C//DTD SVG 1.1//EN" "http://www.w3.org/Graphics/SVG/1.1/DTD/svg11.dtd" >
<svg xmlns="http://www.w3.org/2000/svg">
<metadata></metadata>
<defs>
<font id="effraregular" horiz-adv-x="1116" >
<font-face units-per-em="2048" ascent="1638" descent="-410" />
<missing-glyph horiz-adv-x="370" />
<glyph unicode="&#xfb01;" horiz-adv-x="1114" d="M27 799v153h172v41q0 111 33.5 189t93 126t139.5 70.5t172 22.5q84 0 176 -26.5t164 -78.5l-84 -137q-49 35 -113.5 59.5t-142.5 24.5q-121 0 -187.5 -50t-66.5 -177v-64h596v-952h-184v799h-412v-799h-184v799h-172z" />
<glyph unicode="&#xfb02;" horiz-adv-x="1128" d="M27 799v153h172v47q0 106 31.5 183.5t88 125.5t136.5 70.5t178 22.5q61 0 119.5 -9.5t106.5 -23.5t85 -31.5t57 -31.5v-1305h-184v1210q-35 16 -84 24.5t-102 8.5q-135 0 -191.5 -55t-56.5 -189v-47h270v-153h-270v-799h-184v799h-172z" />
<glyph unicode="&#xfb03;" horiz-adv-x="1742" d="M25 799v153h174v66q0 106 29.5 180t77.5 119t105.5 64.5t112.5 19.5q74 0 141.5 -24.5t127.5 -80.5l-91 -118q-74 63 -153 63q-78 0 -122 -50t-44 -167v-72h444v41q0 111 34 189t93.5 126t139.5 70.5t172 22.5q84 0 176 -26.5t164 -78.5l-84 -137q-49 35 -114 59.5 t-142 24.5q-121 0 -187.5 -50t-66.5 -177v-64h596v-952h-185v799h-411v-799h-185v799h-444v-799h-184v799h-174z" />
<glyph unicode="&#xfb04;" horiz-adv-x="1757" d="M25 799v153h174v66q0 106 29.5 180t77.5 119t105.5 64.5t112.5 19.5q74 0 141.5 -24.5t127.5 -80.5l-91 -118q-74 63 -153 63q-78 0 -122 -50t-44 -167v-72h444v47q0 106 32 183.5t88.5 125.5t136 70.5t178.5 22.5q61 0 119.5 -9.5t106.5 -23.5t85 -31.5t57 -31.5v-1305 h-184v1210q-35 16 -84 24.5t-102 8.5q-135 0 -191.5 -55t-56.5 -189v-47h270v-153h-270v-799h-185v799h-444v-799h-184v799h-174z" />
<glyph horiz-adv-x="2048" />
<glyph horiz-adv-x="2048" />
<glyph unicode="&#xd;" horiz-adv-x="358" />
<glyph unicode=" "  horiz-adv-x="370" />
<glyph unicode="&#x09;" horiz-adv-x="370" />
<glyph unicode="&#xa0;" horiz-adv-x="370" />
<glyph unicode="!" horiz-adv-x="528" d="M147 0v223h230v-223h-230zM160 1366h205l-5 -973h-194z" />
<glyph unicode="&#x22;" horiz-adv-x="745" d="M131 913v453h176v-453h-176zM447 913v453h176v-453h-176z" />
<glyph unicode="#" horiz-adv-x="1546" d="M133 336v147h283l84 314h-244v147h283l90 336h168l-90 -336h303l90 336h168l-90 -336h233v-147h-274l-82 -314h231v-147h-272l-90 -336h-166l90 336h-305l-90 -336h-166l90 336h-244zM582 483h305l84 314h-305z" />
<glyph unicode="$" d="M63 197l132 122q27 -31 58.5 -60.5t70 -55t86 -43t104.5 -23.5v457q-72 20 -141.5 46t-123.5 68t-87 104t-33 155q0 68 23.5 127t71.5 105t120 76t170 38v180h127v-180q80 -8 137.5 -30.5t99.5 -50.5t67.5 -54.5t39.5 -44.5l-131 -117q-23 29 -72 70.5t-141 58.5v-406 q76 -18 144.5 -49t122 -77t85 -113.5t31.5 -159.5q0 -76 -28.5 -139.5t-79 -110.5t-121 -76.5t-154.5 -40.5v-180h-127v176q-88 6 -159.5 28.5t-127 55.5t-96.5 71t-68 73zM307 971q0 -37 8.5 -65.5t32 -52.5t63.5 -44.5t103 -38.5v381q-113 -10 -160 -62.5t-47 -117.5z M641 139q104 14 152.5 65.5t48.5 141.5q0 76 -42 124t-159 89v-420z" />
<glyph unicode="%" horiz-adv-x="1826" d="M96 956q0 182 89 275.5t229 93.5q70 0 128 -23.5t100 -69.5t65.5 -114.5t23.5 -161.5q0 -182 -89 -276t-228 -94t-228.5 94t-89.5 276zM254 956q0 -68 14 -113.5t37 -74.5t51.5 -41t57.5 -12t56.5 12t50 41t36.5 75t14 113q0 68 -14 114t-36.5 73.5t-50.5 40t-56 12.5 q-29 0 -57.5 -12.5t-51.5 -40t-37 -73.5t-14 -114zM406 0l829 1290h175l-830 -1290h-174zM1094 354q0 182 89 275.5t229 93.5q70 0 128 -23.5t100 -69.5t65.5 -114.5t23.5 -161.5q0 -182 -89 -276t-228 -94t-228.5 94t-89.5 276zM1252 354q0 -68 14 -113.5t37 -74.5 t51.5 -41t57.5 -12t56.5 12t50 41t36.5 75t14 113q0 68 -14 114t-36.5 73.5t-50.5 40t-56 12.5q-29 0 -57.5 -12.5t-51.5 -40t-37 -73.5t-14 -114z" />
<glyph unicode="&#x26;" horiz-adv-x="1306" d="M76 346q0 129 69.5 233.5t212.5 202.5l-24 31q-49 61 -76 127t-27 139q0 61 25 119.5t71 104t113.5 72t153.5 26.5q78 0 134 -19.5t98 -51.5t70 -71.5t48 -82.5l-137 -89q-53 92 -101.5 122t-101.5 30q-88 0 -133 -47t-45 -111q0 -55 29.5 -107t79.5 -110l372 -436 l178 227l140 -110l-203 -254l250 -291h-238l-131 150q-72 -76 -165 -129.5t-232 -53.5q-104 0 -185 30t-135.5 82t-82 120.5t-27.5 146.5zM272 356q0 -92 61.5 -153.5t180.5 -61.5q94 0 158.5 42t115.5 102l-321 368q-106 -74 -150.5 -140.5t-44.5 -156.5z" />
<glyph unicode="'" horiz-adv-x="413" d="M119 913v453h176v-453h-176z" />
<glyph unicode="(" horiz-adv-x="593" d="M129 627q0 150 22.5 279.5t54.5 234t67.5 182.5t62.5 123h180q-33 -59 -66.5 -143t-60.5 -188.5t-44 -227.5t-17 -260q0 -135 17 -258t44 -227.5t60.5 -188.5t66.5 -143h-180q-27 45 -62.5 121.5t-67.5 181t-54.5 234.5t-22.5 280z" />
<glyph unicode=")" horiz-adv-x="593" d="M80 -190q33 59 65.5 143t60 188.5t45 227.5t17.5 258q0 137 -17.5 260t-45 227.5t-60 188t-65.5 143.5h178q27 -45 61.5 -123t67.5 -182.5t55.5 -234.5t22.5 -279q0 -150 -22.5 -280t-55.5 -234.5t-67.5 -181t-61.5 -121.5h-178z" />
<glyph unicode="*" horiz-adv-x="1026" d="M129 924l256 137l-256 135l74 129l248 -156l-13 293h150l-10 -293l245 156l74 -129l-256 -135l256 -137l-74 -129l-245 155l10 -291h-150l13 291l-248 -155z" />
<glyph unicode="+" d="M150 578v159h329v322h160v-322h328v-159h-326v-322h-162v322h-329z" />
<glyph unicode="," horiz-adv-x="522" d="M135 -240l105 240h-82v227h231v-225l-141 -242h-113z" />
<glyph unicode="-" horiz-adv-x="899" d="M150 485v177h600v-177h-600z" />
<glyph unicode="." horiz-adv-x="524" d="M145 -2v229h232v-229h-232z" />
<glyph unicode="/" horiz-adv-x="831" d="M51 -33l545 1436h182l-540 -1436h-187z" />
<glyph unicode="0" d="M66 659q0 154 31.5 277t95 210t154.5 134t212 47q119 0 211 -47t154.5 -134t94.5 -210t32 -277q0 -156 -32 -282.5t-95.5 -216.5t-155.5 -139.5t-211 -49.5q-121 0 -212 49.5t-153.5 139.5t-94 217t-31.5 282zM258 659q0 -115 19.5 -210t57.5 -163.5t93 -106.5t129 -38 t130 38t94 106.5t57.5 164t19.5 209.5q0 113 -19.5 205t-58.5 156.5t-94 99.5t-129 35t-129 -35t-93 -99.5t-57.5 -156.5t-19.5 -205z" />
<glyph unicode="1" d="M176 1098l363 198h166v-1132h225v-164h-641v164h229v932l-266 -144z" />
<glyph unicode="2" d="M119 1100q20 37 56 77t86 73.5t119 55t159 21.5q104 0 181 -28.5t126 -76.5t73.5 -109.5t24.5 -129.5q0 -72 -24.5 -134.5t-65.5 -115.5t-93 -101t-108 -91q-66 -51 -122 -98.5t-98 -92.5t-65.5 -90t-23.5 -92h614v-168h-819v133q0 109 51.5 191t122.5 153 q88 88 167 151.5t138.5 117t93 105.5t33.5 120q0 31 -11 63.5t-37.5 60t-67.5 46t-103 18.5q-55 0 -98 -15.5t-76 -38t-55.5 -51t-40.5 -53.5z" />
<glyph unicode="3" d="M70 109l108 133q51 -41 121 -77t176 -36q129 0 205 69.5t76 186.5q0 104 -64.5 172t-189.5 68q-37 0 -68 -6.5t-59 -16.5l-60 96l363 422h-516v170h741v-147l-332 -387q86 0 156 -27t120 -76t76.5 -117.5t26.5 -152.5q0 -102 -36.5 -180t-101 -130.5t-152 -80 t-187.5 -27.5q-74 0 -135.5 12.5t-110.5 33t-88 46t-69 52.5z" />
<glyph unicode="4" d="M100 268v158l586 866h186v-864h140v-160h-140v-268h-178v268h-594zM283 428h411v616z" />
<glyph unicode="5" d="M78 106l104 136q57 -47 126 -79t171 -32q72 0 125 21.5t89 58.5t53.5 86t17.5 106q0 39 -12.5 84t-43 83t-84 62.5t-135.5 24.5q-84 0 -133 -16t-90 -37l-94 72l123 614h633v-172h-504l-59 -338q20 12 65 23.5t109 11.5q92 0 168.5 -26.5t132 -79t86 -127t30.5 -172.5 q0 -90 -28.5 -170t-88 -141.5t-151.5 -97.5t-219 -36q-135 0 -230.5 41t-160.5 100z" />
<glyph unicode="6" d="M129 584q0 172 36 309t106.5 233.5t173 147.5t237.5 51q104 0 181 -30.5t116 -55.5l-84 -145q-6 4 -23.5 14t-46 21.5t-66.5 20.5t-83 9q-86 0 -151.5 -37t-110.5 -98t-70 -140t-27 -163q45 31 117 66.5t182 35.5q186 0 292 -110.5t106 -313.5q0 -96 -32 -176t-88 -137 t-134 -89t-170 -32q-217 0 -339 153.5t-122 465.5zM315 559q0 -203 63.5 -316.5t209.5 -113.5q49 0 94 18.5t80 53.5t55.5 86t20.5 116q0 111 -56.5 183.5t-183.5 72.5q-98 0 -167 -29.5t-116 -70.5z" />
<glyph unicode="7" d="M141 1118v174h826v-168q-31 -47 -71 -126.5t-86 -177t-94 -208t-91 -219t-80 -211t-60 -182.5h-198q47 145 112.5 310t134 320.5t133 284.5t109.5 203h-635z" />
<glyph unicode="8" d="M90 346q0 68 22.5 123t60.5 100t87 79t100 57q-82 43 -139 114.5t-57 175.5q0 72 27.5 133.5t79 105.5t124 68.5t164.5 24.5q96 0 170 -24.5t123 -67.5t74.5 -101.5t25.5 -125.5q0 -96 -53 -174t-151 -123q37 -16 85 -45t91 -74t72.5 -105.5t29.5 -138.5 q0 -66 -25.5 -133.5t-82 -122.5t-145.5 -90t-214 -35q-129 0 -218 35t-144.5 90t-81 122t-25.5 132zM281 352q0 -61 25.5 -105t65.5 -72t89 -40t98 -12t98.5 12t89 40t64.5 72t25 105q0 49 -24 91t-63.5 76t-91 59.5t-106.5 39.5q-55 -14 -104.5 -39.5t-86 -59.5t-58 -76 t-21.5 -91zM342 995q0 -70 56.5 -129t160.5 -90q98 31 157.5 90.5t59.5 139.5q0 76 -59.5 126t-157.5 50t-157.5 -50.5t-59.5 -136.5z" />
<glyph unicode="9" d="M94 891q0 96 33 176t90 138.5t136 90t171 31.5q217 0 339 -154.5t122 -465.5q0 -170 -33.5 -306.5t-101.5 -231.5t-168 -147.5t-233 -52.5q-53 0 -101.5 9.5t-89.5 21.5t-71.5 26.5t-49.5 26.5l80 150q6 -4 26.5 -15.5t52.5 -23.5t72 -21.5t85 -9.5q86 0 149.5 36 t105.5 95.5t63.5 138t25.5 162.5q-37 -31 -110 -65.5t-193 -34.5q-92 0 -166 31.5t-126 88t-80 134.5t-28 172zM270 889q0 -53 14.5 -99.5t44 -81t77 -55t114.5 -20.5q102 0 167 28.5t112 69.5q0 201 -64.5 315.5t-208.5 114.5q-49 0 -95 -17.5t-81 -52t-57.5 -86 t-22.5 -116.5z" />
<glyph unicode=":" horiz-adv-x="524" d="M149 -2v229h232v-229h-232zM149 725v229h232v-229h-232z" />
<glyph unicode=";" horiz-adv-x="538" d="M141 -240l105 240h-82v227h231v-225l-141 -242h-113zM163 725v229h232v-229h-232z" />
<glyph unicode="&#x3c;" d="M145 596v119l750 393l70 -139l-605 -314l605 -313l-70 -139z" />
<glyph unicode="=" d="M150 389v160h817v-160h-817zM150 745v160h817v-160h-817z" />
<glyph unicode="&#x3e;" d="M150 342l604 313l-604 314l69 139l750 -393v-119l-750 -393z" />
<glyph unicode="?" horiz-adv-x="1036" d="M82 1202q18 25 53 58.5t88 64.5t125 53.5t164 22.5q100 0 178 -27.5t132.5 -75t82 -110t27.5 -131.5q0 -59 -14.5 -105.5t-41 -86.5t-65.5 -74.5t-88 -71.5q-41 -31 -74 -56.5t-55.5 -56.5t-34.5 -68.5t-12 -88.5v-56h-185v58q0 111 45.5 198.5t149.5 163.5 q33 25 66.5 50.5t60.5 54t43 63.5t16 76q0 78 -63.5 126t-167.5 48q-57 0 -104.5 -14.5t-86 -35t-67.5 -46t-49 -45.5zM342 0v225h227v-225h-227z" />
<glyph unicode="@" horiz-adv-x="1957" d="M98 575q0 209 74 365t197 259.5t281.5 153.5t330.5 50q186 0 348 -50t279.5 -149.5t185.5 -249t68 -348.5q0 -188 -43 -311t-105.5 -195.5t-135.5 -102.5t-134 -30q-33 0 -67 7.5t-63.5 22.5t-52 42t-34.5 67q-84 -84 -170 -110.5t-178 -26.5q-53 0 -110.5 16.5 t-105 53.5t-78 94t-30.5 137q0 154 107.5 247t310.5 93q78 0 136 -4t93 -8v35q0 98 -62.5 144t-168.5 46q-111 0 -175.5 -29.5t-107.5 -60.5l-88 127q27 23 62.5 44.5t83 39t107.5 28.5t138 11q180 0 285.5 -88t105.5 -254v-412q0 -57 26 -80.5t65 -23.5q35 0 73.5 25.5 t70.5 83t52.5 150.5t20.5 228q0 168 -58.5 289t-157 199t-228.5 114.5t-271 36.5q-121 0 -245 -34.5t-224 -113.5t-165 -206t-65 -311q0 -104 21.5 -186.5t54.5 -143.5t69 -104t66 -70l-112 -111q-47 35 -96.5 92.5t-89 134t-65.5 172t-26 205.5zM735 276q0 -72 52.5 -112.5 t148.5 -40.5q51 0 99 16.5t85 46t59.5 68.5t22.5 82v115q-20 4 -75.5 9t-141.5 5q-74 0 -123 -18.5t-76.5 -46t-39 -60.5t-11.5 -64z" />
<glyph unicode="A" horiz-adv-x="1312" d="M20 0l535 1366h201l534 -1366h-219l-141 381h-561l-142 -381h-207zM426 547h444l-221 600z" />
<glyph unicode="B" horiz-adv-x="1208" d="M156 0v1366h462q106 0 184.5 -27.5t129.5 -74.5t76.5 -110.5t25.5 -135.5q0 -66 -23.5 -119t-57 -90t-73.5 -59.5t-73 -26.5q43 -6 95 -25.5t97 -58.5t76 -101.5t31 -154.5q0 -111 -40 -183.5t-108.5 -117.5t-163 -63.5t-200.5 -18.5h-438zM346 170h238q53 0 110.5 6 t105.5 28.5t78.5 66.5t30.5 122q0 74 -29.5 119t-75.5 71.5t-101.5 36t-106.5 9.5h-250v-459zM346 797h244q45 0 90 11t82 35.5t59.5 63.5t22.5 94q0 61 -22.5 99.5t-59.5 60t-82 28.5t-90 7h-244v-399z" />
<glyph unicode="C" horiz-adv-x="1386" d="M98 678q0 150 50.5 281t140.5 229t216 154.5t279 56.5q109 0 195 -26.5t150.5 -66.5t110.5 -87.5t75 -90.5l-139 -118q-25 35 -59 72.5t-81 68.5t-108.5 51.5t-141.5 20.5q-113 0 -201.5 -43t-151 -117t-95.5 -172t-33 -209t34 -208t95.5 -169t149.5 -112.5t196 -40.5 q92 0 159 23.5t113 56t75.5 66.5t50.5 56l137 -114q-23 -37 -70 -84t-114.5 -89t-155.5 -71t-195 -29q-152 0 -276.5 53.5t-214.5 148.5t-140.5 225t-50.5 284z" />
<glyph unicode="D" horiz-adv-x="1464" d="M156 0v1366h456q162 0 298.5 -40t234.5 -125t153.5 -214t55.5 -307q0 -172 -55.5 -300t-153.5 -213t-235.5 -126t-299.5 -41h-454zM352 176h254q256 0 398.5 126t142.5 374q0 250 -137.5 382t-409.5 132h-248v-1014z" />
<glyph unicode="E" horiz-adv-x="1155" d="M156 0v1366h860v-174h-664v-397h500v-177h-500v-442h713v-176h-909z" />
<glyph unicode="F" horiz-adv-x="1083" d="M156 0v1366h858v-176h-662v-418h504v-174h-504v-598h-196z" />
<glyph unicode="G" horiz-adv-x="1476" d="M100 680q0 150 50.5 281t140.5 228t216 153.5t279 56.5q109 0 195 -25.5t150.5 -65.5t109.5 -87t76 -91l-139 -118q-25 35 -60 72.5t-82 68.5t-107.5 51.5t-137.5 20.5q-113 0 -203 -43t-152.5 -117t-96.5 -173t-34 -210q0 -119 37 -217t103.5 -169t156.5 -111t199 -40 q119 0 201.5 27t142.5 74v278h-291v170h479v-544q-39 -35 -89 -68t-116.5 -58.5t-148.5 -41t-184 -15.5q-160 0 -288 54.5t-219 149.5t-139.5 225t-48.5 284z" />
<glyph unicode="H" horiz-adv-x="1452" d="M156 0v1366h196v-571h748v571h196v-1366h-196v618h-748v-618h-196z" />
<glyph unicode="I" horiz-adv-x="507" d="M156 0v1366h196v-1366h-196z" />
<glyph unicode="J" horiz-adv-x="1011" d="M29 154l139 122q59 -68 119.5 -98.5t144.5 -30.5q49 0 91 15.5t75 48.5t51.5 84t18.5 123v948h196v-965q0 -119 -34.5 -201.5t-93 -135t-136.5 -76t-164 -23.5q-152 0 -248 53.5t-159 135.5z" />
<glyph unicode="K" horiz-adv-x="1234" d="M156 0v1366h194v-621l572 621h225l-508 -557l569 -809h-235l-467 670l-156 -168v-502h-194z" />
<glyph unicode="L" horiz-adv-x="1122" d="M156 0v1366h196v-1192h711v-174h-907z" />
<glyph unicode="M" horiz-adv-x="1611" d="M139 0l64 1366h188l416 -711l416 711h184l63 -1366h-192l-45 1049l-385 -646h-98l-379 637l-47 -1040h-185z" />
<glyph unicode="N" horiz-adv-x="1447" d="M156 0v1366h198l746 -1067v1067h192v-1366h-196l-748 1069v-1069h-192z" />
<glyph unicode="O" horiz-adv-x="1595" d="M100 684q0 150 53.5 280t146.5 227t221 153.5t276 56.5q147 0 275 -56.5t222.5 -153.5t147.5 -227t53 -280t-53 -281t-147.5 -228t-222.5 -153.5t-275 -56.5t-274.5 56.5t-221.5 153.5t-147.5 228.5t-53.5 280.5zM305 686q0 -109 35 -206t99.5 -170.5t154.5 -116.5 t203 -43t204 43t155.5 116.5t99 171t34.5 205.5q0 111 -34.5 208t-99 171t-156 116t-203.5 42q-113 0 -203 -42t-154.5 -116t-99.5 -171t-35 -208z" />
<glyph unicode="P" horiz-adv-x="1159" d="M156 0v1366h432q139 0 230 -39t145.5 -98.5t76 -133t21.5 -143.5q0 -102 -35 -180t-96.5 -130t-146.5 -78.5t-185 -26.5h-248v-537h-194zM350 705h246q127 0 195.5 64.5t68.5 178.5q0 117 -70.5 183.5t-193.5 66.5h-246v-493z" />
<glyph unicode="Q" horiz-adv-x="1595" d="M98 682q0 150 53.5 281t147.5 228t222 153.5t276 56.5q147 0 275 -56.5t222.5 -153.5t147.5 -228.5t53 -280.5q0 -166 -64.5 -306t-177.5 -239l164 -198l-121 -103l-172 209q-72 -37 -154.5 -58.5t-172.5 -21.5q-147 0 -275.5 56.5t-222.5 152.5t-147.5 227t-53.5 281z M305 686q0 -111 35 -208t99.5 -171t154.5 -117t203 -43t209 46l-170 210l122 103l175 -217q74 72 114.5 175t40.5 222q0 111 -34.5 208t-99 170t-155 116t-202.5 43q-113 0 -203 -43t-154.5 -116t-99.5 -170t-35 -208z" />
<glyph unicode="R" horiz-adv-x="1208" d="M156 0v1366h436q131 0 221 -36t146.5 -92t82 -128t25.5 -145q0 -131 -61.5 -231.5t-190.5 -149.5l320 -584h-222l-292 559h-275v-559h-190zM346 725h262q129 0 193.5 63.5t64.5 169.5q0 113 -69.5 175.5t-192.5 62.5h-258v-471z" />
<glyph unicode="S" horiz-adv-x="1191" d="M76 205l139 127q29 -33 64.5 -67t81 -60.5t100.5 -43t121 -16.5q135 0 210.5 61.5t75.5 166.5q0 113 -86 169t-247 91q-88 18 -160 51t-124 82t-81 113.5t-29 146.5q0 76 29 143.5t86 118.5t143 82t199 31q100 0 173 -21.5t124 -52.5t82 -63.5t47 -53.5l-131 -120 q-12 14 -37 37.5t-62.5 46t-88 38t-115.5 15.5q-66 0 -113 -17.5t-77.5 -45t-45 -62.5t-14.5 -70q0 -51 21.5 -87t62.5 -63.5t101.5 -47t138.5 -37.5q76 -18 148.5 -48t129.5 -80.5t91 -123t34 -176.5q0 -88 -37 -162t-101.5 -128t-152.5 -84t-190 -30q-96 0 -175 22.5 t-143.5 57.5t-113 77t-78.5 83z" />
<glyph unicode="T" horiz-adv-x="1271" d="M49 1194v172h1174v-172h-488v-1194h-196v1194h-490z" />
<glyph unicode="U" horiz-adv-x="1378" d="M145 520v846h197v-799q0 -92 16.5 -168.5t56.5 -132t106.5 -85t168.5 -29.5q100 0 167 29.5t107 85t56 132t16 168.5v799h197v-846q0 -117 -33 -218t-99.5 -176t-169 -118t-241.5 -43t-241.5 43t-170 118t-100.5 176t-33 218z" />
<glyph unicode="V" horiz-adv-x="1298" d="M20 1366h220l415 -1122l416 1122h207l-528 -1366h-201z" />
<glyph unicode="W" horiz-adv-x="1798" d="M35 1366h217l262 -1102l297 1061h190l291 -1059l262 1100h205l-366 -1366h-209l-285 1010l-293 -1010h-207z" />
<glyph unicode="X" horiz-adv-x="1224" d="M18 0l478 707l-451 659h238l331 -498l328 498h215l-438 -653l485 -713h-235l-367 551l-366 -551h-218z" />
<glyph unicode="Y" horiz-adv-x="1181" d="M18 1366h220l356 -584l356 584h211l-473 -756v-610h-199v610z" />
<glyph unicode="Z" horiz-adv-x="1314" d="M104 0v172l850 1020h-809v174h1049v-174l-840 -1018h854v-174h-1104z" />
<glyph unicode="[" horiz-adv-x="645" d="M160 -190v1636h432v-166h-248v-1300h248v-170h-432z" />
<glyph unicode="\" horiz-adv-x="831" d="M51 1403h182l545 -1436h-186z" />
<glyph unicode="]" horiz-adv-x="645" d="M51 -20h248v1300h-248v166h434v-1636h-434v170z" />
<glyph unicode="^" horiz-adv-x="1124" d="M117 631l362 735h166l363 -735h-187l-260 549l-260 -549h-184z" />
<glyph unicode="_" horiz-adv-x="1034" d="M4 -143h1024v-105h-1024v105z" />
<glyph unicode="`" horiz-adv-x="915" d="M276 1386h205l109 -278h-154z" />
<glyph unicode="a" horiz-adv-x="1021" d="M72 270q0 154 107.5 246t309.5 92q33 0 70 -2t70 -4t57.5 -4t34.5 -4v35q0 106 -64.5 152t-175.5 46q-109 0 -172 -29.5t-106 -60.5l-86 125q25 20 59.5 41t81.5 38t106.5 28.5t137.5 11.5q184 0 289.5 -89t105.5 -253v-451v-103t2 -85h-172l-4 115q-53 -72 -140 -107 t-180 -35q-59 0 -117.5 15.5t-106.5 51.5t-77.5 92t-29.5 138zM252 276q0 -78 53 -117.5t148 -39.5q53 0 101 18.5t85 49t59.5 71.5t22.5 84v109q-8 2 -31.5 5t-54.5 5t-65.5 4t-67.5 2q-78 0 -126 -18.5t-76 -46t-38 -61.5t-10 -65z" />
<glyph unicode="b" horiz-adv-x="1122" d="M127 33v1333h184v-518q14 18 40 40.5t63 42t85 32t107 12.5q106 0 187 -38t136.5 -104.5t83 -156.5t27.5 -193q0 -113 -38.5 -207t-109.5 -161.5t-169 -105.5t-217 -38q-117 0 -217.5 18.5t-161.5 43.5zM309 158q29 -8 71 -17.5t124 -9.5q80 0 143.5 25.5t109.5 71.5 t70.5 110.5t24.5 140.5q0 66 -15.5 126.5t-49 106.5t-85 73.5t-124.5 27.5q-68 0 -118 -23.5t-84 -61.5t-50.5 -88t-16.5 -103v-379z" />
<glyph unicode="c" horiz-adv-x="1009" d="M82 477q0 104 37 196.5t103.5 161t157.5 108.5t202 40q121 0 213 -43t157 -117l-121 -116q-43 53 -104 83.5t-145 30.5q-74 0 -132.5 -27.5t-98.5 -75.5t-61.5 -110.5t-21.5 -130.5q0 -66 21.5 -128t61.5 -110.5t98.5 -77t132.5 -28.5q84 0 150.5 32t109.5 85l112 -119 q-63 -72 -156 -116t-216 -44q-115 0 -208 38t-157.5 104.5t-99.5 160t-35 203.5z" />
<glyph unicode="d" horiz-adv-x="1126" d="M80 463q0 135 47 232.5t119.5 160t157.5 91t161 28.5q102 0 159.5 -24.5t88.5 -37.5v453h184v-1159v-109.5t2 -97.5h-180l-6 121q-10 -12 -33.5 -38t-62.5 -50.5t-91.5 -43t-121.5 -18.5q-90 0 -168 35t-135.5 98.5t-89 154.5t-31.5 204zM268 461q0 -68 16.5 -128.5 t50.5 -105.5t86 -70.5t124 -25.5t123 26.5t82.5 66.5t47 88t15.5 89v340q-20 16 -75.5 44t-157.5 28q-68 0 -124.5 -24.5t-98.5 -69.5t-65.5 -110.5t-23.5 -147.5z" />
<glyph unicode="e" horiz-adv-x="1097" d="M80 483q0 104 35 195.5t98 158t150.5 105.5t191.5 39q123 0 211 -47t144.5 -125t83 -178.5t26.5 -208.5h-752q2 -63 28 -116.5t69 -92.5t98 -61.5t117 -22.5q121 0 198.5 41t112.5 80l104 -111q-16 -18 -49 -47t-85 -55.5t-122.5 -46t-160.5 -19.5q-111 0 -203 37 t-157.5 104.5t-101.5 162t-36 208.5zM268 559h561q-8 111 -77.5 188.5t-196.5 77.5q-66 0 -118 -22.5t-89 -59t-57.5 -85t-22.5 -99.5z" />
<glyph unicode="f" horiz-adv-x="675" d="M27 799v153h172v78q0 96 27.5 167t73.5 116t105.5 66.5t124.5 21.5q76 0 149 -23.5t134 -81.5l-92 -118q-76 63 -162 63q-80 0 -128 -51t-48 -176v-62h272v-153h-272v-799h-184v799h-172z" />
<glyph unicode="g" horiz-adv-x="1120" d="M80 465q0 111 39 204t109.5 161.5t169 106.5t218.5 38q117 0 217.5 -20.5t161.5 -45.5v-909q0 -207 -119.5 -320.5t-336.5 -113.5q-145 0 -231.5 31.5t-139.5 72.5l86 135q47 -33 115.5 -56t167.5 -23q137 0 204.5 75.5t67.5 198.5v117q-14 -12 -37.5 -34t-59.5 -41 t-85 -34.5t-113 -15.5q-104 0 -185 35.5t-136.5 98t-84 149.5t-28.5 190zM268 467q0 -66 15.5 -123t49.5 -100t85 -67.5t125 -24.5q68 0 119 20.5t83.5 54t49 75.5t16.5 87v395q-18 6 -62 17.5t-133 11.5q-78 0 -141 -25.5t-109.5 -71.5t-72 -109.5t-25.5 -139.5z" />
<glyph unicode="h" horiz-adv-x="1112" d="M125 0v1366h182v-555q18 25 45 53.5t66 53t90 41t117 16.5q186 0 276 -108.5t90 -295.5v-571h-184v557q0 133 -57.5 195.5t-161.5 62.5q-80 0 -133.5 -32.5t-85 -85t-46 -119t-14.5 -136.5v-442h-184z" />
<glyph unicode="i" horiz-adv-x="454" d="M123 1122v207h207v-207h-207zM135 0v952h184v-952h-184z" />
<glyph unicode="j" horiz-adv-x="454" d="M-184 -334l75 127q25 -18 52.5 -30.5t66.5 -12.5q72 0 98.5 68.5t26.5 220.5v913h184v-964q0 -78 -11 -149.5t-41.5 -127t-88 -88.5t-149.5 -33q-76 0 -128.5 25t-84.5 51zM123 1122v207h207v-207h-207z" />
<glyph unicode="k" horiz-adv-x="1001" d="M125 0v1366h184v-805l400 391h221l-361 -352l414 -600h-219l-324 477l-131 -127v-350h-184z" />
<glyph unicode="l" horiz-adv-x="438" d="M127 0v1366h184v-1366h-184z" />
<glyph unicode="m" horiz-adv-x="1740" d="M125 952h176l6 -143q16 25 43 54.5t64 54t87 41t115 16.5q111 0 183.5 -44t113.5 -128q57 68 140.5 120t206.5 52q184 0 272 -109.5t88 -294.5v-571h-184v557q0 133 -52.5 195.5t-152.5 62.5q-57 0 -105.5 -23.5t-84 -62.5t-55 -91t-19.5 -110v-528h-185v557 q0 133 -52 195.5t-150 62.5q-76 0 -127.5 -32.5t-83 -85t-45 -120t-13.5 -135.5v-442h-184v745v109.5t-2 97.5z" />
<glyph unicode="n" horiz-adv-x="1114" d="M125 952h176l6 -143q18 25 45 54.5t66 54t91 41t118 16.5q186 0 276 -108.5t90 -295.5v-571h-184v557q0 133 -57.5 195.5t-161.5 62.5q-80 0 -133.5 -32.5t-85 -85t-46 -119t-14.5 -136.5v-442h-184v745v109.5t-2 97.5z" />
<glyph unicode="o" horiz-adv-x="1171" d="M82 477q0 104 38 195.5t104.5 161t158.5 109.5t203 40q109 0 201 -40t159.5 -109.5t105.5 -160.5t38 -196q0 -104 -38 -195.5t-105.5 -161t-159.5 -109.5t-201 -40q-111 0 -203 40t-158.5 109.5t-104.5 161t-38 195.5zM268 477q0 -66 21.5 -127t63.5 -110.5t100.5 -79 t132.5 -29.5t133 29.5t100 78t62.5 111t21.5 127.5q0 63 -21.5 126t-63.5 112t-100.5 78.5t-131.5 29.5q-74 0 -133.5 -29.5t-100.5 -77.5t-62.5 -110.5t-21.5 -128.5z" />
<glyph unicode="p" horiz-adv-x="1142" d="M125 952h176l6 -135q14 18 41 45t67 51.5t93 42t123 17.5q111 0 191.5 -41t134 -110.5t79 -160t25.5 -190.5q0 -129 -44 -223t-115 -155.5t-158 -91.5t-171 -30q-96 0 -154.5 19.5t-109.5 42.5v-443h-182v1155v109.5t-2 97.5zM309 207q33 -27 94.5 -51.5t153.5 -24.5 q70 0 128 25.5t100 71.5t64.5 107.5t22.5 135.5q0 70 -15 131.5t-49 108.5t-87 74.5t-131 27.5q-98 0 -168 -54t-98 -159q-10 -33 -12.5 -70.5t-2.5 -78.5v-244z" />
<glyph unicode="q" horiz-adv-x="1122" d="M80 465q0 111 39 204t109.5 161.5t169 106.5t218.5 38q117 0 216.5 -20.5t160.5 -45.5v-1319h-184v504q-8 -10 -29.5 -29.5t-56.5 -41t-83 -37t-112 -15.5q-111 0 -194.5 39t-140 105.5t-85 156.5t-28.5 193zM268 467q0 -66 15.5 -126t49.5 -106.5t85 -75t125 -28.5 q70 0 120 20.5t82.5 55.5t49 81t16.5 97v399q-18 6 -62 17.5t-133 11.5q-164 0 -256 -95t-92 -251z" />
<glyph unicode="r" horiz-adv-x="745" d="M125 952h176l6 -153q16 25 43 54.5t65 54t88 42t115 17.5q31 0 56.5 -4.5t48.5 -12.5l-41 -172q-37 14 -94 15q-59 0 -109.5 -22.5t-87.5 -62.5t-58.5 -93.5t-21.5 -112.5v-502h-184v758v103t-2 91z" />
<glyph unicode="s" horiz-adv-x="966" d="M76 117l112 123q51 -51 123 -82t166 -31q92 0 153.5 29.5t61.5 93.5q0 33 -13 56.5t-45 42t-84 33.5t-130 34q-55 12 -109.5 32.5t-97.5 54.5t-69.5 82t-26.5 115q0 70 31.5 122t85 88t120 54.5t138.5 18.5q121 0 207.5 -31.5t152.5 -89.5l-100 -127q-43 39 -107.5 65.5 t-150.5 26.5q-88 0 -141.5 -28.5t-53.5 -93.5q0 -61 70.5 -91t185.5 -57q68 -16 126 -37.5t102 -55.5t70 -83t26 -119q0 -72 -33 -126t-88.5 -91t-127 -55.5t-149.5 -18.5q-270 0 -405 146z" />
<glyph unicode="t" horiz-adv-x="786" d="M37 799v153h172v312h184v-312h279v-153h-279v-469q0 -115 36 -158t101 -43q53 0 88 16.5t70 49.5l84 -113q-59 -57 -121.5 -83t-148.5 -26q-152 0 -222.5 82t-70.5 256v488h-172z" />
<glyph unicode="u" horiz-adv-x="1110" d="M121 381v571h184v-559q0 -135 55.5 -195.5t159.5 -60.5q80 0 132.5 33t85 85t46 118.5t13.5 136.5v442h184v-745v-109.5t2 -97.5h-176l-6 141q-18 -25 -45 -53.5t-66 -52t-90 -39.5t-117 -16q-186 0 -274 107.5t-88 293.5z" />
<glyph unicode="v" horiz-adv-x="1028" d="M12 952h211l297 -743l295 743h199l-408 -952h-184z" />
<glyph unicode="w" horiz-adv-x="1478" d="M23 952h202l213 -727l230 727h157l230 -733l209 733h190l-315 -952h-183l-221 666l-219 -666h-172z" />
<glyph unicode="x" horiz-adv-x="997" d="M16 0l369 492l-342 460h229l230 -315l225 315h205l-332 -446l379 -506h-231l-265 360l-260 -360h-207z" />
<glyph unicode="y" horiz-adv-x="1028" d="M18 952h211l308 -719l270 719h201l-381 -927q-27 -66 -54.5 -145t-68.5 -149.5t-100.5 -117.5t-149.5 -47q-72 0 -121 19.5t-86 52.5l84 129q20 -18 47 -33t66 -15q33 0 56.5 14.5t42.5 44t36.5 71.5t40.5 98l24 61z" />
<glyph unicode="z" horiz-adv-x="974" d="M106 0v145l545 652h-526v155h752v-147l-555 -651h561v-154h-777z" />
<glyph unicode="{" horiz-adv-x="591" d="M63 569v117q78 4 115 52t41 112l29 348q8 90 30.5 149.5t69.5 98.5h191q-39 -37 -68 -97.5t-33 -127.5l-30 -390q-6 -86 -48.5 -136t-101.5 -66q59 -16 101 -67.5t49 -137.5l30 -389q4 -68 33 -128.5t68 -96.5h-191q-47 39 -69.5 98t-30.5 149l-29 349q-4 63 -41 111 t-115 52z" />
<glyph unicode="|" horiz-adv-x="477" d="M154 -336v2042h170v-2042h-170z" />
<glyph unicode="}" horiz-adv-x="591" d="M53 -190q39 37 68 97t33 128l30 389q6 86 48 137t102 68q-59 16 -101.5 66t-48.5 136l-30 390q-4 68 -33 128t-68 97h191q47 -39 69.5 -98.5t30.5 -149.5l29 -348q4 -63 41 -111.5t114 -52.5v-117q-78 -4 -114.5 -52t-40.5 -111l-29 -349q-8 -90 -30.5 -149.5 t-69.5 -97.5h-191z" />
<glyph unicode="~" horiz-adv-x="978" d="M84 627q14 14 36.5 35.5t54.5 42t72 35t87 14.5q53 0 93 -19.5t81 -42.5q27 -14 56.5 -24.5t64.5 -10.5q66 0 109.5 29t68.5 51l84 -119q-14 -16 -38 -36.5t-54.5 -41t-68.5 -33.5t-83 -13q-35 0 -68.5 10t-60.5 24q-41 23 -85 41.5t-107 18.5q-55 0 -95.5 -30t-60.5 -48 q-23 29 -43.5 58.5t-42.5 58.5z" />
<glyph unicode="&#xa1;" horiz-adv-x="528" d="M152 729v223h229v-223h-229zM164 -414l4 973h194l7 -973h-205z" />
<glyph unicode="&#xa2;" d="M147 643q0 94 31 180t86 152.5t132 110.5t171 59v184h125v-182q104 -6 184 -48t140 -108l-121 -114q-37 45 -87 73.5t-116 36.5v-686q70 8 124 37t91 76l113 -119q-59 -66 -141 -108t-187 -50v-176h-125v180q-98 12 -176 55.5t-132 109t-83 152.5t-29 185zM334 643 q0 -53 16.5 -106.5t46 -98.5t72.5 -79.5t98 -49.5v668q-55 -14 -98 -47t-73.5 -78t-46 -98.5t-15.5 -110.5z" />
<glyph unicode="&#xa3;" d="M111 588v155h149v166q0 55 15.5 128t59.5 137.5t125 108.5t212 44q74 0 131 -17.5t99 -41t69.5 -48t44.5 -38.5l-119 -131q-37 39 -87 71.5t-138 32.5q-61 0 -103.5 -23.5t-67 -62.5t-34.5 -90t-10 -109v-127h409v-155h-409v-412h592v-176h-789v588h-149z" />
<glyph unicode="&#xa4;" d="M76 324l133 135q-33 47 -50.5 104.5t-17.5 120.5q0 123 68 225l-133 133l112 115l134 -133q49 35 109.5 55.5t125.5 20.5q66 0 125 -19.5t111 -54.5l133 131l112 -115l-133 -133q33 -49 51.5 -106.5t18.5 -118.5q0 -66 -18.5 -122t-51.5 -105l133 -133l-112 -115 l-133 131q-102 -72 -236 -72q-137 0 -235 74l-134 -133zM297 684q0 -53 20.5 -101t55.5 -83t83 -55.5t101 -20.5t101.5 20.5t84 55.5t56 83t20.5 101t-20.5 100t-56 83t-84 56.5t-101.5 20.5t-101 -20.5t-83 -56.5t-55.5 -83t-20.5 -100z" />
<glyph unicode="&#xa5;" d="M35 1292h217l311 -579l309 579h209l-354 -610h250v-125h-322l-4 -53v-123h326v-125h-326v-256h-184v256h-320v125h320v123l-4 53h-316v125h242z" />
<glyph unicode="&#xa6;" horiz-adv-x="477" d="M154 -336v776h170v-776h-170zM154 930v776h170v-776h-170z" />
<glyph unicode="&#xa7;" horiz-adv-x="948" d="M117 414l100 151l389 -252q98 -66 164 -154.5t66 -207.5q0 -76 -26 -145.5t-76 -123t-122.5 -85t-165.5 -31.5q-55 0 -102 11t-85 28.5t-65.5 36t-46.5 30.5l93 138q57 -41 104 -58.5t107 -17.5q51 0 89 18.5t63.5 46t37.5 62.5t12 69q0 78 -41 130.5t-108 97.5z M119 1014q0 76 26.5 146.5t77.5 123.5t123 86t162 33q55 0 101 -12.5t83 -28.5t63.5 -34.5t43.5 -31.5l-92 -139q-53 41 -101.5 58.5t-101.5 17.5q-49 0 -86 -18.5t-63.5 -46t-40 -63.5t-13.5 -69q0 -78 40 -130t110 -97l387 -256l-101 -152l-387 252q-100 66 -165.5 154 t-65.5 207z" />
<glyph unicode="&#xa8;" horiz-adv-x="712" d="M84 1147v186h192v-186h-192zM434 1147v186h191v-186h-191z" />
<glyph unicode="&#xa9;" horiz-adv-x="1656" d="M117 686q0 150 55 280t150.5 226t225.5 152.5t281 56.5q150 0 279 -56.5t224 -152.5t150.5 -226t55.5 -280t-55.5 -280t-150.5 -227t-225 -152.5t-280 -55.5t-279.5 55.5t-225 152.5t-150.5 227.5t-55 279.5zM268 684q0 -121 42 -226.5t117 -183t177 -121.5t223 -44 t223.5 44t177.5 121.5t116.5 183t41.5 226.5t-41.5 226.5t-116.5 183t-177.5 123t-221.5 45.5q-121 0 -223 -45.5t-178 -123t-118 -183t-42 -226.5zM451 686q0 82 28.5 152.5t80.5 123t123 82t155 29.5q104 0 184 -47t129 -119l-111 -80q-31 43 -82 76t-114 33 q-53 0 -97.5 -19.5t-76 -53.5t-49 -80t-17.5 -99q0 -49 17.5 -94t49 -79t76 -54.5t97.5 -20.5q66 0 118 34t80 79l109 -88q-49 -72 -130 -119t-183 -47q-86 0 -158 29.5t-123 82t-78.5 124t-27.5 155.5z" />
<glyph unicode="&#xaa;" horiz-adv-x="780" d="M94 868q0 104 77 159.5t212 55.5q35 0 69.5 -2t69.5 -6v17q0 113 -149 112q-66 0 -110 -19.5t-75 -41.5l-71 98q41 35 103.5 60.5t160.5 25.5q127 0 202.5 -60.5t75.5 -168.5v-285v-67.5t3 -57.5h-134q0 8 -1 24.5t-3 32.5q-35 -33 -91 -53t-105 -20q-43 0 -84 10 t-75 33.5t-54.5 60.5t-20.5 92zM231 872q0 -84 123 -84q31 0 61.5 10.5t55.5 27t39 40t14 49.5v50q-23 4 -60.5 6t-72.5 2q-92 0 -126 -33t-34 -68z" />
<glyph unicode="&#xab;" horiz-adv-x="1028" d="M133 487l215 396h182l-207 -396l207 -395h-182zM496 487l215 396h182l-207 -396l207 -395h-182z" />
<glyph unicode="&#xac;" d="M150 580v159h817v-438h-162v279h-655z" />
<glyph unicode="&#xad;" horiz-adv-x="899" d="M154 485v177h600v-177h-600z" />
<glyph unicode="&#xae;" horiz-adv-x="1656" d="M117 686q0 150 55 280t150.5 226t225.5 152.5t281 56.5q150 0 279 -56.5t224 -152.5t150.5 -226t55.5 -280t-55.5 -280t-150.5 -227t-225 -152.5t-280 -55.5t-279.5 55.5t-225 152.5t-150.5 227.5t-55 279.5zM268 684q0 -121 42 -226.5t117 -183t177 -121.5t223 -44 t223.5 44t177.5 121.5t116.5 183t41.5 226.5t-41.5 226.5t-116.5 183t-177.5 123t-221.5 45.5q-121 0 -223 -45.5t-178 -123t-118 -183t-42 -226.5zM580 328v723h278q68 0 116 -19.5t79.5 -50.5t46 -69t14.5 -74q0 -70 -35 -126.5t-106 -84.5l176 -299h-156l-162 280h-114 v-280h-137zM717 717h135q63 0 92 30.5t29 81.5q0 53 -31 80t-98 27h-127v-219z" />
<glyph unicode="&#xaf;" horiz-adv-x="714" d="M102 1157v148h512v-148h-512z" />
<glyph unicode="&#xb0;" horiz-adv-x="679" d="M59 1077q0 59 21.5 109.5t59.5 87.5t88.5 57.5t109.5 20.5t110.5 -20.5t89 -57.5t59 -87t21.5 -108q0 -59 -21.5 -109t-59 -87t-89 -57.5t-108.5 -20.5q-59 0 -110.5 20.5t-89.5 57.5t-59.5 86t-21.5 108zM193 1077q0 -63 42 -106t105 -43t105 43t42 108q0 61 -42 104.5 t-107 43.5q-61 0 -103 -43t-42 -107z" />
<glyph unicode="&#xb1;" d="M150 0v160h817v-160h-817zM150 578v159h329v322h160v-322h328v-159h-326v-322h-162v322h-329z" />
<glyph unicode="&#xb2;" horiz-adv-x="737" d="M88 1214q45 41 118 76t165 35q133 0 195.5 -63.5t62.5 -149.5q0 -84 -48.5 -135t-109.5 -89t-118.5 -71t-76.5 -80h355v-131h-531v86q0 53 27 93t66.5 73t86 61.5t86.5 57.5t66.5 58.5t26.5 66.5q0 47 -33 67.5t-74 20.5q-53 0 -106 -25.5t-90 -58.5z" />
<glyph unicode="&#xb3;" horiz-adv-x="737" d="M70 662l73 112q35 -29 80 -45t99 -16q63 0 103 27.5t40 80.5q0 33 -12.5 53.5t-33 33t-47 17.5t-55.5 5q-23 0 -47 -3t-43 -9l-30 63l219 197h-291v127h467v-117l-180 -166q104 -10 156.5 -67.5t52.5 -143.5q0 -98 -81 -161.5t-216 -63.5q-78 0 -141.5 20.5t-112.5 55.5z " />
<glyph unicode="&#xb4;" horiz-adv-x="821" d="M313 1106l111 278h201l-158 -278h-154z" />
<glyph unicode="&#xb5;" horiz-adv-x="1110" d="M123 -410v1362h184v-559q0 -129 58.5 -192.5t158.5 -63.5q66 0 117 25.5t87 67.5t54.5 96.5t18.5 113.5v512h182v-729v-119t2 -104h-174q-4 33 -5 60.5t-1 74.5q-18 -25 -45 -52.5t-64 -50t-85 -37.5t-105 -15q-61 0 -106.5 14t-92.5 53v-457h-184z" />
<glyph unicode="&#xb6;" horiz-adv-x="1097" d="M92 995q0 106 41 178t110.5 115t163 60.5t195.5 17.5v-741q-102 0 -195.5 17t-163 60t-110.5 114t-41 179zM416 -250v776q29 -10 64.5 -12t66.5 -2h55v-762h-186zM748 -250v1616h188v-1616h-188z" />
<glyph unicode="&#xb7;" horiz-adv-x="518" d="M145 547v229h232v-229h-232z" />
<glyph unicode="&#xb8;" horiz-adv-x="1150" d="M168 -406l22 111q35 -12 72 -20.5t76 -8.5q66 0 99.5 21.5t33.5 58.5q0 29 -27.5 50.5t-91.5 21.5q-37 0 -71.5 -7t-69.5 -20l18 113q33 10 70 18.5t102 8.5q109 0 164.5 -53.5t55.5 -125.5q0 -49 -20.5 -85.5t-56.5 -62.5t-82 -38t-97 -12q-88 0 -137.5 13t-59.5 17z " />
<glyph unicode="&#xb9;" horiz-adv-x="737" d="M127 1167l258 138h137v-699h-157v535l-181 -90z" />
<glyph unicode="&#xba;" horiz-adv-x="837" d="M86 999q0 70 24.5 130.5t68.5 104.5t105.5 68.5t135.5 24.5t134 -24.5t104 -68.5t69 -104.5t25 -130.5t-25 -130t-69 -104t-104 -68.5t-134 -24.5t-135.5 24.5t-105.5 68.5t-68.5 104t-24.5 130zM236 999q0 -37 11 -72.5t33.5 -63t57.5 -44t82 -16.5q45 0 80 16.5 t57.5 44t33.5 63.5t11 72q0 37 -11 72t-33.5 62.5t-57.5 45t-80 17.5q-47 0 -82 -17.5t-57.5 -45t-33.5 -62.5t-11 -72z" />
<glyph unicode="&#xbb;" horiz-adv-x="1028" d="M143 92l207 395l-207 396h183l215 -396l-215 -395h-183zM506 92l207 395l-207 396h183l215 -396l-215 -395h-183z" />
<glyph unicode="&#xbc;" horiz-adv-x="1826" d="M137 1167l258 138h137v-699h-157v535l-181 -90zM406 0l829 1290h175l-830 -1290h-174zM1069 137v117l366 447h156v-445h86v-119h-86v-133h-141v133h-381zM1204 256h246v295z" />
<glyph unicode="&#xbd;" horiz-adv-x="1826" d="M123 1167l258 138h137v-699h-157v535l-181 -90zM356 0l829 1290h175l-830 -1290h-174zM1145 610q45 41 118 76t165 35q133 0 195.5 -63.5t62.5 -149.5q0 -84 -48.5 -135t-109.5 -89t-118.5 -71t-76.5 -80h355v-131h-531v86q0 53 27 93t66.5 73t86 61.5t86.5 57.5 t66.5 58.5t26.5 66.5q0 47 -33 67.5t-74 20.5q-53 0 -106 -25.5t-90 -58.5z" />
<glyph unicode="&#xbe;" horiz-adv-x="1826" d="M121 662l73 112q35 -29 80 -45t99 -16q63 0 103 27.5t40 80.5q0 33 -12.5 53.5t-33 33t-47 17.5t-55.5 5q-23 0 -47 -3t-43 -9l-30 63l219 197h-291v127h467v-117l-180 -166q104 -10 156.5 -67.5t52.5 -143.5q0 -98 -81 -161.5t-216 -63.5q-78 0 -141.5 20.5t-112.5 55.5 zM444 0l829 1290h175l-830 -1290h-174zM1102 137v117l366 447h156v-445h86v-119h-86v-133h-141v133h-381zM1237 256h246v295z" />
<glyph unicode="&#xbf;" horiz-adv-x="1036" d="M139 -104q0 59 14.5 105t41 86t65.5 75t88 71q41 31 74 56.5t55.5 56.5t34.5 68t12 90v55h185v-57q0 -111 -45.5 -199t-149.5 -164q-35 -25 -67.5 -50.5t-59.5 -54t-43 -63t-16 -75.5q0 -78 63.5 -126.5t167.5 -48.5q57 0 104.5 14.5t86 35t67.5 45t49 47.5l123 -113 q-18 -25 -53 -58.5t-88 -64t-125 -53.5t-164 -23q-100 0 -178 28t-132 75t-82 109.5t-28 132.5zM502 727v225h227v-225h-227z" />
<glyph unicode="&#xc0;" horiz-adv-x="1312" d="M20 0l535 1366h201l534 -1366h-219l-141 381h-561l-142 -381h-207zM401 1782h229l152 -307h-166zM426 547h444l-221 600z" />
<glyph unicode="&#xc1;" horiz-adv-x="1312" d="M20 0l535 1366h201l534 -1366h-219l-141 381h-561l-142 -381h-207zM426 547h444l-221 600zM553 1475l150 307h233l-217 -307h-166z" />
<glyph unicode="&#xc2;" horiz-adv-x="1312" d="M20 0l535 1366h201l534 -1366h-219l-141 381h-561l-142 -381h-207zM330 1475l231 307h181q59 -78 114.5 -154t112.5 -153h-170q-39 47 -75 94t-74 94l-148 -188h-172zM426 547h444l-221 600z" />
<glyph unicode="&#xc3;" horiz-adv-x="1312" d="M20 0l535 1366h201l534 -1366h-219l-141 381h-561l-142 -381h-207zM268 1634q39 41 101.5 79t140.5 38q47 0 80.5 -14.5t63.5 -30.5t59.5 -30.5t70.5 -14.5q59 0 99 23.5t75 52.5q20 -29 42 -58.5t42 -60.5q-39 -41 -100.5 -80t-139.5 -39q-47 0 -79.5 14.5t-63.5 33 t-61.5 32.5t-71.5 14q-59 0 -100 -23.5t-76 -51.5zM426 547h444l-221 600z" />
<glyph unicode="&#xc4;" horiz-adv-x="1312" d="M20 0l535 1366h201l534 -1366h-219l-141 381h-561l-142 -381h-207zM353 1528v201h206v-201h-206zM426 547h444l-221 600zM752 1528v201h207v-201h-207z" />
<glyph unicode="&#xc5;" horiz-adv-x="1312" d="M20 0l515 1317q-57 29 -91 85t-34 128q0 53 19.5 98t52 77t77.5 50.5t98 18.5q51 0 97.5 -17.5t79 -50.5t52 -77t19.5 -95q0 -76 -35.5 -133.5t-95.5 -85.5l516 -1315h-219l-141 381h-561l-142 -381h-207zM426 547h444l-221 600zM543 1530q0 -51 31.5 -85t84.5 -34 q51 0 83 35t32 88q0 51 -31.5 84t-85.5 33q-51 0 -82.5 -34t-31.5 -87z" />
<glyph unicode="&#xc6;" horiz-adv-x="1949" d="M6 0l836 1366h968v-176h-665v-397h504v-177h-504v-440h715v-176h-910v367h-514l-223 -367h-207zM535 530h415v680z" />
<glyph unicode="&#xc7;" horiz-adv-x="1386" d="M98 678q0 150 50.5 281t140.5 229t216 154.5t279 56.5q109 0 195 -26.5t150.5 -66.5t110.5 -87.5t75 -90.5l-139 -118q-25 35 -59 72.5t-81 68.5t-108.5 51.5t-141.5 20.5q-113 0 -201.5 -43t-151 -117t-95.5 -172t-33 -209t34 -208t95.5 -169t149.5 -112.5t196 -40.5 q92 0 159 23.5t113 56t75.5 66.5t50.5 56l137 -114q-23 -37 -70 -84t-114.5 -89t-155.5 -71t-195 -29q-152 0 -276.5 53.5t-214.5 148.5t-140.5 225t-50.5 284zM527 -429q6 29 12 58.5t10 58.5q35 -12 73 -20t79 -8q129 0 129 77q0 29 -27.5 46.5t-87.5 17.5q-76 0 -145 -25 q6 29 11 58.5t9 58.5q37 10 76 18.5t100 8.5q111 0 168.5 -53.5t57.5 -125.5q0 -49 -21.5 -86.5t-58.5 -62.5t-84 -38t-99 -13q-88 0 -140 13t-62 17z" />
<glyph unicode="&#xc8;" horiz-adv-x="1155" d="M156 0v1366h860v-174h-664v-397h500v-177h-500v-442h713v-176h-909zM352 1782h229l152 -307h-166z" />
<glyph unicode="&#xc9;" horiz-adv-x="1155" d="M156 0v1366h860v-174h-664v-397h500v-177h-500v-442h713v-176h-909zM487 1475l150 307h233l-217 -307h-166z" />
<glyph unicode="&#xca;" horiz-adv-x="1155" d="M156 0v1366h860v-174h-664v-397h500v-177h-500v-442h713v-176h-909zM264 1475l231 307h181q59 -78 114.5 -154t112.5 -153h-170q-39 47 -75 94t-74 94l-148 -188h-172z" />
<glyph unicode="&#xcb;" horiz-adv-x="1155" d="M156 0v1366h860v-174h-664v-397h500v-177h-500v-442h713v-176h-909zM281 1528v201h206v-201h-206zM680 1528v201h207v-201h-207z" />
<glyph unicode="&#xcc;" horiz-adv-x="507" d="M-21 1782h229l152 -307h-166zM156 0v1366h196v-1366h-196z" />
<glyph unicode="&#xcd;" horiz-adv-x="507" d="M152 1475l150 307h233l-217 -307h-166zM156 0v1366h196v-1366h-196z" />
<glyph unicode="&#xce;" horiz-adv-x="507" d="M-64 1475l231 307h181q59 -78 114.5 -154t112.5 -153h-170q-39 47 -75 94t-74 94l-148 -188h-172zM156 0v1366h196v-1366h-196z" />
<glyph unicode="&#xcf;" horiz-adv-x="507" d="M-47 1528v201h206v-201h-206zM156 0v1366h196v-1366h-196zM352 1528v201h207v-201h-207z" />
<glyph unicode="&#xd0;" horiz-adv-x="1474" d="M20 616v162h148v588h457q162 0 298 -40t234 -125t152.5 -214t54.5 -307q0 -172 -55.5 -300t-153.5 -213t-234.5 -126t-297.5 -41h-455v616h-148zM365 176h256q256 0 398 126t142 376q0 248 -136 381t-411 133h-249v-414h344v-162h-344v-440z" />
<glyph unicode="&#xd1;" horiz-adv-x="1447" d="M156 0v1366h198l746 -1067v1067h192v-1366h-196l-748 1069v-1069h-192zM309 1634q39 41 101.5 79t140.5 38q47 0 80.5 -14.5t63.5 -30.5t59.5 -30.5t70.5 -14.5q59 0 99 23.5t75 52.5q20 -29 42 -58.5t42 -60.5q-39 -41 -100.5 -80t-139.5 -39q-47 0 -79.5 14.5t-63.5 33 t-61.5 32.5t-71.5 14q-59 0 -100 -23.5t-76 -51.5z" />
<glyph unicode="&#xd2;" horiz-adv-x="1595" d="M100 684q0 150 53.5 280t146.5 227t221 153.5t276 56.5q147 0 275 -56.5t222.5 -153.5t147.5 -227t53 -280t-53 -281t-147.5 -228t-222.5 -153.5t-275 -56.5t-274.5 56.5t-221.5 153.5t-147.5 228.5t-53.5 280.5zM305 686q0 -109 35 -206t99.5 -170.5t154.5 -116.5 t203 -43t204 43t155.5 116.5t99 171t34.5 205.5q0 111 -34.5 208t-99 171t-156 116t-203.5 42q-113 0 -203 -42t-154.5 -116t-99.5 -171t-35 -208zM547 1782h229l152 -307h-166z" />
<glyph unicode="&#xd3;" horiz-adv-x="1595" d="M100 684q0 150 53.5 280t146.5 227t221 153.5t276 56.5q147 0 275 -56.5t222.5 -153.5t147.5 -227t53 -280t-53 -281t-147.5 -228t-222.5 -153.5t-275 -56.5t-274.5 56.5t-221.5 153.5t-147.5 228.5t-53.5 280.5zM305 686q0 -109 35 -206t99.5 -170.5t154.5 -116.5 t203 -43t204 43t155.5 116.5t99 171t34.5 205.5q0 111 -34.5 208t-99 171t-156 116t-203.5 42q-113 0 -203 -42t-154.5 -116t-99.5 -171t-35 -208zM696 1475l150 307h233l-217 -307h-166z" />
<glyph unicode="&#xd4;" horiz-adv-x="1595" d="M100 684q0 150 53.5 280t146.5 227t221 153.5t276 56.5q147 0 275 -56.5t222.5 -153.5t147.5 -227t53 -280t-53 -281t-147.5 -228t-222.5 -153.5t-275 -56.5t-274.5 56.5t-221.5 153.5t-147.5 228.5t-53.5 280.5zM305 686q0 -109 35 -206t99.5 -170.5t154.5 -116.5 t203 -43t204 43t155.5 116.5t99 171t34.5 205.5q0 111 -34.5 208t-99 171t-156 116t-203.5 42q-113 0 -203 -42t-154.5 -116t-99.5 -171t-35 -208zM473 1475l231 307h181q59 -78 114.5 -154t112.5 -153h-170q-39 47 -75 94t-74 94l-148 -188h-172z" />
<glyph unicode="&#xd5;" horiz-adv-x="1595" d="M100 684q0 150 53.5 280t146.5 227t221 153.5t276 56.5q147 0 275 -56.5t222.5 -153.5t147.5 -227t53 -280t-53 -281t-147.5 -228t-222.5 -153.5t-275 -56.5t-274.5 56.5t-221.5 153.5t-147.5 228.5t-53.5 280.5zM305 686q0 -109 35 -206t99.5 -170.5t154.5 -116.5 t203 -43t204 43t155.5 116.5t99 171t34.5 205.5q0 111 -34.5 208t-99 171t-156 116t-203.5 42q-113 0 -203 -42t-154.5 -116t-99.5 -171t-35 -208zM412 1634q39 41 101.5 79t140.5 38q47 0 80.5 -14.5t63.5 -30.5t59.5 -30.5t70.5 -14.5q59 0 99 23.5t75 52.5 q20 -29 42 -58.5t42 -60.5q-39 -41 -100.5 -80t-139.5 -39q-47 0 -79.5 14.5t-63.5 33t-61.5 32.5t-71.5 14q-59 0 -100 -23.5t-76 -51.5z" />
<glyph unicode="&#xd6;" horiz-adv-x="1595" d="M100 684q0 150 53.5 280t146.5 227t221 153.5t276 56.5q147 0 275 -56.5t222.5 -153.5t147.5 -227t53 -280t-53 -281t-147.5 -228t-222.5 -153.5t-275 -56.5t-274.5 56.5t-221.5 153.5t-147.5 228.5t-53.5 280.5zM305 686q0 -109 35 -206t99.5 -170.5t154.5 -116.5 t203 -43t204 43t155.5 116.5t99 171t34.5 205.5q0 111 -34.5 208t-99 171t-156 116t-203.5 42q-113 0 -203 -42t-154.5 -116t-99.5 -171t-35 -208zM494 1528v201h206v-201h-206zM893 1528v201h207v-201h-207z" />
<glyph unicode="&#xd7;" d="M197 408l249 247l-245 248l110 113l248 -248l248 250l111 -113l-248 -248l245 -245l-112 -113l-244 248l-250 -250z" />
<glyph unicode="&#xd8;" horiz-adv-x="1595" d="M100 682q0 150 53.5 281t146.5 228t221 153.5t276 56.5q92 0 174 -21.5t153 -62.5l121 170l139 -88l-122 -176q111 -98 172 -238.5t61 -302.5q0 -150 -53 -281t-147.5 -227t-222.5 -152.5t-275 -56.5q-98 0 -185.5 24.5t-165.5 67.5l-127 -178l-139 88l135 191 q-102 98 -158.5 233t-56.5 291zM305 686q0 -106 32 -199.5t91 -164.5l592 845q-47 27 -103.5 41.5t-119.5 14.5q-113 0 -203 -43t-154.5 -116t-99.5 -170t-35 -208zM555 213q51 -31 111.5 -48.5t130.5 -17.5q113 0 204 43t155.5 117t99 171t34.5 208t-36.5 209t-102.5 170z " />
<glyph unicode="&#xd9;" horiz-adv-x="1378" d="M145 520v846h197v-799q0 -92 16.5 -168.5t56.5 -132t106.5 -85t168.5 -29.5q100 0 167 29.5t107 85t56 132t16 168.5v799h197v-846q0 -117 -33 -218t-99.5 -176t-169 -118t-241.5 -43t-241.5 43t-170 118t-100.5 176t-33 218zM453 1782h229l152 -307h-166z" />
<glyph unicode="&#xda;" horiz-adv-x="1378" d="M145 520v846h197v-799q0 -92 16.5 -168.5t56.5 -132t106.5 -85t168.5 -29.5q100 0 167 29.5t107 85t56 132t16 168.5v799h197v-846q0 -117 -33 -218t-99.5 -176t-169 -118t-241.5 -43t-241.5 43t-170 118t-100.5 176t-33 218zM575 1475l150 307h233l-217 -307h-166z" />
<glyph unicode="&#xdb;" horiz-adv-x="1378" d="M145 520v846h197v-799q0 -92 16.5 -168.5t56.5 -132t106.5 -85t168.5 -29.5q100 0 167 29.5t107 85t56 132t16 168.5v799h197v-846q0 -117 -33 -218t-99.5 -176t-169 -118t-241.5 -43t-241.5 43t-170 118t-100.5 176t-33 218zM369 1475l231 307h181q59 -78 114.5 -154 t112.5 -153h-170q-39 47 -75 94t-74 94l-148 -188h-172z" />
<glyph unicode="&#xdc;" horiz-adv-x="1378" d="M145 520v846h197v-799q0 -92 16.5 -168.5t56.5 -132t106.5 -85t168.5 -29.5q100 0 167 29.5t107 85t56 132t16 168.5v799h197v-846q0 -117 -33 -218t-99.5 -176t-169 -118t-241.5 -43t-241.5 43t-170 118t-100.5 176t-33 218zM385 1528v201h206v-201h-206zM784 1528v201 h207v-201h-207z" />
<glyph unicode="&#xdd;" horiz-adv-x="1181" d="M18 1366h220l356 -584l356 584h211l-473 -756v-610h-199v610zM502 1475l150 307h233l-217 -307h-166z" />
<glyph unicode="&#xde;" horiz-adv-x="1159" d="M156 0v1366h188v-250h242q139 0 231 -39t146.5 -98t76 -132t21.5 -142q0 -102 -35 -181.5t-96.5 -131.5t-147.5 -78.5t-186 -26.5h-252v-287h-188zM344 455h250q127 0 195.5 65.5t68.5 177.5q0 117 -70.5 183.5t-193.5 66.5h-250v-493z" />
<glyph unicode="&#xdf;" horiz-adv-x="1200" d="M127 0v973q0 121 33 202.5t90 131t137 71t174 21.5q76 0 141.5 -21.5t113.5 -59.5t76 -91t28 -117q0 -82 -38 -140.5t-83 -104.5t-83 -88t-38 -91t45 -75.5t117 -45.5q57 -16 107 -37.5t88 -55.5t59.5 -84t21.5 -124q0 -131 -92 -211t-266 -80q-102 0 -183 28t-143 77 l109 133q47 -41 102 -61.5t109 -20.5q94 0 138 36t44 89q0 61 -36 97t-136 69q-49 14 -96.5 31.5t-84 46t-60 72.5t-23.5 114q0 72 36.5 125t79.5 98t80 87t37 89q0 63 -44 109.5t-142 46.5q-66 0 -111 -20.5t-72.5 -56.5t-40 -87t-12.5 -112v-963h-182z" />
<glyph unicode="&#xe0;" horiz-adv-x="1021" d="M72 270q0 154 107.5 246t309.5 92q33 0 70 -2t70 -4t57.5 -4t34.5 -4v35q0 106 -64.5 152t-175.5 46q-109 0 -172 -29.5t-106 -60.5l-86 125q25 20 59.5 41t81.5 38t106.5 28.5t137.5 11.5q184 0 289.5 -89t105.5 -253v-451v-103t2 -85h-172l-4 115q-53 -72 -140 -107 t-180 -35q-59 0 -117.5 15.5t-106.5 51.5t-77.5 92t-29.5 138zM252 276q0 -78 53 -117.5t148 -39.5q53 0 101 18.5t85 49t59.5 71.5t22.5 84v109q-8 2 -31.5 5t-54.5 5t-65.5 4t-67.5 2q-78 0 -126 -18.5t-76 -46t-38 -61.5t-10 -65zM301 1386h205l109 -278h-154z" />
<glyph unicode="&#xe1;" horiz-adv-x="1021" d="M72 270q0 154 107.5 246t309.5 92q33 0 70 -2t70 -4t57.5 -4t34.5 -4v35q0 106 -64.5 152t-175.5 46q-109 0 -172 -29.5t-106 -60.5l-86 125q25 20 59.5 41t81.5 38t106.5 28.5t137.5 11.5q184 0 289.5 -89t105.5 -253v-451v-103t2 -85h-172l-4 115q-53 -72 -140 -107 t-180 -35q-59 0 -117.5 15.5t-106.5 51.5t-77.5 92t-29.5 138zM252 276q0 -78 53 -117.5t148 -39.5q53 0 101 18.5t85 49t59.5 71.5t22.5 84v109q-8 2 -31.5 5t-54.5 5t-65.5 4t-67.5 2q-78 0 -126 -18.5t-76 -46t-38 -61.5t-10 -65zM413 1106l111 278h201l-158 -278h-154z " />
<glyph unicode="&#xe2;" horiz-adv-x="1021" d="M72 270q0 154 107.5 246t309.5 92q33 0 70 -2t70 -4t57.5 -4t34.5 -4v35q0 106 -64.5 152t-175.5 46q-109 0 -172 -29.5t-106 -60.5l-86 125q25 20 59.5 41t81.5 38t106.5 28.5t137.5 11.5q184 0 289.5 -89t105.5 -253v-451v-103t2 -85h-172l-4 115q-53 -72 -140 -107 t-180 -35q-59 0 -117.5 15.5t-106.5 51.5t-77.5 92t-29.5 138zM207 1104l203 280h174l203 -280h-168l-123 170l-121 -170h-168zM252 276q0 -78 53 -117.5t148 -39.5q53 0 101 18.5t85 49t59.5 71.5t22.5 84v109q-8 2 -31.5 5t-54.5 5t-65.5 4t-67.5 2q-78 0 -126 -18.5 t-76 -46t-38 -61.5t-10 -65z" />
<glyph unicode="&#xe3;" horiz-adv-x="1021" d="M72 270q0 154 107.5 246t309.5 92q33 0 70 -2t70 -4t57.5 -4t34.5 -4v35q0 106 -64.5 152t-175.5 46q-109 0 -172 -29.5t-106 -60.5l-86 125q25 20 59.5 41t81.5 38t106.5 28.5t137.5 11.5q184 0 289.5 -89t105.5 -253v-451v-103t2 -85h-172l-4 115q-53 -72 -140 -107 t-180 -35q-59 0 -117.5 15.5t-106.5 51.5t-77.5 92t-29.5 138zM133 1241q35 39 96.5 75t133.5 36q43 0 74.5 -13.5t60.5 -31t59.5 -30.5t73.5 -13q59 4 92 24.5t68 48.5l74 -110q-35 -39 -95.5 -76t-132.5 -37q-43 0 -75.5 14.5t-61.5 31t-57.5 30.5t-67.5 14 q-57 0 -95 -21.5t-71 -49.5zM252 276q0 -78 53 -117.5t148 -39.5q53 0 101 18.5t85 49t59.5 71.5t22.5 84v109q-8 2 -31.5 5t-54.5 5t-65.5 4t-67.5 2q-78 0 -126 -18.5t-76 -46t-38 -61.5t-10 -65z" />
<glyph unicode="&#xe4;" horiz-adv-x="1021" d="M72 270q0 154 107.5 246t309.5 92q33 0 70 -2t70 -4t57.5 -4t34.5 -4v35q0 106 -64.5 152t-175.5 46q-109 0 -172 -29.5t-106 -60.5l-86 125q25 20 59.5 41t81.5 38t106.5 28.5t137.5 11.5q184 0 289.5 -89t105.5 -253v-451v-103t2 -85h-172l-4 115q-53 -72 -140 -107 t-180 -35q-59 0 -117.5 15.5t-106.5 51.5t-77.5 92t-29.5 138zM246 1147v186h192v-186h-192zM252 276q0 -78 53 -117.5t148 -39.5q53 0 101 18.5t85 49t59.5 71.5t22.5 84v109q-8 2 -31.5 5t-54.5 5t-65.5 4t-67.5 2q-78 0 -126 -18.5t-76 -46t-38 -61.5t-10 -65zM596 1147 v186h191v-186h-191z" />
<glyph unicode="&#xe5;" horiz-adv-x="1021" d="M72 270q0 154 107.5 246t309.5 92q33 0 70 -2t70 -4t57.5 -4t34.5 -4v35q0 106 -64.5 152t-175.5 46q-109 0 -172 -29.5t-106 -60.5l-86 125q25 20 59.5 41t81.5 38t106.5 28.5t137.5 11.5q184 0 289.5 -89t105.5 -253v-451v-103t2 -85h-172l-4 115q-53 -72 -140 -107 t-180 -35q-59 0 -117.5 15.5t-106.5 51.5t-77.5 92t-29.5 138zM252 276q0 -78 53 -117.5t148 -39.5q53 0 101 18.5t85 49t59.5 71.5t22.5 84v109q-8 2 -31.5 5t-54.5 5t-65.5 4t-67.5 2q-78 0 -126 -18.5t-76 -46t-38 -61.5t-10 -65zM287 1313q0 47 17 87t48 69.5t72 46 t88 16.5t88 -16.5t71.5 -45t48 -68.5t17.5 -87t-17.5 -88t-48 -70t-71.5 -45t-86 -16q-47 0 -88 16t-72 45t-49 69t-18 87zM409 1313q0 -45 30 -76t73 -31t73.5 31t30.5 76t-30.5 74.5t-73.5 29.5t-73 -29.5t-30 -74.5z" />
<glyph unicode="&#xe6;" horiz-adv-x="1726" d="M72 268q0 154 108.5 236t308.5 82q31 0 66 -2t67.5 -4t58.5 -4.5t40 -2.5v56q0 106 -62.5 152t-169.5 46q-113 0 -178 -29.5t-108 -60.5l-86 125q25 18 58.5 40t79.5 39t104.5 28.5t132.5 11.5q256 0 348 -162q57 76 146 119t198 43q123 0 211 -46t144 -123t83 -178.5 t27 -209.5h-750q0 -63 25.5 -116.5t68.5 -93.5t98.5 -62.5t116.5 -22.5q121 0 199 41t113 80l104 -111q-16 -18 -49 -47t-85 -55.5t-123 -46t-161 -19.5q-129 0 -229 50.5t-166 142.5q-82 -109 -173 -150t-220 -41q-63 0 -125 15.5t-111 50.5t-79.5 91t-30.5 138zM248 274 q0 -78 55 -116.5t150 -38.5q57 0 106 18.5t85 49t56.5 71.5t20.5 84v88l-45 5t-57.5 5t-61.5 3t-55 1q-72 0 -121 -15t-79 -38.5t-42 -54.5t-12 -62zM897 561h561q-8 111 -77.5 187.5t-196.5 76.5q-66 0 -118 -22.5t-89 -59t-57.5 -84t-22.5 -98.5z" />
<glyph unicode="&#xe7;" horiz-adv-x="1009" d="M82 477q0 104 37 196.5t103.5 161t157.5 108.5t202 40q121 0 213 -43t157 -117l-121 -116q-43 53 -104 83.5t-145 30.5q-74 0 -132.5 -27.5t-98.5 -75.5t-61.5 -110.5t-21.5 -130.5q0 -66 21.5 -128t61.5 -110.5t98.5 -77t132.5 -28.5q84 0 150.5 32t109.5 85l112 -119 q-63 -72 -156 -116t-216 -44q-115 0 -208 38t-157.5 104.5t-99.5 160t-35 203.5zM326 -429l22 111q35 -12 72 -20.5t76 -8.5q66 0 99.5 21.5t33.5 58.5q0 29 -27.5 50.5t-91.5 21.5q-37 0 -71.5 -7t-69.5 -20l18 113q33 10 70 18.5t102 8.5q109 0 164.5 -53.5t55.5 -125.5 q0 -49 -20.5 -85.5t-56.5 -62.5t-82 -38t-97 -12q-88 0 -137.5 13t-59.5 17z" />
<glyph unicode="&#xe8;" horiz-adv-x="1097" d="M80 483q0 104 35 195.5t98 158t150.5 105.5t191.5 39q123 0 211 -47t144.5 -125t83 -178.5t26.5 -208.5h-752q2 -63 28 -116.5t69 -92.5t98 -61.5t117 -22.5q121 0 198.5 41t112.5 80l104 -111q-16 -18 -49 -47t-85 -55.5t-122.5 -46t-160.5 -19.5q-111 0 -203 37 t-157.5 104.5t-101.5 162t-36 208.5zM268 559h561q-8 111 -77.5 188.5t-196.5 77.5q-66 0 -118 -22.5t-89 -59t-57.5 -85t-22.5 -99.5zM352 1386h205l109 -278h-154z" />
<glyph unicode="&#xe9;" horiz-adv-x="1097" d="M80 483q0 104 35 195.5t98 158t150.5 105.5t191.5 39q123 0 211 -47t144.5 -125t83 -178.5t26.5 -208.5h-752q2 -63 28 -116.5t69 -92.5t98 -61.5t117 -22.5q121 0 198.5 41t112.5 80l104 -111q-16 -18 -49 -47t-85 -55.5t-122.5 -46t-160.5 -19.5q-111 0 -203 37 t-157.5 104.5t-101.5 162t-36 208.5zM268 559h561q-8 111 -77.5 188.5t-196.5 77.5q-66 0 -118 -22.5t-89 -59t-57.5 -85t-22.5 -99.5zM473 1106l111 278h201l-158 -278h-154z" />
<glyph unicode="&#xea;" horiz-adv-x="1097" d="M80 483q0 104 35 195.5t98 158t150.5 105.5t191.5 39q123 0 211 -47t144.5 -125t83 -178.5t26.5 -208.5h-752q2 -63 28 -116.5t69 -92.5t98 -61.5t117 -22.5q121 0 198.5 41t112.5 80l104 -111q-16 -18 -49 -47t-85 -55.5t-122.5 -46t-160.5 -19.5q-111 0 -203 37 t-157.5 104.5t-101.5 162t-36 208.5zM260 1104l203 280h174l203 -280h-168l-123 170l-121 -170h-168zM268 559h561q-8 111 -77.5 188.5t-196.5 77.5q-66 0 -118 -22.5t-89 -59t-57.5 -85t-22.5 -99.5z" />
<glyph unicode="&#xeb;" horiz-adv-x="1097" d="M80 483q0 104 35 195.5t98 158t150.5 105.5t191.5 39q123 0 211 -47t144.5 -125t83 -178.5t26.5 -208.5h-752q2 -63 28 -116.5t69 -92.5t98 -61.5t117 -22.5q121 0 198.5 41t112.5 80l104 -111q-16 -18 -49 -47t-85 -55.5t-122.5 -46t-160.5 -19.5q-111 0 -203 37 t-157.5 104.5t-101.5 162t-36 208.5zM268 559h561q-8 111 -77.5 188.5t-196.5 77.5q-66 0 -118 -22.5t-89 -59t-57.5 -85t-22.5 -99.5zM279 1147v186h192v-186h-192zM629 1147v186h191v-186h-191z" />
<glyph unicode="&#xec;" horiz-adv-x="454" d="M-3 1386h205l109 -278h-154zM135 0v952h184v-952h-184z" />
<glyph unicode="&#xed;" horiz-adv-x="454" d="M135 0v952h184v-952h-184zM145 1106l111 278h201l-158 -278h-154z" />
<glyph unicode="&#xee;" horiz-adv-x="454" d="M-61 1104l203 280h174l203 -280h-168l-123 170l-121 -170h-168zM135 0v952h184v-952h-184z" />
<glyph unicode="&#xef;" horiz-adv-x="454" d="M-41 1147v186h192v-186h-192zM135 0v952h184v-952h-184zM309 1147v186h191v-186h-191z" />
<glyph unicode="&#xf0;" horiz-adv-x="1142" d="M82 449q0 96 36 182t99.5 151.5t152.5 104.5t195 39q98 0 162 -20.5t102 -41.5q-35 100 -101 176t-159 125l-108 -149l-105 65l95 131q-43 14 -90.5 21.5t-94.5 11.5l21 144q139 -8 256 -48l98 138l104 -66l-86 -119q205 -102 303.5 -295.5t98.5 -445.5 q0 -152 -40 -261.5t-109.5 -182t-161 -107.5t-195.5 -35q-92 0 -178 31t-151.5 91.5t-104.5 150.5t-39 209zM270 446q0 -72 22.5 -129t61.5 -99t93.5 -64.5t115.5 -22.5q57 0 113.5 23.5t101.5 74t72 130t27 190.5q0 33 -2.5 64.5t-12.5 68.5q-37 25 -102.5 54.5 t-165.5 29.5q-70 0 -129 -22.5t-102.5 -64.5t-68 -101.5t-24.5 -131.5z" />
<glyph unicode="&#xf1;" horiz-adv-x="1114" d="M125 952h176l6 -143q18 25 45 54.5t66 54t91 41t118 16.5q186 0 276 -108.5t90 -295.5v-571h-184v557q0 133 -57.5 195.5t-161.5 62.5q-80 0 -133.5 -32.5t-85 -85t-46 -119t-14.5 -136.5v-442h-184v745v109.5t-2 97.5zM192 1241q35 39 96.5 75t133.5 36q43 0 74.5 -13.5 t60.5 -31t59.5 -30.5t73.5 -13q59 4 92 24.5t68 48.5l74 -110q-35 -39 -95.5 -76t-132.5 -37q-43 0 -75.5 14.5t-61.5 31t-57.5 30.5t-67.5 14q-57 0 -95 -21.5t-71 -49.5z" />
<glyph unicode="&#xf2;" horiz-adv-x="1171" d="M82 477q0 104 38 195.5t104.5 161t158.5 109.5t203 40q109 0 201 -40t159.5 -109.5t105.5 -160.5t38 -196q0 -104 -38 -195.5t-105.5 -161t-159.5 -109.5t-201 -40q-111 0 -203 40t-158.5 109.5t-104.5 161t-38 195.5zM268 477q0 -66 21.5 -127t63.5 -110.5t100.5 -79 t132.5 -29.5t133 29.5t100 78t62.5 111t21.5 127.5q0 63 -21.5 126t-63.5 112t-100.5 78.5t-131.5 29.5q-74 0 -133.5 -29.5t-100.5 -77.5t-62.5 -110.5t-21.5 -128.5zM378 1386h205l109 -278h-154z" />
<glyph unicode="&#xf3;" horiz-adv-x="1171" d="M82 477q0 104 38 195.5t104.5 161t158.5 109.5t203 40q109 0 201 -40t159.5 -109.5t105.5 -160.5t38 -196q0 -104 -38 -195.5t-105.5 -161t-159.5 -109.5t-201 -40q-111 0 -203 40t-158.5 109.5t-104.5 161t-38 195.5zM268 477q0 -66 21.5 -127t63.5 -110.5t100.5 -79 t132.5 -29.5t133 29.5t100 78t62.5 111t21.5 127.5q0 63 -21.5 126t-63.5 112t-100.5 78.5t-131.5 29.5q-74 0 -133.5 -29.5t-100.5 -77.5t-62.5 -110.5t-21.5 -128.5zM497 1106l111 278h201l-158 -278h-154z" />
<glyph unicode="&#xf4;" horiz-adv-x="1171" d="M82 477q0 104 38 195.5t104.5 161t158.5 109.5t203 40q109 0 201 -40t159.5 -109.5t105.5 -160.5t38 -196q0 -104 -38 -195.5t-105.5 -161t-159.5 -109.5t-201 -40q-111 0 -203 40t-158.5 109.5t-104.5 161t-38 195.5zM268 477q0 -66 21.5 -127t63.5 -110.5t100.5 -79 t132.5 -29.5t133 29.5t100 78t62.5 111t21.5 127.5q0 63 -21.5 126t-63.5 112t-100.5 78.5t-131.5 29.5q-74 0 -133.5 -29.5t-100.5 -77.5t-62.5 -110.5t-21.5 -128.5zM293 1104l203 280h174l203 -280h-168l-123 170l-121 -170h-168z" />
<glyph unicode="&#xf5;" horiz-adv-x="1171" d="M82 477q0 104 38 195.5t104.5 161t158.5 109.5t203 40q109 0 201 -40t159.5 -109.5t105.5 -160.5t38 -196q0 -104 -38 -195.5t-105.5 -161t-159.5 -109.5t-201 -40q-111 0 -203 40t-158.5 109.5t-104.5 161t-38 195.5zM221 1241q35 39 96.5 75t133.5 36q43 0 74.5 -13.5 t60.5 -31t59.5 -30.5t73.5 -13q59 4 92 24.5t68 48.5l74 -110q-35 -39 -95.5 -76t-132.5 -37q-43 0 -75.5 14.5t-61.5 31t-57.5 30.5t-67.5 14q-57 0 -95 -21.5t-71 -49.5zM268 477q0 -66 21.5 -127t63.5 -110.5t100.5 -79t132.5 -29.5t133 29.5t100 78t62.5 111t21.5 127.5 q0 63 -21.5 126t-63.5 112t-100.5 78.5t-131.5 29.5q-74 0 -133.5 -29.5t-100.5 -77.5t-62.5 -110.5t-21.5 -128.5z" />
<glyph unicode="&#xf6;" horiz-adv-x="1171" d="M82 477q0 104 38 195.5t104.5 161t158.5 109.5t203 40q109 0 201 -40t159.5 -109.5t105.5 -160.5t38 -196q0 -104 -38 -195.5t-105.5 -161t-159.5 -109.5t-201 -40q-111 0 -203 40t-158.5 109.5t-104.5 161t-38 195.5zM268 477q0 -66 21.5 -127t63.5 -110.5t100.5 -79 t132.5 -29.5t133 29.5t100 78t62.5 111t21.5 127.5q0 63 -21.5 126t-63.5 112t-100.5 78.5t-131.5 29.5q-74 0 -133.5 -29.5t-100.5 -77.5t-62.5 -110.5t-21.5 -128.5zM315 1147v186h192v-186h-192zM665 1147v186h191v-186h-191z" />
<glyph unicode="&#xf7;" horiz-adv-x="1114" d="M147 578v159h818v-159h-818zM465 254v174h182v-174h-182zM465 889v172h182v-172h-182z" />
<glyph unicode="&#xf8;" horiz-adv-x="1171" d="M80 477q0 104 38 195.5t105.5 160t159.5 108.5t203 40q63 0 120.5 -14.5t108.5 -40.5l100 141l117 -72l-102 -147q74 -72 117 -166t43 -205q0 -104 -38 -196.5t-105.5 -161t-160 -108.5t-200.5 -40q-66 0 -123 14.5t-109 37.5l-94 -132l-115 72l97 137q-78 72 -120 168.5 t-42 208.5zM266 477q0 -61 20.5 -120.5t59.5 -106.5l373 538q-61 33 -133 33q-74 0 -133.5 -29.5t-101.5 -77.5t-63.5 -110.5t-21.5 -126.5zM451 162q61 -33 135 -33t133 29.5t100 79t62.5 112t21.5 127.5q0 59 -20.5 116.5t-57.5 104.5z" />
<glyph unicode="&#xf9;" horiz-adv-x="1110" d="M121 381v571h184v-559q0 -135 55.5 -195.5t159.5 -60.5q80 0 132.5 33t85 85t46 118.5t13.5 136.5v442h184v-745v-109.5t2 -97.5h-176l-6 141q-18 -25 -45 -53.5t-66 -52t-90 -39.5t-117 -16q-186 0 -274 107.5t-88 293.5zM342 1386h205l109 -278h-154z" />
<glyph unicode="&#xfa;" horiz-adv-x="1110" d="M121 381v571h184v-559q0 -135 55.5 -195.5t159.5 -60.5q80 0 132.5 33t85 85t46 118.5t13.5 136.5v442h184v-745v-109.5t2 -97.5h-176l-6 141q-18 -25 -45 -53.5t-66 -52t-90 -39.5t-117 -16q-186 0 -274 107.5t-88 293.5zM460 1106l111 278h201l-158 -278h-154z" />
<glyph unicode="&#xfb;" horiz-adv-x="1110" d="M121 381v571h184v-559q0 -135 55.5 -195.5t159.5 -60.5q80 0 132.5 33t85 85t46 118.5t13.5 136.5v442h184v-745v-109.5t2 -97.5h-176l-6 141q-18 -25 -45 -53.5t-66 -52t-90 -39.5t-117 -16q-186 0 -274 107.5t-88 293.5zM262 1104l203 280h174l203 -280h-168l-123 170 l-121 -170h-168z" />
<glyph unicode="&#xfc;" horiz-adv-x="1110" d="M121 381v571h184v-559q0 -135 55.5 -195.5t159.5 -60.5q80 0 132.5 33t85 85t46 118.5t13.5 136.5v442h184v-745v-109.5t2 -97.5h-176l-6 141q-18 -25 -45 -53.5t-66 -52t-90 -39.5t-117 -16q-186 0 -274 107.5t-88 293.5zM285 1147v186h192v-186h-192zM635 1147v186h191 v-186h-191z" />
<glyph unicode="&#xfd;" horiz-adv-x="1028" d="M18 952h211l308 -719l270 719h201l-381 -927q-27 -66 -54.5 -145t-68.5 -149.5t-100.5 -117.5t-149.5 -47q-72 0 -121 19.5t-86 52.5l84 129q20 -18 47 -33t66 -15q33 0 56.5 14.5t42.5 44t36.5 71.5t40.5 98l24 61zM432 1106l111 278h201l-158 -278h-154z" />
<glyph unicode="&#xfe;" horiz-adv-x="1142" d="M127 1366h182v-541q14 18 42 44t68 49.5t92 39t120 15.5q111 0 191.5 -40t134 -108.5t79 -159t25.5 -190.5q0 -131 -44 -226t-115 -156.5t-157 -91.5t-172 -30q-96 0 -154.5 19.5t-109.5 42.5v-443h-180q0 446 -1 888t-1 888zM309 207q33 -27 94.5 -51.5t153.5 -24.5 q70 0 128 25.5t100 71.5t64.5 108.5t22.5 138.5q0 70 -15 131.5t-49 107.5t-87 72.5t-131 26.5q-53 0 -95 -17.5t-75 -45t-56.5 -63.5t-37.5 -75q-14 -37 -15.5 -78.5t-1.5 -82.5v-244z" />
<glyph unicode="&#xff;" horiz-adv-x="1028" d="M18 952h211l308 -719l270 719h201l-381 -927q-27 -66 -54.5 -145t-68.5 -149.5t-100.5 -117.5t-149.5 -47q-72 0 -121 19.5t-86 52.5l84 129q20 -18 47 -33t66 -15q33 0 56.5 14.5t42.5 44t36.5 71.5t40.5 98l24 61zM250 1147v186h192v-186h-192zM600 1147v186h191v-186 h-191z" />
<glyph unicode="&#x152;" horiz-adv-x="2289" d="M100 684q0 150 53.5 280t146.5 227t219 153.5t272 56.5q82 0 157.5 -18.5t141 -53.5t118 -84t84.5 -110v231h858v-174h-667v-397h506v-177h-506v-442h719v-176h-910v231q-33 -61 -85 -110t-117.5 -84t-142.5 -53.5t-156 -18.5q-145 0 -271.5 56.5t-219.5 153.5 t-146.5 228.5t-53.5 280.5zM303 686q0 -109 35 -206t99.5 -170.5t155.5 -116.5t204 -43t203 43t154.5 116.5t99 171t34.5 205.5q0 111 -34.5 208t-99 171t-155 116t-202.5 42q-113 0 -204 -42t-155.5 -116t-99.5 -171t-35 -208z" />
<glyph unicode="&#x153;" horiz-adv-x="1918" d="M80 477q0 104 38 195.5t105.5 160t159.5 108.5t203 40q129 0 233.5 -60.5t167.5 -158.5q59 102 159.5 160.5t229.5 58.5q123 0 211 -47t144.5 -125t83 -179.5t26.5 -207.5h-751q2 -63 27.5 -116.5t67.5 -92.5t98 -61.5t118 -22.5q59 0 108.5 11.5t89 29.5t68.5 39.5 t45 40.5l105 -111q-16 -18 -49 -47t-85.5 -55.5t-123 -46t-160.5 -19.5q-137 0 -241.5 58.5t-168.5 163.5q-61 -100 -167.5 -161t-235.5 -61q-111 0 -203 40t-159.5 108.5t-105.5 161t-38 196.5zM266 477q0 -66 22.5 -128t63.5 -111.5t100.5 -79t133.5 -29.5t133 29.5 t100 79t62.5 112t21.5 127.5q0 63 -22.5 125t-63.5 111t-99.5 78.5t-131.5 29.5q-74 0 -133.5 -29.5t-101.5 -77.5t-63.5 -110.5t-21.5 -126.5zM1090 559h561q-8 111 -78 188.5t-197 77.5q-66 0 -119 -22.5t-90 -59t-56 -85t-21 -99.5z" />
<glyph unicode="&#x178;" horiz-adv-x="1181" d="M18 1366h220l356 -584l356 584h211l-473 -756v-610h-199v610zM293 1528v201h206v-201h-206zM692 1528v201h207v-201h-207z" />
<glyph unicode="&#x2c6;" horiz-adv-x="839" d="M129 1104l203 280h174l203 -280h-168l-123 170l-121 -170h-168z" />
<glyph unicode="&#x2dc;" horiz-adv-x="856" d="M59 1241q35 39 96.5 75t133.5 36q43 0 74.5 -13.5t60.5 -31t59.5 -30.5t73.5 -13q59 4 92 24.5t68 48.5l74 -110q-35 -39 -95.5 -76t-132.5 -37q-43 0 -75.5 14.5t-61.5 31t-57.5 30.5t-67.5 14q-57 0 -95 -21.5t-71 -49.5z" />
<glyph unicode="&#x2000;" horiz-adv-x="891" />
<glyph unicode="&#x2001;" horiz-adv-x="1782" />
<glyph unicode="&#x2002;" horiz-adv-x="891" />
<glyph unicode="&#x2003;" horiz-adv-x="1782" />
<glyph unicode="&#x2004;" horiz-adv-x="594" />
<glyph unicode="&#x2005;" horiz-adv-x="445" />
<glyph unicode="&#x2006;" horiz-adv-x="297" />
<glyph unicode="&#x2007;" horiz-adv-x="297" />
<glyph unicode="&#x2008;" horiz-adv-x="222" />
<glyph unicode="&#x2009;" horiz-adv-x="356" />
<glyph unicode="&#x200a;" horiz-adv-x="99" />
<glyph unicode="&#x2010;" horiz-adv-x="899" d="M150 485v177h600v-177h-600z" />
<glyph unicode="&#x2011;" horiz-adv-x="899" d="M150 485v177h600v-177h-600z" />
<glyph unicode="&#x2012;" horiz-adv-x="899" d="M150 485v177h600v-177h-600z" />
<glyph unicode="&#x2013;" horiz-adv-x="1024" d="M0 485v177h1024v-177h-1024z" />
<glyph unicode="&#x2014;" horiz-adv-x="2048" d="M0 485v177h2048v-177h-2048z" />
<glyph unicode="&#x2018;" horiz-adv-x="489" d="M111 958l108 406h143l-43 -406h-208z" />
<glyph unicode="&#x2019;" horiz-adv-x="489" d="M137 958l41 406h209l-108 -406h-142z" />
<glyph unicode="&#x201a;" horiz-adv-x="507" d="M141 -174l43 403h207l-106 -403h-144z" />
<glyph unicode="&#x201c;" horiz-adv-x="837" d="M115 958l108 406h143l-43 -406h-208zM463 958l108 406h143l-43 -406h-208z" />
<glyph unicode="&#x201d;" horiz-adv-x="837" d="M141 958l41 406h209l-108 -406h-142zM489 958l41 406h209l-108 -406h-142z" />
<glyph unicode="&#x201e;" horiz-adv-x="858" d="M141 -174l43 403h207l-106 -403h-144zM489 -174l43 403h207l-106 -403h-144z" />
<glyph unicode="&#x2022;" horiz-adv-x="819" d="M154 666q0 51 20.5 98t55 81t80.5 54.5t100 20.5q53 0 99 -20.5t81 -54.5t55.5 -81t20.5 -98q0 -53 -20.5 -99.5t-55.5 -81t-81 -55t-99 -20.5t-99.5 20.5t-81 55t-55 81t-20.5 99.5z" />
<glyph unicode="&#x2026;" horiz-adv-x="1533" d="M77 -2v229h232v-229h-232zM553 -2v229h232v-229h-232zM1030 -2v229h232v-229h-232z" />
<glyph unicode="&#x202f;" horiz-adv-x="356" />
<glyph unicode="&#x2039;" horiz-adv-x="665" d="M129 487l215 396h182l-207 -396l207 -395h-182z" />
<glyph unicode="&#x203a;" horiz-adv-x="665" d="M139 92l207 395l-207 396h183l215 -396l-215 -395h-183z" />
<glyph unicode="&#x205f;" horiz-adv-x="445" />
<glyph unicode="&#x20ac;" d="M59 436l41 123h131q-4 23 -4 46.5v47.5v43.5t4 42.5h-172l41 125h150q20 98 61 182t103.5 146.5t146.5 98.5t189 36q63 0 115.5 -12t95.5 -32.5t76.5 -46.5t62.5 -52l-103 -129q-35 37 -93 68.5t-150 31.5q-123 0 -202 -78t-110 -213h451l-41 -125h-430q-2 -23 -2 -43 v-43v-48t2 -46h459l-41 -123h-398q33 -135 111 -212t201 -77q92 0 149.5 31t93.5 68l103 -127q-25 -25 -58.5 -49.5t-76.5 -45t-96.5 -34t-118.5 -13.5q-104 0 -187.5 35t-146 96.5t-103.5 145.5t-61 182h-193z" />
<glyph unicode="&#x2122;" horiz-adv-x="1818" d="M61 1231v135h711v-135h-276v-649h-156v649h-279zM885 582l20 784h139l238 -381l234 381h149l25 -784h-146l-14 571l-219 -365h-64l-211 347l-16 -553h-135z" />
<glyph unicode="&#xe000;" horiz-adv-x="952" d="M0 0v952h952v-952h-952z" />
</font>
</defs></svg> 