<?xml version="1.0" encoding="UTF-8"?>
<svg width="102px" height="95px" viewBox="0 0 102 95" version="1.1" xmlns="http://www.w3.org/2000/svg" xmlns:xlink="http://www.w3.org/1999/xlink">
    <!-- Generator: Sketch 42 (36781) - http://www.bohemiancoding.com/sketch -->
    <title>Imported Layers</title>
    <desc>Created with Sketch.</desc>
    <defs></defs>
    <g id="Page-1" stroke="none" stroke-width="1" fill="none" fill-rule="evenodd">
        <g id="Arrive-on-Page" transform="translate(-514.000000, -2408.000000)" stroke="#F5C206" fill="#F5C206">
            <g id="COMFORT-MESSAGING-" transform="translate(0.000000, 2227.000000)">
                <g id="Public" transform="translate(496.000000, 182.000000)">
                    <path d="M45.8624094,3.2382751 C51.7829486,3.2382751 60.2311492,4.98174676 66.8818603,13.2855894 L69.4188351,16.4568079 L71.9157622,13.2539238 C78.3699602,4.98174676 86.7483101,3.24106912 92.6455658,3.2382751 L93.0069263,3.24106912 C100.462317,3.32116451 106.559811,5.92333322 110.639087,10.7542026 C115.47182,16.4921989 117.293524,24.9580949 115.762398,34.6030696 C113.327871,49.965551 84.8092567,76.529279 69.4067276,88.993425 C53.9026823,76.5218282 25.1987311,49.9413361 22.7530278,34.6030696 C21.2097946,24.9739277 23.0240482,16.508963 27.8567803,10.7709668 C31.9397823,5.92705859 38.0410018,3.32116451 45.4926667,3.24106912 L45.8624094,3.2382751 M92.6530165,0 C85.9156906,0 76.5957542,2.00797271 69.3871694,11.2534018 C61.9830029,2.00797271 52.6146367,0 45.8624094,0 L45.4768339,0 C37.0444662,0.0940655119 30.1106272,3.09205445 25.4073516,8.67451661 C19.95714,15.1445474 17.8849047,24.5315404 19.5724958,35.1171702 C22.8862096,55.8562872 66.3090851,90.6577326 68.154073,92.1292525 L69.410453,93.1295135 L70.6668329,92.1255271 C72.5043701,90.6540072 115.6525,55.8292783 118.941999,35.1134448 C120.62307,24.519433 118.541522,15.1240579 113.092241,8.6586838 C108.388966,3.08739774 101.455127,0.0940655119 93.0376606,0 L92.6530165,0" id="Imported-Layers"></path>
                </g>
            </g>
        </g>
    </g>
</svg>