<?xml version="1.0" encoding="utf-8"?>
<!-- Generator: Adobe Illustrator 15.0.0, SVG Export Plug-In  -->
<!DOCTYPE svg PUBLIC "-//W3C//DTD SVG 1.1//EN" "http://www.w3.org/Graphics/SVG/1.1/DTD/svg11.dtd" [
	<!ENTITY ns_flows "http://ns.adobe.com/Flows/1.0/">
]>
<svg version="1.1"
	 xmlns="http://www.w3.org/2000/svg" xmlns:xlink="http://www.w3.org/1999/xlink" xmlns:a="http://ns.adobe.com/AdobeSVGViewerExtensions/3.0/"
	 x="0px" y="0px" width="52px" height="46px" viewBox="5 5 52 46" enable-background="new 5 5 52 46" xml:space="preserve">
<defs>
</defs>
<g>
	<defs>
		<path id="SVGID_1_" d="M54.159,32.217c0,0.212-0.172,0.383-0.384,0.383h-3.841c-0.212,0-0.384-0.171-0.384-0.383v-3.833
			c0-0.212,0.172-0.384,0.384-0.384h3.841c0.212,0,0.384,0.172,0.384,0.384V32.217z M54.159,40.65c0,0.211-0.172,0.383-0.384,0.383
			h-3.841c-0.212,0-0.384-0.172-0.384-0.383v-3.834c0-0.211,0.172-0.383,0.384-0.383h3.841c0.212,0,0.384,0.172,0.384,0.383V40.65z
			 M47.246,32.217c0,0.212-0.172,0.383-0.384,0.383h-3.841c-0.212,0-0.384-0.171-0.384-0.383v-3.833
			c0-0.212,0.172-0.384,0.384-0.384h3.841c0.212,0,0.384,0.172,0.384,0.384V32.217z M47.246,40.65c0,0.211-0.172,0.383-0.384,0.383
			h-3.841c-0.212,0-0.384-0.172-0.384-0.383v-3.834c0-0.211,0.172-0.383,0.384-0.383h3.841c0.212,0,0.384,0.172,0.384,0.383V40.65z
			 M40.333,32.217c0,0.212-0.172,0.383-0.384,0.383h-3.841c-0.212,0-0.384-0.171-0.384-0.383v-3.833
			c0-0.212,0.172-0.384,0.384-0.384h3.841c0.212,0,0.384,0.172,0.384,0.384V32.217z M40.333,40.65c0,0.211-0.172,0.383-0.384,0.383
			h-3.841c-0.212,0-0.384-0.172-0.384-0.383v-3.834c0-0.211,0.172-0.383,0.384-0.383h3.841c0.212,0,0.384,0.172,0.384,0.383V40.65z
			 M56.672,27.076l-23.043-6.469c-0.49-0.138-0.977,0.229-0.977,0.738V51h3.072v-6.134c0-0.423,0.344-0.767,0.768-0.767h3.072
			c0.425,0,0.769,0.344,0.769,0.767V51h16.899V27.814C57.232,27.471,57.003,27.169,56.672,27.076z M26.507,13.816
			c0,0.212-0.172,0.384-0.384,0.384h-3.84c-0.212,0-0.384-0.172-0.384-0.384V9.983c0-0.212,0.172-0.384,0.384-0.384h3.84
			c0.212,0,0.384,0.172,0.384,0.384V13.816z M26.507,22.25c0,0.212-0.172,0.383-0.384,0.383h-3.84c-0.212,0-0.384-0.171-0.384-0.383
			v-3.833c0-0.212,0.172-0.384,0.384-0.384h3.84c0.212,0,0.384,0.172,0.384,0.384V22.25z M26.507,30.684
			c0,0.211-0.172,0.383-0.384,0.383h-3.84c-0.212,0-0.384-0.172-0.384-0.383V26.85c0-0.211,0.172-0.383,0.384-0.383h3.84
			c0.212,0,0.384,0.172,0.384,0.383V30.684z M26.507,39.116c0,0.212-0.172,0.384-0.384,0.384h-3.84
			c-0.212,0-0.384-0.172-0.384-0.384v-3.833c0-0.212,0.172-0.383,0.384-0.383h3.84c0.212,0,0.384,0.171,0.384,0.383V39.116z
			 M19.594,13.816c0,0.212-0.172,0.384-0.384,0.384h-3.84c-0.212,0-0.384-0.172-0.384-0.384V9.983c0-0.212,0.172-0.384,0.384-0.384
			h3.84c0.212,0,0.384,0.172,0.384,0.384V13.816z M19.594,22.25c0,0.212-0.172,0.383-0.384,0.383h-3.84
			c-0.212,0-0.384-0.171-0.384-0.383v-3.833c0-0.212,0.172-0.384,0.384-0.384h3.84c0.212,0,0.384,0.172,0.384,0.384V22.25z
			 M19.594,30.684c0,0.211-0.172,0.383-0.384,0.383h-3.84c-0.212,0-0.384-0.172-0.384-0.383V26.85c0-0.211,0.172-0.383,0.384-0.383
			h3.84c0.212,0,0.384,0.172,0.384,0.383V30.684z M19.594,39.116c0,0.212-0.172,0.384-0.384,0.384h-3.84
			c-0.212,0-0.384-0.172-0.384-0.384v-3.833c0-0.212,0.172-0.383,0.384-0.383h3.84c0.212,0,0.384,0.171,0.384,0.383V39.116z
			 M12.681,13.816c0,0.212-0.172,0.384-0.384,0.384h-3.84c-0.212,0-0.384-0.172-0.384-0.384V9.983c0-0.212,0.172-0.384,0.384-0.384
			h3.84c0.212,0,0.384,0.172,0.384,0.384V13.816z M12.681,22.25c0,0.212-0.172,0.383-0.384,0.383h-3.84
			c-0.212,0-0.384-0.171-0.384-0.383v-3.833c0-0.212,0.172-0.384,0.384-0.384h3.84c0.212,0,0.384,0.172,0.384,0.384V22.25z
			 M12.681,30.684c0,0.211-0.172,0.383-0.384,0.383h-3.84c-0.212,0-0.384-0.172-0.384-0.383V26.85c0-0.211,0.172-0.383,0.384-0.383
			h3.84c0.212,0,0.384,0.172,0.384,0.383V30.684z M12.681,39.116c0,0.212-0.172,0.384-0.384,0.384h-3.84
			c-0.212,0-0.384-0.172-0.384-0.384v-3.833c0-0.212,0.172-0.383,0.384-0.383h3.84c0.212,0,0.384,0.171,0.384,0.383V39.116z
			 M28.812,5H5.768C5.344,5,5,5.344,5,5.767V51h3.072v-6.9c0-0.423,0.344-0.767,0.768-0.767h3.073c0.424,0,0.768,0.344,0.768,0.767
			V51H29.58V5.767C29.58,5.344,29.235,5,28.812,5z"/>
	</defs>
	<clipPath id="SVGID_2_">
		<use xlink:href="#SVGID_1_"  overflow="visible"/>
	</clipPath>
	<rect clip-path="url(#SVGID_2_)" width="62.232" height="56"/>
</g>
</svg>
