<?xml version="1.0" encoding="UTF-8"?>
<svg width="35px" height="35px" viewBox="0 0 35 35" version="1.1" xmlns="http://www.w3.org/2000/svg" xmlns:xlink="http://www.w3.org/1999/xlink">
    <!-- Generator: Sketch 42 (36781) - http://www.bohemiancoding.com/sketch -->
    <title>Three Circle</title>
    <desc>Created with Sketch.</desc>
    <defs></defs>
    <g id="Page-1" stroke="none" stroke-width="1" fill="none" fill-rule="evenodd">
        <g id="Arrive-on-Page" transform="translate(-830.000000, -1220.000000)">
            <g id="HOW-IT-WORKS" transform="translate(0.000000, 939.000000)">
                <g id="4-Boxes---Outlines" transform="translate(231.000000, 200.000000)">
                    <g id="Sentences" transform="translate(507.000000, 0.000000)">
                        <g id="Group" transform="translate(42.000000, 81.000000)">
                            <g id="Three-Circle" transform="translate(50.000000, 0.000000)">
                                <circle id="Oval" fill="#392E07" cx="17.5" cy="17.5" r="17.5"></circle>
                                <path d="M19.7,13.14 L15.92,17.16 L16.32,18.7 L17.46,18.7 C19.44,18.7 20.68,19.48 20.68,20.88 C20.68,22.18 19.64,23.02 18.26,23.02 C16.7,23.02 15.58,22.36 14.58,21.18 L12.86,22.78 C14.04,24.22 15.78,25.24 18.22,25.24 C21.12,25.24 23.12,23.4 23.12,20.8 C23.12,18.18 21.14,17.12 19,16.84 L22.9,12.84 L22.9,11 L13.64,11 L13.64,13.14 L19.7,13.14 Z" id="3" fill="#FFFFFF"></path>
                            </g>
                        </g>
                    </g>
                </g>
            </g>
        </g>
    </g>
</svg>