<?xml version="1.0" encoding="UTF-8" standalone="no"?>
<svg width="300px" height="142px" viewBox="0 0 300 142" version="1.1" xmlns="http://www.w3.org/2000/svg" xmlns:xlink="http://www.w3.org/1999/xlink" xmlns:sketch="http://www.bohemiancoding.com/sketch/ns">
    <!-- Generator: Sketch 3.2.2 (9983) - http://www.bohemiancoding.com/sketch -->
    <title>Box 2</title>
    <desc>Created with Sketch.</desc>
    <defs></defs>
    <g id="Welcome" stroke="none" stroke-width="1" fill="none" fill-rule="evenodd" sketch:type="MSPage">
        <g id="01_Desktop_Default" sketch:type="MSArtboardGroup" transform="translate(-490.000000, -2315.000000)">
            <g id="Review" sketch:type="MSLayerGroup" transform="translate(170.000000, 1991.000000)">
                <g id="Box-2" transform="translate(320.000000, 324.000000)">
                    <rect id="Rectangle-30" stroke="#979797" sketch:type="MSShapeGroup" x="0" y="0" width="300" height="142"></rect>
                    <text id="9,000+" sketch:type="MSTextLayer" font-family="Gotham HTF" font-size="30" font-weight="313" sketch:alignment="middle" fill="#4A4A4A">
                        <tspan x="95.795" y="100">9,000+</tspan>
                        <tspan x="14.572" y="132" font-size="16">PUBLIC &amp; NONPROFIT AGENCIES</tspan>
                    </text>
                    <g id="public6" transform="translate(127.000000, 19.000000)" fill="#000000" sketch:type="MSShapeGroup">
                        <path d="M23,0 L0,14.375 L46,14.375 L23,0 L23,0 Z M35.9375,17.25 L37.375,20.125 L37.375,37.375 L43.125,37.375 L43.125,20.125 L44.5625,17.25 L35.9375,17.25 L35.9375,17.25 Z M24.4375,17.25 L25.875,20.125 L25.875,37.375 L31.625,37.375 L31.625,20.125 L33.0625,17.25 L24.4375,17.25 L24.4375,17.25 Z M12.9375,17.25 L14.375,20.125 L14.375,37.375 L20.125,37.375 L20.125,20.125 L21.5625,17.25 L12.9375,17.25 L12.9375,17.25 Z M1.4375,17.25 L2.875,20.125 L2.875,37.375 L8.625,37.375 L8.625,20.125 L10.0625,17.25 L1.4375,17.25 L1.4375,17.25 Z M1.4375,40.25 L0,46 L46,46 L44.5625,40.25 L1.4375,40.25 L1.4375,40.25 Z M25.875,8.625 C25.875,10.2128086 24.5878086,11.5 23,11.5 C21.4121914,11.5 20.125,10.2128086 20.125,8.625 C20.125,7.03719141 21.4121914,5.75 23,5.75 C24.5878086,5.75 25.875,7.03719141 25.875,8.625 L25.875,8.625 Z" id="Shape"></path>
                    </g>
                </g>
            </g>
        </g>
    </g>
</svg>