<?xml version="1.0" encoding="UTF-8" standalone="no"?>
<svg width="31px" height="30px" viewBox="0 0 31 30" version="1.1" xmlns="http://www.w3.org/2000/svg" xmlns:xlink="http://www.w3.org/1999/xlink" xmlns:sketch="http://www.bohemiancoding.com/sketch/ns">
    <!-- Generator: Sketch 3.2.2 (9983) - http://www.bohemiancoding.com/sketch -->
    <title>Twitter</title>
    <desc>Created with Sketch.</desc>
    <defs></defs>
    <g id="Welcome" stroke="none" stroke-width="1" fill="none" fill-rule="evenodd" sketch:type="MSPage">
        <g id="01_Desktop_Default" sketch:type="MSArtboardGroup" transform="translate(-584.000000, -2547.000000)">
            <g id="Footer" sketch:type="MSLayerGroup" transform="translate(0.000000, 2497.000000)">
                <g id="Social" transform="translate(544.000000, 50.000000)" sketch:type="MSShapeGroup">
                    <g id="Twitter" transform="translate(40.285714, 0.000000)">
                        <path d="M15,0 C6.71625,0 0,6.71625 0,15 C0,23.28375 6.71625,30 15,30 C23.28375,30 30,23.28375 30,15 C30,6.714375 23.28375,0 15,0 L15,0 Z" id="Shape" fill="#0098DB"></path>
                        <path d="M22.4625,11.6325 L22.47375,12.110625 C22.47375,16.993125 18.759375,22.618125 11.96625,22.618125 C9.88125,22.618125 7.940625,22.006875 6.305625,20.95875 C6.594375,20.9925 6.88875,21.01125 7.186875,21.01125 C8.9175,21.01125 10.509375,20.420625 11.773125,19.430625 C10.156875,19.400625 8.79375,18.331875 8.323125,16.865625 C8.55,16.90875 8.77875,16.929375 9.01875,16.929375 C9.35625,16.929375 9.6825,16.88625 9.991875,16.801875 C8.3025,16.460625 7.029375,14.97 7.029375,13.18125 L7.029375,13.134375 C7.528125,13.411875 8.09625,13.576875 8.701875,13.5975 C7.711875,12.935625 7.059375,11.805 7.059375,10.524375 C7.059375,9.8475 7.24125,9.21375 7.558125,8.668125 C9.37875,10.903125 12.10125,12.373125 15.170625,12.526875 C15.106875,12.256875 15.075,11.97375 15.075,11.685 C15.075,9.646875 16.72875,7.993125 18.76875,7.993125 C19.83,7.993125 20.79,8.44125 21.465,9.159375 C22.305,8.9925 23.09625,8.685 23.810625,8.263125 C23.535,9.125625 22.95,9.849375 22.186875,10.306875 C22.93125,10.21875 23.645625,10.018125 24.3075,9.725625 C23.8125,10.464375 23.184375,11.115 22.4625,11.6325 L22.4625,11.6325 Z" id="Path" fill="#FFFFFF"></path>
                    </g>
                </g>
            </g>
        </g>
    </g>
</svg>