<?xml version="1.0" encoding="UTF-8"?>
<svg width="39px" height="39px" viewBox="0 0 39 39" version="1.1" xmlns="http://www.w3.org/2000/svg" xmlns:xlink="http://www.w3.org/1999/xlink">
    <!-- Generator: Sketch 42 (36781) - http://www.bohemiancoding.com/sketch -->
    <title>google-plus</title>
    <desc>Created with Sketch.</desc>
    <defs></defs>
    <g id="Page-1" stroke="none" stroke-width="1" fill="none" fill-rule="evenodd">
        <g id="Arrive-on-Page" transform="translate(-784.000000, -2802.000000)">
            <g id="FOOTER" transform="translate(0.000000, 2756.000000)">
                <g id="Social-Icons" transform="translate(617.000000, 46.000000)">
                    <g id="google-plus" transform="translate(167.303867, 0.000000)">
                        <g id="Layer_1">
                            <g id="Group">
                                <path d="M19.3030092,0 C29.9196642,0 38.6060183,8.68635412 38.6060183,19.3030092 C38.6060183,29.9196642 29.9196642,38.6060183 19.3030092,38.6060183 C8.68635412,38.6060183 0,29.9195317 0,19.3030092 C0,8.68648664 8.68635412,0 19.3030092,0 Z" id="Shape" fill="#DD4B39"></path>
                                <g transform="translate(7.288655, 11.661848)" id="Shape" fill="#FFFFFF">
                                    <polygon points="21.7864527 4.38366223 21.7864527 6.55528389 23.9579419 6.55528389 23.9579419 8.72690555 21.7864527 8.72690555 21.7864527 10.8985272 19.6148311 10.8985272 19.6148311 8.72690555 17.4432094 8.72690555 17.4432094 6.55528389 19.6148311 6.55528389 19.6148311 4.38366223"></polygon>
                                    <path d="M2.24212283,13.0700163 C-0.65332854,10.174565 -0.65332854,5.10749194 2.36271695,2.21217309 C4.53433861,0.0405514266 7.6709782,-0.441957542 10.4458355,0.643787028 L11.53158,1.24702263 L12.7380512,2.09157898 L10.8077503,4.02187989 L10.0839206,3.53937092 C8.39494044,2.45362635 5.98199803,2.69481458 4.41374449,4.26320064 C2.60403769,6.07290744 2.48344358,9.33027367 4.41374449,11.2605746 C6.2234513,13.1908755 9.48081753,13.1908755 11.1697977,11.2605746 C11.6523067,10.7780656 12.1349482,10.0541034 12.2555423,9.33027367 L12.2555423,9.08895293 L7.91243147,9.08895293 L7.91243147,6.67614304 L14.7890788,6.67614304 L14.9096729,7.27937864 L14.9096729,8.96835881 C14.7890788,10.5367449 14.1858432,12.1051309 13.0999661,13.1908755 C10.2046472,15.9654677 5.13757421,15.9654677 2.24212283,13.0700163 Z"></path>
                                </g>
                            </g>
                        </g>
                    </g>
                </g>
            </g>
        </g>
    </g>
</svg>