<?xml version="1.0" encoding="UTF-8" standalone="no"?>
<svg width="31px" height="30px" viewBox="0 0 31 30" version="1.1" xmlns="http://www.w3.org/2000/svg" xmlns:xlink="http://www.w3.org/1999/xlink" xmlns:sketch="http://www.bohemiancoding.com/sketch/ns">
    <!-- Generator: Sketch 3.2.2 (9983) - http://www.bohemiancoding.com/sketch -->
    <title>Youtube</title>
    <desc>Created with Sketch.</desc>
    <defs></defs>
    <g id="Welcome" stroke="none" stroke-width="1" fill="none" fill-rule="evenodd" sketch:type="MSPage">
        <g id="01_Desktop_Default" sketch:type="MSArtboardGroup" transform="translate(-624.000000, -2547.000000)">
            <g id="Footer" sketch:type="MSLayerGroup" transform="translate(0.000000, 2497.000000)">
                <g id="Social" transform="translate(544.000000, 50.000000)" sketch:type="MSShapeGroup">
                    <g id="Youtube" transform="translate(80.571429, 0.000000)">
                        <path d="M15,0 C6.71625,0 0,6.71625 0,15 C0,23.28375 6.71625,30 15,30 C23.28375,30 30,23.28375 30,15 C30,6.714375 23.28375,0 15,0 L15,0 Z" id="Shape" fill="#BA0000"></path>
                        <path d="M24.215625,18.358125 C24.114375,19.606875 23.165625,21.200625 21.84,21.43125 C17.595,21.76125 12.560625,21.72 8.161875,21.43125 C6.789375,21.25875 5.8875,19.605 5.78625,18.358125 C5.5725,15.736875 5.5725,14.244375 5.78625,11.623125 C5.8875,10.37625 6.811875,8.731875 8.161875,8.581875 C12.51,8.21625 17.570625,8.295 21.84,8.581875 C23.368125,8.638125 24.114375,10.21125 24.215625,11.46 C24.425625,14.08125 24.425625,15.736875 24.215625,18.358125 L24.215625,18.358125 Z" id="Path" fill="#FFFFFF"></path>
                        <path d="M13.125,18.75 L18.75,15 L13.125,11.25 L13.125,18.75 Z" id="Shape" fill="#BA0000"></path>
                    </g>
                </g>
            </g>
        </g>
    </g>
</svg>