<?xml version="1.0" encoding="UTF-8" standalone="no"?>
<svg width="30px" height="30px" viewBox="0 0 30 30" version="1.1" xmlns="http://www.w3.org/2000/svg" xmlns:xlink="http://www.w3.org/1999/xlink" xmlns:sketch="http://www.bohemiancoding.com/sketch/ns">
    <!-- Generator: Sketch 3.2.2 (9983) - http://www.bohemiancoding.com/sketch -->
    <title>Facebook</title>
    <desc>Created with Sketch.</desc>
    <defs></defs>
    <g id="Welcome" stroke="none" stroke-width="1" fill="none" fill-rule="evenodd" sketch:type="MSPage">
        <g id="01_Desktop_Default" sketch:type="MSArtboardGroup" transform="translate(-544.000000, -2547.000000)">
            <g id="Footer" sketch:type="MSLayerGroup" transform="translate(0.000000, 2497.000000)">
                <g id="Social" transform="translate(544.000000, 50.000000)" sketch:type="MSShapeGroup">
                    <g id="Facebook">
                        <path d="M15,0 C6.71625,0 0,6.71625 0,15 C0,23.28375 6.71625,30 15,30 C23.28375,30 30,23.28375 30,15 C30,6.714375 23.28375,0 15,0 L15,0 Z" id="Shape" fill="#3F5996"></path>
                        <path d="M19.2259821,14.998125 L16.7678571,15 L16.7659821,24 L13.3928571,24 L13.3928571,15 L11.1428571,15 L11.1428571,11.89875 L13.3928571,11.896875 L13.3891071,10.070625 C13.3891071,7.539375 14.0753571,6 17.0547321,6 L19.5372321,6 L19.5372321,9.103125 L17.9847321,9.103125 C16.8241071,9.103125 16.7678571,9.53625 16.7678571,10.344375 L16.7641071,11.896875 L19.5541071,11.896875 L19.2259821,14.998125 L19.2259821,14.998125 Z" id="Path" fill="#FFFFFF"></path>
                    </g>
                </g>
            </g>
        </g>
    </g>
</svg>