<?xml version="1.0" encoding="UTF-8"?>
<svg width="39px" height="39px" viewBox="0 0 39 39" version="1.1" xmlns="http://www.w3.org/2000/svg" xmlns:xlink="http://www.w3.org/1999/xlink">
    <!-- Generator: Sketch 42 (36781) - http://www.bohemiancoding.com/sketch -->
    <title>facebook</title>
    <desc>Created with Sketch.</desc>
    <defs></defs>
    <g id="Page-1" stroke="none" stroke-width="1" fill="none" fill-rule="evenodd">
        <g id="Arrive-on-Page" transform="translate(-617.000000, -2802.000000)">
            <g id="FOOTER" transform="translate(0.000000, 2756.000000)">
                <g id="Social-Icons" transform="translate(617.000000, 46.000000)">
                    <g id="facebook">
                        <g id="Capa_1">
                            <g id="Group">
                                <ellipse id="Oval" fill="#3B5998" cx="19.210404" cy="19.210404" rx="19.210404" ry="19.210404"></ellipse>
                                <path d="M24.0398868,19.9624102 L20.6120258,19.9624102 L20.6120258,32.5205038 L15.4185254,32.5205038 L15.4185254,19.9624102 L12.9484793,19.9624102 L12.9484793,15.5489964 L15.4185254,15.5489964 L15.4185254,12.6930164 C15.4185254,10.6506824 16.3886683,7.45260118 20.6582557,7.45260118 L24.5052677,7.46869603 L24.5052677,11.7526661 L21.7140095,11.7526661 C21.2561623,11.7526661 20.6123683,11.9814185 20.6123683,12.9556707 L20.6123683,15.5531058 L24.4936246,15.5531058 L24.0398868,19.9624102 Z" id="Shape" fill="#FFFFFF"></path>
                            </g>
                        </g>
                    </g>
                </g>
            </g>
        </g>
    </g>
</svg>