<?xml version="1.0" encoding="UTF-8"?>
<svg width="40px" height="39px" viewBox="0 0 40 39" version="1.1" xmlns="http://www.w3.org/2000/svg" xmlns:xlink="http://www.w3.org/1999/xlink">
    <!-- Generator: Sketch 42 (36781) - http://www.bohemiancoding.com/sketch -->
    <title>youtube</title>
    <desc>Created with Sketch.</desc>
    <defs></defs>
    <g id="Page-1" stroke="none" stroke-width="1" fill="none" fill-rule="evenodd">
        <g id="Arrive-on-Page" transform="translate(-728.000000, -2802.000000)">
            <g id="FOOTER" transform="translate(0.000000, 2756.000000)">
                <g id="Social-Icons" transform="translate(617.000000, 46.000000)">
                    <g id="youtube" transform="translate(111.535912, 0.000000)">
                        <g id="Layer_1">
                            <ellipse id="Oval" fill="#D22215" cx="19.3480663" cy="19.3480663" rx="19.3480663" ry="19.3480663"></ellipse>
                            <path d="M25.8212793,11.513082 L12.8748533,11.513082 C10.334815,11.513082 8.27575747,13.572215 8.27575747,16.1121778 L8.27575747,22.584106 C8.27575747,25.1241443 10.3348905,27.1832018 12.8748533,27.1832018 L25.8212793,27.1832018 C28.3613176,27.1832018 30.4203751,25.1240687 30.4203751,22.584106 L30.4203751,16.1121778 C30.4203751,13.572215 28.3612421,11.513082 25.8212793,11.513082 L25.8212793,11.513082 Z M22.7108509,19.6630014 L16.6555108,22.5510026 C16.4940754,22.628017 16.3076235,22.5104926 16.3076235,22.3317497 L16.3076235,16.375115 C16.3076235,16.1937269 16.498988,16.0762025 16.6605745,16.158205 L22.7159147,19.226763 C22.8962447,19.3179861 22.8929948,19.5762374 22.7108509,19.6630014 L22.7108509,19.6630014 Z" id="Shape" fill="#FFFFFF"></path>
                        </g>
                    </g>
                </g>
            </g>
        </g>
    </g>
</svg>