<?xml version="1.0" standalone="no"?>
<!DOCTYPE svg PUBLIC "-//W3C//DTD SVG 1.1//EN" "http://www.w3.org/Graphics/SVG/1.1/DTD/svg11.dtd" >
<svg xmlns="http://www.w3.org/2000/svg">
<metadata></metadata>
<defs>
<font id="effra_mediumregular" horiz-adv-x="1116" >
<font-face units-per-em="2048" ascent="1638" descent="-410" />
<missing-glyph horiz-adv-x="370" />
<glyph unicode="&#xfb01;" horiz-adv-x="1157" d="M27 764v197h163v10q0 125 40 208t106.5 133t154 70.5t183.5 20.5q37 0 83 -6t95 -18.5t99 -32t93 -46.5l-100 -182q-47 29 -123 53.5t-149 24.5q-127 0 -184.5 -43t-57.5 -141v-51h598v-961h-242v764h-354v-764h-242v764h-163z" />
<glyph unicode="&#xfb02;" horiz-adv-x="1167" d="M27 764v197h163v28q0 119 36 198t98.5 127t145.5 68.5t175 20.5q74 0 141.5 -12.5t121 -30t90 -34.5t51.5 -26v-1300h-242v1171q-27 10 -75 17.5t-91 7.5q-119 0 -165 -45t-46 -158v-32h248v-197h-246v-764h-242v764h-163z" />
<glyph unicode="&#xfb03;" horiz-adv-x="1794" d="M27 764v197h163v51q0 121 37 196.5t91.5 118.5t114 59.5t106.5 16.5q66 0 136 -20.5t142 -79.5l-112 -160q-29 23 -64 37t-68 14q-70 0 -106.5 -45t-36.5 -125v-63h397v10q0 125 39 208t104.5 133t150.5 70.5t175 20.5q86 0 191.5 -24.5t193.5 -78.5l-100 -182 q-47 29 -123 53.5t-149 24.5q-127 0 -184.5 -47t-57.5 -168v-20h598v-961h-242v764h-354v-764h-242v764h-395v-764h-242v764h-163z" />
<glyph unicode="&#xfb04;" horiz-adv-x="1804" d="M27 764v197h163v51q0 121 37 196.5t91.5 118.5t114 59.5t106.5 16.5q66 0 136 -20.5t142 -79.5l-112 -160q-29 23 -64 37t-68 14q-70 0 -106.5 -45t-36.5 -125v-63h397v28q0 119 36 198t98.5 127t145.5 68.5t175 20.5q74 0 141.5 -12.5t120.5 -30t90 -34.5t52 -26v-1300 h-242v1171q-27 10 -75 17.5t-91 7.5q-119 0 -165 -45t-46 -158v-32h248v-197h-246v-764h-242v764h-395v-764h-242v764h-163z" />
<glyph horiz-adv-x="2048" />
<glyph horiz-adv-x="2048" />
<glyph unicode="&#xd;" horiz-adv-x="358" />
<glyph unicode=" "  horiz-adv-x="370" />
<glyph unicode="&#x09;" horiz-adv-x="370" />
<glyph unicode="&#xa0;" horiz-adv-x="370" />
<glyph unicode="!" horiz-adv-x="571" d="M139 0v283h293v-283h-293zM152 1366h268l-4 -938h-260z" />
<glyph unicode="&#x22;" horiz-adv-x="794" d="M109 891v475h229v-475h-229zM457 891v475h229v-475h-229z" />
<glyph unicode="#" horiz-adv-x="1525" d="M139 309v191h242l78 291h-195v190h246l82 307h217l-82 -307h252l82 307h217l-82 -307h190v-190h-241l-78 -291h195v-191h-246l-82 -309h-217l82 309h-252l-82 -309h-217l82 309h-191zM598 500h252l78 291h-252z" />
<glyph unicode="$" d="M27 213l172 158q23 -25 51.5 -53.5t65 -55t79.5 -47t97 -29.5v377q-10 4 -17.5 4t-17.5 4q-98 27 -167 66t-112 86t-62.5 103.5t-19.5 119.5q0 68 23.5 129.5t73 109.5t124 79.5t175.5 40.5v188h153v-188q86 -10 147.5 -35t103.5 -52.5t66.5 -54t36.5 -39.5l-170 -153 q-16 18 -61 58t-123 61v-336q76 -18 147.5 -48t125 -78t86 -117t32.5 -161q0 -76 -28.5 -140.5t-81 -112.5t-124 -79.5t-157.5 -44.5v-190h-153v186q-88 8 -161 34t-131.5 60.5t-101.5 73.5t-71 76zM328 946q0 -59 34.5 -94t129.5 -64v310q-90 -12 -127 -54.5t-37 -97.5z M645 190q82 14 119 55.5t37 110.5q0 53 -31 92t-125 72v-330z" />
<glyph unicode="%" horiz-adv-x="1894" d="M104 954q0 184 92 277.5t234 93.5q141 0 233 -93t92 -278q0 -184 -92 -277t-233 -93t-233.5 93t-92.5 277zM305 954q0 -59 11 -99t28.5 -64.5t40 -35t45.5 -10.5t45 10.5t39.5 35t29 64.5t11.5 99t-11.5 99.5t-29 65t-40 34.5t-44.5 10q-23 0 -45.5 -10t-40 -34.5 t-28.5 -64.5t-11 -100zM415 0l832 1290h219l-831 -1290h-220zM1139 352q0 184 92 277.5t234 93.5q141 0 233 -93t92 -278q0 -184 -92 -277t-233 -93t-233.5 93t-92.5 277zM1340 352q0 -59 11 -99t28.5 -64.5t40 -35t45.5 -10.5t45 10.5t39.5 35t29 64.5t11.5 99t-11.5 99.5 t-29 65t-40 34.5t-44.5 10q-23 0 -45.5 -10t-40 -34.5t-28.5 -64.5t-11 -100z" />
<glyph unicode="&#x26;" horiz-adv-x="1316" d="M55 358q0 115 59.5 220.5t209.5 212.5l-5 6q-53 63 -76.5 129.5t-23.5 136.5q0 68 25.5 129t76 108.5t123 75t166.5 27.5q88 0 149.5 -23.5t104.5 -58.5t70 -75t43 -72l-180 -115q-51 84 -92 108.5t-80 24.5q-72 0 -111 -37t-39 -92q0 -47 24.5 -91t61.5 -85l328 -398 l176 216l180 -146l-207 -252l256 -307h-311l-104 125q-66 -68 -156 -113t-223 -45q-111 0 -195 32t-139 85t-83 125t-28 149zM307 373q0 -78 50.5 -128t154.5 -50q74 0 125 30.5t94 77.5l-268 320q-92 -70 -124 -126.5t-32 -123.5z" />
<glyph unicode="'" horiz-adv-x="446" d="M109 891v475h229v-475h-229z" />
<glyph unicode="(" horiz-adv-x="608" d="M119 627q0 152 21.5 280.5t51 233t63.5 181.5t58 124h238q-35 -59 -66.5 -147.5t-56.5 -196t-39 -229t-14 -246.5t14 -246t39 -228.5t56.5 -196.5t66.5 -146h-238q-25 47 -58.5 123.5t-63 180t-51 232.5t-21.5 281z" />
<glyph unicode=")" horiz-adv-x="608" d="M57 -190q33 57 65 146t56.5 196.5t39.5 228.5t15 246t-15 246.5t-39.5 229t-56.5 195.5t-65 148h238q25 -47 58.5 -124t63 -181.5t51 -233.5t21.5 -280q0 -152 -21.5 -281t-51 -232.5t-63.5 -180t-58 -123.5h-238z" />
<glyph unicode="*" horiz-adv-x="1026" d="M119 942l227 119l-227 119l94 163l217 -137l-10 256h188l-8 -256l213 137l94 -163l-223 -119l223 -119l-94 -164l-213 137l8 -256h-188l10 256l-217 -137z" />
<glyph unicode="+" d="M152 557v203h305v301h205v-301h305v-203h-305v-299h-205v299h-305z" />
<glyph unicode="," horiz-adv-x="571" d="M135 -293l129 293h-104v285h293v-281l-174 -297h-144z" />
<glyph unicode="-" horiz-adv-x="903" d="M139 457v229h625v-229h-625z" />
<glyph unicode="." horiz-adv-x="571" d="M139 0v283h293v-283h-293z" />
<glyph unicode="/" horiz-adv-x="872" d="M47 -33l545 1436h233l-538 -1436h-240z" />
<glyph unicode="0" d="M53 662q0 150 32 272.5t95.5 209.5t158.5 135t220 48t219 -48t157.5 -135t95.5 -210t32 -272q0 -154 -32 -282t-95.5 -219t-158.5 -142.5t-220 -51.5t-219 51.5t-157.5 142.5t-95.5 219t-32 282zM301 662q0 -100 16.5 -186.5t49 -150t81 -100.5t111.5 -37t111.5 37 t80 100.5t48 149.5t16.5 187q0 96 -16.5 178t-49 140t-80.5 91t-112 33q-63 0 -111.5 -33t-80 -91t-48 -140t-16.5 -178z" />
<glyph unicode="1" d="M141 1083l379 207h211v-1079h213v-211h-676v211h221v815l-247 -131z" />
<glyph unicode="2" d="M88 1090q25 41 61.5 82.5t90 76.5t125 56.5t163.5 21.5q111 0 191 -29.5t131 -79t75.5 -112t24.5 -127.5q0 -70 -22.5 -129t-59.5 -110.5t-84 -96.5t-96 -86q-59 -49 -111.5 -90t-91.5 -80t-61.5 -79t-22.5 -89h557v-219h-829v162q0 88 29.5 159.5t77 132t104.5 111.5 t115 101q57 49 101 83.5t75 66.5t46 64.5t15 75.5q0 27 -9 55.5t-30.5 50t-56.5 36t-88 14.5q-47 0 -85 -14.5t-67.5 -37t-51 -49t-36.5 -50.5z" />
<glyph unicode="3" d="M43 113l139 170q55 -49 122 -79t153 -30q111 0 176 60.5t65 158.5q0 43 -11 81t-37.5 65.5t-69.5 44t-105 16.5q-29 0 -59.5 -6t-55.5 -12l-71 114l329 371h-483v221h772v-184l-286 -336q172 -20 252.5 -122.5t80.5 -254.5q0 -100 -37.5 -180t-105.5 -135.5t-158 -84 t-194 -28.5q-139 0 -241.5 42t-174.5 108z" />
<glyph unicode="4" d="M82 248v203l563 839h242v-837h133v-205h-133v-248h-232v248h-573zM315 453h340v497z" />
<glyph unicode="5" d="M49 111l135 174q55 -49 119 -78t162 -29q66 0 112 19.5t75.5 53.5t43 77t13.5 90q0 31 -11.5 68.5t-40 70.5t-79 55.5t-125.5 22.5q-70 0 -111 -13.5t-76 -25.5l-123 94l129 598h670v-225h-496l-51 -248q14 6 49 12.5t84 6.5q94 0 173 -29t136.5 -81t89 -128t31.5 -168 q0 -90 -26.5 -174t-87 -148.5t-157.5 -103.5t-236 -39q-137 0 -233.5 41t-168.5 107z" />
<glyph unicode="6" d="M115 598q0 160 36.5 294t108.5 231.5t178.5 150.5t247.5 53q57 0 106.5 -9t91.5 -22.5t73.5 -28t52.5 -26.5l-105 -190q-27 16 -61 30q-29 12 -70 22.5t-90 10.5q-74 0 -133 -31.5t-102 -84t-67 -118t-24 -135.5q45 27 108.5 59t162.5 32q88 0 162.5 -29t127 -83t82 -132 t29.5 -178q0 -90 -28.5 -172t-84 -143.5t-138.5 -98.5t-189 -37q-102 0 -189.5 37t-151 115t-99 197.5t-35.5 285.5zM356 551q0 -109 18.5 -181.5t50.5 -115.5t75 -61.5t90 -18.5q96 0 154.5 68.5t58.5 179.5q0 94 -54.5 150.5t-142.5 56.5q-92 0 -152.5 -26.5t-97.5 -51.5z " />
<glyph unicode="7" d="M133 1063v227h836v-217q-27 -43 -65 -116.5t-81 -167t-87 -199t-85 -211t-74.5 -203.5t-54.5 -176h-262q43 137 104.5 296t127 307.5t127 271t102.5 188.5h-588z" />
<glyph unicode="8" d="M74 362q0 125 65 215.5t174 137.5q-63 37 -112 109.5t-49 160.5q0 76 29.5 139.5t82.5 108.5t128 69.5t167 24.5q100 0 176 -24.5t127 -68.5t78 -105.5t27 -133.5q0 -96 -51.5 -166.5t-116.5 -105.5q117 -49 181 -140t64 -216q0 -66 -26.5 -136.5t-85 -129t-150.5 -96.5 t-223 -38q-133 0 -225 37t-150.5 94.5t-84 128t-25.5 135.5zM319 369q0 -55 21.5 -93t56.5 -63t78 -36t84 -11t84 11t78 36t56.5 62.5t21.5 93.5q0 43 -20.5 81.5t-54.5 68.5t-78 51.5t-91 31.5q-47 -10 -90 -31.5t-75 -51.5t-51.5 -68.5t-19.5 -81.5zM379 985 q0 -53 49 -107t131 -77q82 23 131 77t49 113q0 68 -50 112t-130 44q-76 0 -128 -45t-52 -117z" />
<glyph unicode="9" d="M84 877q0 90 29.5 171.5t87 143t140.5 98.5t191 37q102 0 189.5 -37t151 -114.5t99.5 -197.5t36 -286q0 -158 -33 -290t-100.5 -229t-170 -151.5t-243.5 -54.5q-57 0 -110.5 9.5t-98.5 22.5t-81 27.5t-56 26.5l98 195q35 -20 76 -35q35 -12 81 -22.5t95 -10.5 q74 0 128 30t92 80t57.5 114.5t21.5 134.5q-33 -27 -97.5 -57.5t-179.5 -30.5q-90 0 -163.5 33.5t-127 92t-83 135t-29.5 165.5zM311 874q0 -90 56.5 -149t152.5 -59q100 0 154.5 24t91.5 49q0 109 -18.5 181.5t-50 115.5t-74.5 61.5t-91 18.5q-96 0 -158.5 -65.5 t-62.5 -176.5z" />
<glyph unicode=":" horiz-adv-x="571" d="M139 0v283h293v-283h-293zM139 678v283h293v-283h-293z" />
<glyph unicode=";" horiz-adv-x="595" d="M139 -293l129 293h-104v285h293v-281l-174 -297h-144zM164 678v283h293v-283h-293z" />
<glyph unicode="&#x3c;" d="M145 584v147l732 395l88 -174l-547 -295l547 -295l-88 -174z" />
<glyph unicode="=" d="M152 383v203h815v-203h-815zM152 727v203h815v-203h-815z" />
<glyph unicode="&#x3e;" d="M152 362l546 295l-546 295l88 174l731 -395v-147l-731 -396z" />
<glyph unicode="?" horiz-adv-x="1048" d="M78 1200q10 14 41 47t84 67t132 60.5t183 26.5q100 0 178 -29t132.5 -78t83 -113.5t28.5 -133.5q0 -115 -45 -187t-135 -137q-45 -33 -78 -57.5t-54.5 -52t-31.5 -60.5t-10 -80v-45h-246v45q0 39 5 83t21.5 90t50.5 91t93 86q33 23 65.5 47.5t59.5 51t43 55.5t16 63 q0 61 -47 101.5t-131 40.5q-55 0 -102 -16.5t-83 -37t-59.5 -42t-33.5 -29.5zM317 0v283h293v-283h-293z" />
<glyph unicode="@" horiz-adv-x="1961" d="M88 565q0 215 76 374t202 262.5t286.5 154.5t332.5 51q186 0 349 -49t283 -148.5t188.5 -250t68.5 -355.5q0 -188 -47 -312t-114.5 -195.5t-145.5 -100.5t-140 -29q-70 0 -127 29t-83 94q-43 -39 -84 -62.5t-83 -37t-88.5 -18.5t-101.5 -5q-45 0 -99 18.5t-101.5 57.5 t-79 98.5t-31.5 139.5q0 82 30.5 146.5t86 108.5t133.5 66.5t172 22.5q29 0 63.5 -1t67.5 -3q37 -2 76 -5v23q0 72 -54.5 113t-140.5 41q-111 0 -174.5 -27t-110.5 -57l-110 163q33 25 69.5 46.5t86 38t114 26.5t154.5 10q88 0 161.5 -25.5t126 -71.5t81 -110.5t28.5 -140.5 v-401q0 -31 17.5 -50.5t46.5 -19.5q27 0 59.5 22.5t60 74t47 136.5t19.5 207q0 162 -58.5 277t-154.5 186.5t-219 104t-252 32.5q-109 0 -226.5 -33.5t-214 -108.5t-159 -194.5t-62.5 -293.5q0 -98 20.5 -176t51.5 -136.5t65.5 -99.5t63.5 -63l-141 -146q-47 33 -97.5 89.5 t-92.5 133t-68.5 172t-26.5 207.5zM774 291q0 -61 47 -96t133 -35q43 0 83 14t71 39t50.5 57.5t19.5 69.5v94q-37 2 -72 4q-29 2 -60.5 3t-54.5 1q-109 0 -163 -46t-54 -105z" />
<glyph unicode="A" horiz-adv-x="1323" d="M10 0l518 1366h267l518 -1366h-287l-119 346h-508l-118 -346h-271zM471 559h363l-181 531z" />
<glyph unicode="B" horiz-adv-x="1220" d="M143 0v1366h469q109 0 192 -27.5t138 -76t84 -113t29 -139.5q0 -72 -27 -125.5t-62.5 -89t-71.5 -53t-56 -17.5q37 -4 86 -22.5t93 -57.5t74.5 -101.5t30.5 -152.5q0 -111 -39 -185.5t-107.5 -120.5t-161.5 -65.5t-202 -19.5h-469zM391 219h219q37 0 81 5t83 24.5 t65.5 57.5t26.5 104q0 61 -25.5 99t-63.5 59.5t-83 29.5t-84 8h-219v-387zM391 821h209q39 0 76 8.5t66.5 29t47 51t17.5 77.5t-18.5 78t-48 49.5t-66.5 25.5t-74 7h-209v-326z" />
<glyph unicode="C" horiz-adv-x="1392" d="M90 676q0 150 51.5 280.5t144.5 229t222 156t285 57.5q100 0 184 -21.5t152.5 -58.5t122 -87t94.5 -108l-183 -161q-66 94 -152.5 151t-217.5 57q-100 0 -180.5 -39.5t-136.5 -106.5t-86 -156t-30 -187t30 -184t85 -149.5t132 -100.5t173 -37q88 0 150.5 20.5t106.5 51 t74 64.5t54 59l181 -156q-31 -47 -85.5 -96.5t-128 -91.5t-161.5 -68.5t-187 -26.5q-154 0 -280.5 53.5t-218.5 148.5t-143.5 224t-51.5 283z" />
<glyph unicode="D" horiz-adv-x="1486" d="M143 0v1366h510q160 0 293 -41t229.5 -125t149.5 -215t53 -309q0 -170 -54 -296t-151.5 -211t-230.5 -127t-291 -42h-508zM401 229h228q233 0 356 113t123 330q0 215 -113.5 340t-365.5 125h-228v-908z" />
<glyph unicode="E" horiz-adv-x="1163" d="M143 0v1366h885v-227h-627v-322h461v-229h-461v-357h674v-231h-932z" />
<glyph unicode="F" horiz-adv-x="1093" d="M143 0v1366h883v-227h-625v-355h467v-229h-467v-555h-258z" />
<glyph unicode="G" horiz-adv-x="1480" d="M90 676q0 150 51.5 280.5t144.5 229t222 156t285 57.5q100 0 184 -21.5t152.5 -58.5t122 -87t94.5 -108l-183 -161q-66 94 -152.5 151t-217.5 57q-100 0 -180.5 -39.5t-136.5 -106.5t-86 -156t-30 -187q0 -111 36 -199t98.5 -151.5t145.5 -97t175 -33.5q188 0 291 90v213 h-244v219h490v-565q-80 -76 -211 -133.5t-336 -57.5q-168 0 -300 55.5t-224.5 150.5t-141.5 224t-49 279z" />
<glyph unicode="H" horiz-adv-x="1480" d="M143 0v1366h258v-549h678v549h258v-1366h-258v588h-678v-588h-258z" />
<glyph unicode="I" horiz-adv-x="544" d="M143 0v1366h258v-1366h-258z" />
<glyph unicode="J" horiz-adv-x="1040" d="M20 158l181 164q66 -72 121 -95.5t127 -23.5q37 0 72.5 13t64 40t46 66.5t17.5 93.5v950h258v-965q0 -123 -40 -206.5t-103.5 -135t-143 -74t-159.5 -22.5q-160 0 -263.5 50t-177.5 145z" />
<glyph unicode="K" horiz-adv-x="1271" d="M143 0v1366h258v-561l506 561h293l-504 -559l559 -807h-311l-416 621l-127 -142v-479h-258z" />
<glyph unicode="L" horiz-adv-x="1132" d="M143 0v1366h258v-1137h674v-229h-932z" />
<glyph unicode="M" horiz-adv-x="1615" d="M127 0l66 1366h239l379 -645l373 645h239l66 -1366h-252l-45 946l-328 -557h-121l-329 543l-45 -932h-242z" />
<glyph unicode="N" horiz-adv-x="1460" d="M143 0v1366h260l662 -971v971h252v-1366h-254l-668 983v-983h-252z" />
<glyph unicode="O" horiz-adv-x="1601" d="M90 684q0 150 55.5 281t150.5 228t225 153.5t280 56.5t278.5 -56.5t225 -153.5t151.5 -228t55 -281t-55 -281t-151.5 -229t-225 -154.5t-278.5 -56.5t-279 56.5t-225 154.5t-151.5 229.5t-55.5 280.5zM360 690q0 -96 31 -184t88.5 -154.5t138.5 -105.5t183 -39 q100 0 182 39t139.5 105.5t88 154.5t30.5 184q0 98 -30.5 185.5t-88 153t-139.5 103t-182 37.5q-102 0 -183 -37.5t-138.5 -103t-88.5 -153t-31 -185.5z" />
<glyph unicode="P" horiz-adv-x="1142" d="M143 0v1366h439q143 0 234 -44t144.5 -108.5t74 -138.5t20.5 -135q0 -115 -41 -196.5t-106.5 -134t-147.5 -77t-162 -24.5h-207v-508h-248zM391 725h187q98 0 156.5 57.5t58.5 149.5q0 96 -61.5 156.5t-153.5 60.5h-187v-424z" />
<glyph unicode="Q" horiz-adv-x="1601" d="M90 684q0 150 55.5 281t150.5 228t225 153.5t280 56.5t278.5 -56.5t225 -153.5t151.5 -228t55 -281q0 -158 -60 -293t-165 -235l154 -197l-154 -129l-164 209q-72 -35 -153.5 -55.5t-167.5 -20.5q-150 0 -279 56.5t-225 154.5t-151.5 229.5t-55.5 280.5zM360 690 q0 -96 31 -184t88.5 -154.5t138 -105.5t183.5 -39q88 0 166 31l-156 200l154 129l161 -209q55 66 85 151t30 181q0 98 -30.5 185.5t-88 153t-139.5 103t-182 37.5q-102 0 -183 -37.5t-138.5 -103t-88.5 -153t-31 -185.5z" />
<glyph unicode="R" horiz-adv-x="1200" d="M143 0v1366h453q129 0 219 -39t145.5 -99.5t81 -132t25.5 -137.5q0 -129 -56.5 -228t-172.5 -159l315 -571h-291l-276 539h-195v-539h-248zM391 752h207q98 0 152.5 57t54.5 139q0 88 -57.5 143.5t-149.5 55.5h-207v-395z" />
<glyph unicode="S" horiz-adv-x="1214" d="M63 219l181 166q25 -29 58.5 -60.5t75.5 -59t94 -46t118 -18.5q121 0 179 55t58 133q0 43 -16 77t-55 59.5t-101.5 46t-154.5 38.5q-94 18 -163 57.5t-114 92.5t-67.5 117.5t-22.5 132.5q0 78 28.5 148.5t88 124.5t148.5 87t210 33q109 0 186.5 -24.5t130 -57.5t81 -64.5 t41.5 -46.5l-170 -159q-10 8 -33 29.5t-56.5 42t-81 37t-106.5 16.5q-53 0 -92 -14.5t-64.5 -37t-38 -50t-12.5 -52.5q0 -37 13.5 -65.5t45 -53t87 -44t139.5 -36.5q80 -16 153.5 -49t130 -85t90 -127t33.5 -179q0 -90 -36.5 -166t-102 -133t-156 -89t-196.5 -32 q-102 0 -185 24.5t-149.5 62.5t-115 83t-81.5 86z" />
<glyph unicode="T" horiz-adv-x="1277" d="M47 1139v227h1184v-227h-463v-1139h-258v1139h-463z" />
<glyph unicode="U" horiz-adv-x="1380" d="M133 504v862h258v-817q0 -78 15.5 -140.5t50.5 -106.5t92 -67.5t141 -23.5t141.5 23.5t92 67.5t50 106.5t15.5 140.5v817h258v-862q0 -115 -36.5 -213t-108.5 -171t-175.5 -115t-236.5 -42t-236.5 42t-175 115t-108.5 171t-37 213z" />
<glyph unicode="V" horiz-adv-x="1302" d="M10 1366h287l362 -1042l363 1042h270l-508 -1366h-266z" />
<glyph unicode="W" horiz-adv-x="1802" d="M20 1366h283l223 -1022l265 983h233l266 -983l221 1022h271l-359 -1366h-270l-254 903l-258 -903h-266z" />
<glyph unicode="X" horiz-adv-x="1239" d="M10 0l455 707l-436 659h311l285 -446l274 446h281l-420 -653l469 -713h-311l-316 498l-311 -498h-281z" />
<glyph unicode="Y" horiz-adv-x="1228" d="M10 1366h283l328 -545l327 545h271l-474 -766v-600h-262v600z" />
<glyph unicode="Z" horiz-adv-x="1347" d="M109 0v225l804 914h-768v227h1078v-227l-789 -914h805v-225h-1130z" />
<glyph unicode="[" horiz-adv-x="675" d="M150 -190v1636h479v-215h-238v-1202h238v-219h-479z" />
<glyph unicode="\" horiz-adv-x="872" d="M47 1403h234l544 -1436h-239z" />
<glyph unicode="]" horiz-adv-x="675" d="M47 29h238v1202h-238v215h479v-1636h-479v219z" />
<glyph unicode="^" horiz-adv-x="1150" d="M109 631l354 735h225l354 -735h-239l-228 502l-227 -502h-239z" />
<glyph unicode="_" horiz-adv-x="1024" d="M0 -133h1024v-113h-1024v113z" />
<glyph unicode="`" horiz-adv-x="1028" d="M295 1397h258l98 -291h-194z" />
<glyph unicode="a" horiz-adv-x="1032" d="M57 281q0 82 31 146.5t86 108.5t133 66.5t172 22.5q29 0 64 -1t67 -3q37 -2 76 -5v23q0 72 -57.5 113t-149.5 41q-102 0 -163.5 -27t-108.5 -57l-111 163q29 20 66 42t86 39.5t113.5 28.5t150.5 11q92 0 167 -25.5t128 -71.5t82 -110.5t29 -140.5v-645h-226l-6 90 q-39 -47 -119 -84t-178 -37q-59 0 -117.5 18.5t-106.5 56.5t-78 97.5t-30 139.5zM289 291q0 -61 44 -96t130 -35q43 0 83 14t70.5 39t50 57.5t19.5 69.5v94q-37 2 -72 4q-29 2 -60.5 3t-53.5 1q-117 0 -164 -46t-47 -105z" />
<glyph unicode="b" horiz-adv-x="1136" d="M119 31v1335h241v-471q25 25 94.5 55.5t168.5 30.5q104 0 185 -39t138.5 -104.5t87 -155.5t29.5 -190q0 -109 -38 -204t-108.5 -166t-171 -113t-225.5 -42t-230.5 20.5t-170.5 43.5zM360 197q29 -10 60 -15.5t96 -5.5q74 0 129 25.5t94 68.5t58.5 99.5t19.5 115.5 q0 55 -13 106.5t-42 91.5t-73 63.5t-105 23.5q-111 0 -167.5 -56.5t-56.5 -154.5v-362z" />
<glyph unicode="c" horiz-adv-x="1007" d="M74 481q0 104 38 197.5t105.5 163t162.5 110.5t210 41q117 0 213 -42t164 -113l-154 -156q-41 47 -96 73.5t-127 26.5q-70 0 -121 -25.5t-85 -66.5t-50.5 -96t-16.5 -113q0 -55 16.5 -108.5t50.5 -96.5t85 -69.5t121 -26.5q72 0 131 28t100 75l144 -156 q-68 -72 -160 -115t-215 -43t-219.5 37t-162 104.5t-100 162t-34.5 208.5z" />
<glyph unicode="d" horiz-adv-x="1140" d="M74 463q0 113 32.5 197.5t81.5 144.5q41 49 90.5 82t99.5 54.5t97 30.5t82 9q47 0 78 -3t55.5 -8t45 -13.5t46.5 -18.5v428h240v-1366h-234l-6 94q-18 -20 -44.5 -42.5t-62.5 -41t-80 -31t-99 -12.5q-78 0 -154 33t-135.5 96.5t-96 155.5t-36.5 211zM317 463 q0 -123 61.5 -205t178.5 -82q61 0 104.5 23.5t70 60.5t38.5 81t12 85v295q-35 29 -81 40t-117 11q-72 0 -119 -27.5t-82 -72.5q-31 -41 -48.5 -95.5t-17.5 -113.5z" />
<glyph unicode="e" horiz-adv-x="1101" d="M74 492q0 106 35.5 197t100 158.5t154 106.5t197.5 39q131 0 222 -48t146.5 -126t80 -176t24.5 -201v-34h-717q0 -53 24 -96.5t61.5 -74t86 -47t95.5 -16.5q70 0 122 13.5t88.5 31t60.5 36.5t36 32l131 -148l-33.5 -33.5t-80 -58.5t-133.5 -55.5t-193 -24.5 q-115 0 -209 39t-161 107.5t-102.5 165t-35.5 213.5zM315 582h471q0 37 -14 73.5t-42 66.5t-71 49.5t-98 19.5q-59 0 -105 -19.5t-77 -49.5t-47.5 -67t-16.5 -73z" />
<glyph unicode="f" horiz-adv-x="696" d="M27 764v197h163v59q0 104 33 177t84 119t114.5 66.5t125.5 20.5q66 0 145.5 -18.5t153.5 -81.5l-113 -160q-33 23 -70.5 37t-76.5 14q-72 0 -114 -46t-42 -132v-55h248v-197h-246v-764h-242v764h-163z" />
<glyph unicode="g" horiz-adv-x="1136" d="M74 467q0 106 38 200.5t108.5 164t171 109.5t224.5 40q125 0 230.5 -20.5t171.5 -42.5v-934q0 -100 -35 -178t-96.5 -131.5t-145.5 -81t-182 -27.5q-76 0 -134 7t-104.5 19.5t-84 31t-70.5 42.5l108 178q57 -39 124 -56t157 -17q94 0 157.5 57t63.5 160v104 q-49 -41 -107.5 -66.5t-154.5 -25.5q-104 0 -185 35t-138.5 97.5t-87 147.5t-29.5 187zM319 473q0 -111 55.5 -186.5t178.5 -75.5q111 0 167 47t56 150v344q-29 10 -59.5 15t-95.5 5q-74 0 -129.5 -24.5t-94.5 -65.5t-58.5 -95.5t-19.5 -113.5z" />
<glyph unicode="h" horiz-adv-x="1128" d="M119 0v1366h237v-504q37 41 108 80t181 39q88 0 157.5 -28.5t116 -81t71 -126t24.5 -161.5v-584h-242v582q0 92 -50 142t-130 50q-49 0 -92 -19.5t-74 -54t-48.5 -81t-17.5 -99.5v-520h-241z" />
<glyph unicode="i" horiz-adv-x="499" d="M121 1112v254h258v-254h-258zM129 0v961h242v-961h-242z" />
<glyph unicode="j" horiz-adv-x="499" d="M-178 -334l90 164q18 -10 45 -21.5t66 -11.5q47 0 76.5 39t29.5 115v1010h242v-963q0 -72 -11.5 -143.5t-45 -131t-95 -96.5t-164.5 -37q-86 0 -142 26t-91 50zM119 1112v254h258v-254h-258z" />
<glyph unicode="k" horiz-adv-x="1048" d="M119 0v1366h241v-745l347 340h284l-360 -355l401 -606h-289l-278 442l-105 -102v-340h-241z" />
<glyph unicode="l" horiz-adv-x="479" d="M119 0v1366h241v-1366h-241z" />
<glyph unicode="m" horiz-adv-x="1744" d="M119 0v961h231l6 -109q18 20 42 44t57.5 42t78 30.5t101.5 12.5q190 0 289 -139q74 76 150.5 107.5t178.5 31.5q182 0 279.5 -107.5t97.5 -289.5v-584h-241v582q0 92 -46.5 142t-125.5 50q-49 0 -90.5 -19.5t-71 -54t-45 -81t-15.5 -99.5v-520h-241v582q0 92 -46 142 t-126 50q-49 0 -90 -19.5t-71 -54t-45.5 -81t-15.5 -99.5v-520h-241z" />
<glyph unicode="n" horiz-adv-x="1128" d="M119 0v961h231l6 -109q18 20 44 43t62 42t81 31.5t102 12.5q180 0 274.5 -107.5t94.5 -289.5v-584h-242v582q0 92 -50 142t-130 50q-49 0 -92 -19.5t-74 -54t-48.5 -81t-17.5 -99.5v-520h-241z" />
<glyph unicode="o" horiz-adv-x="1179" d="M74 481q0 104 38 197.5t105.5 163t162.5 110.5t210 41t210 -41t162.5 -110.5t105.5 -162.5t38 -198q0 -104 -38 -197.5t-105.5 -164t-162.5 -111.5t-210 -41t-210 41t-162.5 111.5t-105.5 164t-38 197.5zM317 481q0 -53 16.5 -106t50.5 -98.5t85 -73t121 -27.5t121 27.5 t84.5 73t50 98.5t16.5 106q0 51 -16.5 105.5t-50 98.5t-85 71.5t-120.5 27.5q-70 0 -121 -27.5t-85 -71.5t-50.5 -98.5t-16.5 -105.5z" />
<glyph unicode="p" horiz-adv-x="1169" d="M119 -410v1371h233l6 -109q18 20 46 43t66 41t86 30.5t108 12.5q111 0 191.5 -43t133.5 -113.5t80 -161t27 -186.5q0 -113 -33 -192.5t-82 -139.5q-82 -98 -179 -137t-200 -39q-47 0 -81 4t-61.5 11.5t-51 16.5t-50.5 19v-428h-239zM358 236q72 -59 217 -60 q66 0 117 25.5t87 67.5t54.5 95.5t18.5 110.5q0 61 -13.5 114.5t-43 93.5t-76.5 63.5t-117 23.5q-55 0 -100 -23.5t-77 -60.5t-49.5 -81t-17.5 -85v-284z" />
<glyph unicode="q" horiz-adv-x="1136" d="M74 467q0 106 38 200.5t108.5 164t171 109.5t224.5 40q125 0 230.5 -20.5t171.5 -42.5v-1328h-242v465q-29 -29 -89 -58.5t-150 -29.5q-113 0 -199 40t-144.5 108.5t-89 159t-30.5 192.5zM319 473q0 -55 13.5 -108.5t42 -94.5t73 -66.5t105.5 -25.5q111 0 167 49t56 172 v353q-29 10 -59.5 15t-95.5 5q-80 0 -137.5 -23.5t-93.5 -63.5t-53.5 -95t-17.5 -117z" />
<glyph unicode="r" horiz-adv-x="782" d="M119 0v961h231l6 -121q16 20 42 44.5t61 45t81 35.5t105 14q35 0 62.5 -4t56.5 -14l-49 -228q-25 10 -50.5 14.5t-60.5 4.5q-49 0 -94 -16.5t-78 -47.5t-52.5 -74t-19.5 -96v-518h-241z" />
<glyph unicode="s" horiz-adv-x="978" d="M72 117l145 157q45 -45 113.5 -74.5t156.5 -29.5q78 0 125 20.5t47 67.5q0 20 -8 37.5t-34.5 34t-73.5 33t-127 34.5q-49 12 -102.5 33t-99.5 56.5t-75.5 86t-29.5 119.5q0 72 34.5 128.5t91 94t127 58t142.5 20.5q127 0 216 -26.5t161 -79.5l-125 -170 q-39 29 -102.5 52.5t-149.5 23.5t-120 -26t-34 -62q0 -45 56.5 -71t175.5 -54q74 -16 132 -41t100 -62t64.5 -87t22.5 -120t-32.5 -126t-89 -95t-131.5 -60.5t-159 -21.5q-135 0 -243.5 38t-173.5 112z" />
<glyph unicode="t" horiz-adv-x="823" d="M37 764v197h164v311h241v-311h258v-197h-258v-420q0 -82 28 -126t89 -44q57 0 91 16.5t65 38.5l102 -149q-72 -59 -141.5 -85t-155.5 -26q-88 0 -149.5 25.5t-99.5 73t-54 114t-16 146.5v436h-164z" />
<glyph unicode="u" horiz-adv-x="1128" d="M115 377v584h241v-582q0 -92 50.5 -142.5t130.5 -50.5q49 0 92 19.5t73.5 54.5t48 81t17.5 99v521h242v-961h-232l-6 109q-18 -20 -45 -43t-61.5 -42.5t-79.5 -31.5t-103 -12q-180 0 -274 107.5t-94 289.5z" />
<glyph unicode="v" horiz-adv-x="1079" d="M10 961h279l258 -689l258 689h264l-405 -961h-246z" />
<glyph unicode="w" horiz-adv-x="1533" d="M18 961h267l184 -668l203 668h202l205 -668l183 668h254l-326 -961h-234l-196 580l-191 -580h-225z" />
<glyph unicode="x" horiz-adv-x="1038" d="M10 0l365 485l-348 476h305l192 -279l195 279h272l-338 -451l375 -510h-305l-219 313l-221 -313h-273z" />
<glyph unicode="y" horiz-adv-x="1079" d="M10 961h279l274 -658l242 658h264l-401 -961q-29 -72 -57.5 -147.5t-70.5 -140t-103.5 -105.5t-155.5 -41q-82 0 -136.5 19.5t-95.5 54.5l109 170q20 -16 44.5 -32t61.5 -16q49 0 81 41t67 127l30 78z" />
<glyph unicode="z" horiz-adv-x="966" d="M94 0v184l490 574h-475v203h776v-189l-506 -575h506v-197h-791z" />
<glyph unicode="{" horiz-adv-x="622" d="M63 557v143q78 0 112 43t38 107l29 348q8 90 30.5 149.5t69.5 98.5h254q-37 -37 -65.5 -101.5t-32.5 -123.5l-33 -400q-6 -74 -46 -125t-97 -67q57 -16 97 -67.5t46 -125.5l33 -399q4 -59 32.5 -125t65.5 -102h-254q-47 39 -69.5 99t-30.5 150l-29 349q-4 63 -38 106 t-112 43z" />
<glyph unicode="|" horiz-adv-x="501" d="M139 -336v2042h223v-2042h-223z" />
<glyph unicode="}" horiz-adv-x="622" d="M27 -190q37 37 65.5 102t32.5 125l33 399q6 74 46 125t97 68q-57 16 -97 67.5t-46 124.5l-33 400q-4 59 -33 123.5t-65 101.5h254q47 -39 69.5 -98.5t30.5 -149.5l29 -348q4 -63 37.5 -106.5t111.5 -43.5v-143q-78 0 -111.5 -43t-37.5 -106l-29 -349q-8 -90 -30.5 -150.5 t-69.5 -98.5h-254z" />
<glyph unicode="~" horiz-adv-x="1021" d="M78 643q18 20 47 44t63.5 43.5t75.5 32.5t86 13q47 0 82 -14t66.5 -32.5t65.5 -33t79 -14.5q37 0 67.5 9t54 21.5t42 27t35.5 24.5l102 -156q-18 -20 -46 -44.5t-62.5 -45t-75.5 -34t-86 -13.5q-47 0 -82 15.5t-67.5 34t-66.5 33.5t-79 15q-76 0 -122 -29.5t-77 -52.5z " />
<glyph unicode="&#xa1;" horiz-adv-x="571" d="M139 678v283h293v-283h-293zM152 -406l4 938h260l4 -938h-268z" />
<glyph unicode="&#xa2;" d="M147 643q0 92 30 177t85 151.5t132 112.5t173 63v182h154v-178q98 -10 179 -49t140 -103l-153 -155q-33 37 -74 62.5t-92 35.5v-596q106 18 174 98l143 -155q-59 -66 -138 -106t-179 -50v-172h-154v176q-100 14 -178 58.5t-132 111t-82 152.5t-28 184zM391 643 q0 -39 11.5 -81t33 -81t54 -71.5t77.5 -51.5v570q-90 -35 -133 -117t-43 -168z" />
<glyph unicode="&#xa3;" d="M84 551v197h156v157q0 55 18 129t66.5 138.5t132.5 109.5t217 45q80 0 139 -16.5t103.5 -39t76 -50t54.5 -47.5l-158 -170q-23 23 -44.5 40t-45 29t-53 19.5t-68.5 7.5q-49 0 -84 -20.5t-56.5 -55.5t-30.5 -79t-9 -89v-108h397v-197h-397v-322h561v-229h-819v551h-156z " />
<glyph unicode="&#xa4;" d="M66 332l129 131q-57 96 -58 211q0 113 58 211l-129 131l141 141l129 -129q47 31 103.5 48.5t117.5 17.5q59 0 115.5 -17.5t105.5 -48.5l129 129l142 -141l-131 -131q29 -47 44 -100.5t15 -110.5q0 -59 -15.5 -111.5t-43.5 -99.5l131 -131l-142 -142l-129 127 q-102 -63 -221 -63q-123 0 -221 63l-129 -127zM334 674q0 -47 17.5 -87t48 -71t70.5 -48t87 -17q45 0 86 17t71.5 48t48 71t17.5 87q0 45 -17.5 86t-48 71.5t-71.5 48t-86 17.5q-47 0 -87 -17.5t-70.5 -48t-48 -71.5t-17.5 -86z" />
<glyph unicode="&#xa5;" d="M12 1292h283l270 -544l269 544h270l-338 -594h221v-151h-305v-158h305v-151h-305v-238h-246v238h-284v151h284v158h-284v151h198z" />
<glyph unicode="&#xa6;" horiz-adv-x="501" d="M139 -336v776h223v-776h-223zM139 930v776h223v-776h-223z" />
<glyph unicode="&#xa7;" horiz-adv-x="925" d="M74 375l131 194l411 -270q102 -66 150.5 -157t46.5 -187q0 -74 -25.5 -144.5t-75.5 -125t-125 -87t-171 -32.5q-55 0 -102.5 13t-85.5 31.5t-66.5 38t-44.5 32.5l116 176q53 -37 94.5 -54.5t92.5 -17.5q37 0 66.5 13.5t49 34t31 47t11.5 50.5q0 45 -17.5 86t-91.5 90z M92 1014q0 74 25.5 144.5t76 124.5t125 87t170.5 33q55 0 102.5 -13.5t85.5 -32t66.5 -38t44.5 -31.5l-116 -176q-53 37 -94 54.5t-93 17.5q-37 0 -66.5 -13.5t-49 -34t-30.5 -47t-11 -51.5q0 -23 3 -44t14 -42.5t32.5 -43t58.5 -46.5l395 -268l-131 -195l-411 271 q-102 66 -150.5 157t-46.5 187z" />
<glyph unicode="&#xa8;" horiz-adv-x="708" d="M45 1141v223h236v-223h-236zM424 1141v223h235v-223h-235z" />
<glyph unicode="&#xa9;" horiz-adv-x="1656" d="M119 686q0 150 55 280t150.5 226t225.5 152.5t279 56.5q150 0 279 -56.5t224 -152.5t150.5 -226t55.5 -280t-55.5 -280t-151.5 -227t-225 -152.5t-279 -55.5t-278.5 55.5t-224 152.5t-150.5 227.5t-55 279.5zM301 686q0 -117 40 -216t110.5 -172t166.5 -115t209 -42 t209.5 42t167 115t110.5 172t40 216q0 115 -40 214t-110.5 173t-167 116t-207.5 42q-113 0 -209 -42t-166.5 -116t-111.5 -173t-41 -214zM451 692q0 80 28.5 150.5t80.5 123t123 83t157 30.5q104 0 184 -48t127 -116l-133 -102q-25 35 -67 65.5t-101 30.5 q-96 0 -152.5 -63.5t-56.5 -155.5q0 -43 15.5 -82t43 -68.5t65.5 -47t85 -17.5q59 0 101 31t67 65l133 -106q-47 -68 -127 -116t-184 -48q-88 0 -160 29.5t-123 82t-78.5 124t-27.5 155.5z" />
<glyph unicode="&#xaa;" horiz-adv-x="776" d="M80 852q0 115 80 167t209 52q53 0 125 -6v16q0 41 -28 69t-91 28q-72 0 -113 -18.5t-78 -41.5l-86 123q51 39 112.5 62.5t170.5 23.5q129 0 206 -67.5t77 -174.5v-426h-166q-2 10 -2 19q0 8 -1 16t-1 17q-25 -25 -75 -46.5t-97 -21.5q-45 0 -88.5 11.5t-77 37t-55 65.5 t-21.5 95zM246 858q0 -41 26.5 -56.5t83.5 -15.5q55 0 96.5 33t41.5 74v37q-20 4 -55.5 5t-57.5 1q-72 0 -103.5 -21.5t-31.5 -56.5z" />
<glyph unicode="&#xab;" horiz-adv-x="1097" d="M119 494l213 397h235l-202 -397l202 -398h-235zM520 494l213 397h235l-202 -397l202 -398h-235z" />
<glyph unicode="&#xac;" d="M152 557v203h815v-502h-205v299h-610z" />
<glyph unicode="&#xad;" horiz-adv-x="903" d="M139 457v229h625v-229h-625z" />
<glyph unicode="&#xae;" horiz-adv-x="1656" d="M119 686q0 150 55 280t150.5 226t225.5 152.5t279 56.5q150 0 279 -56.5t224 -152.5t150.5 -226t55.5 -280t-55.5 -280t-151.5 -227t-225 -152.5t-279 -55.5t-278.5 55.5t-224 152.5t-150.5 227.5t-55 279.5zM301 686q0 -117 40 -216t110.5 -172t166.5 -115t209 -42 t209.5 42t167 115t110.5 172t40 216q0 115 -40 214t-110.5 173t-167 116t-207.5 42q-113 0 -209 -42t-166.5 -116t-111.5 -173t-41 -214zM561 340v707h297q72 0 122 -20.5t82 -52.5t46 -70t14 -70q0 -61 -31.5 -115.5t-97.5 -85.5l170 -293h-188l-154 268h-90v-268h-170z M731 739h121q55 0 76.5 23.5t21.5 58.5q0 41 -22.5 63.5t-75.5 22.5h-121v-168z" />
<glyph unicode="&#xaf;" horiz-adv-x="710" d="M88 1141v188h535v-188h-535z" />
<glyph unicode="&#xb0;" horiz-adv-x="690" d="M57 1085q0 61 22.5 112.5t61.5 88.5t91.5 58.5t111.5 21.5q61 0 113.5 -21.5t91.5 -58.5t61.5 -88t22.5 -111q0 -61 -22.5 -112t-61.5 -88t-91 -58.5t-112 -21.5q-61 0 -113.5 21.5t-91.5 58.5t-61.5 88t-22.5 110zM217 1085q0 -55 36 -92t93 -37q55 0 91 37t36 94 q0 55 -36 92.5t-93 37.5q-55 0 -91 -37t-36 -95z" />
<glyph unicode="&#xb1;" d="M152 0v203h815v-203h-815zM152 557v203h305v301h205v-301h305v-203h-305v-278h-205v278h-305z" />
<glyph unicode="&#xb2;" horiz-adv-x="737" d="M88 1227q51 35 129 66.5t168 31.5q135 0 198.5 -62.5t63.5 -154.5q0 -74 -34.5 -120t-84 -81t-104.5 -65.5t-96 -73.5h321v-164h-549v92q0 53 26 95.5t62.5 77t81.5 63.5t82 54.5t62.5 50t25.5 50.5q0 37 -22.5 52.5t-57.5 15.5q-47 0 -102 -22.5t-96 -49.5z" />
<glyph unicode="&#xb3;" horiz-adv-x="737" d="M61 670l91 139q37 -29 83 -47.5t97 -18.5q49 0 79.5 20.5t30.5 63.5q0 53 -38.5 69.5t-96.5 16.5q-27 0 -53.5 -4t-46.5 -10l-33 72l217 172h-272v162h491v-156l-157 -125q106 -20 146 -79.5t40 -137.5q0 -98 -83 -160.5t-222 -62.5q-86 0 -154.5 23.5t-118.5 62.5z" />
<glyph unicode="&#xb4;" horiz-adv-x="1028" d="M432 1106l98 291h258l-161 -291h-195z" />
<glyph unicode="&#xb5;" horiz-adv-x="1128" d="M121 -410v1371h241v-582q0 -92 50.5 -142.5t130.5 -50.5q100 0 165.5 69t65.5 175v531h242v-961h-232l-6 98q-37 -41 -102.5 -79.5t-157.5 -38.5q-41 0 -74.5 10t-81.5 39v-439h-241z" />
<glyph unicode="&#xb6;" horiz-adv-x="1140" d="M78 989q0 106 37 179t101.5 117t152.5 62.5t190 18.5h62v-754h-62q-102 0 -190 18.5t-152.5 62.5t-101.5 116t-37 180zM375 -250v772q41 -12 91 -16t93 -4h62v-752h-246zM741 -250v1616h250v-1616h-250z" />
<glyph unicode="&#xb7;" horiz-adv-x="571" d="M139 520v283h293v-283h-293z" />
<glyph unicode="&#xb8;" horiz-adv-x="1443" d="M188 -406l27 138q39 -14 74 -19.5t67 -5.5q119 0 119 66q0 25 -25.5 43t-84.5 18q-35 0 -69 -6t-60 -16l22 137q37 10 75 17t97 7q111 0 173.5 -53t62.5 -137q0 -53 -22.5 -94t-60.5 -69t-86 -41t-100 -13q-49 0 -87 4t-66 10q-33 6 -56 14z" />
<glyph unicode="&#xb9;" horiz-adv-x="737" d="M121 1159l258 146h176v-701h-201v488l-159 -80z" />
<glyph unicode="&#xba;" horiz-adv-x="866" d="M88 985q0 74 25.5 136.5t71.5 108.5t109.5 71.5t139.5 25.5q74 0 137.5 -25.5t109.5 -71.5t71.5 -108.5t25.5 -136.5t-25.5 -136.5t-71.5 -108.5t-109.5 -71.5t-137.5 -25.5q-76 0 -139.5 25.5t-109.5 71.5t-71.5 108.5t-25.5 136.5zM276 985q0 -72 40 -125t118 -53 t117 53t39 125t-39 125t-117 53t-118 -53t-40 -125z" />
<glyph unicode="&#xbb;" horiz-adv-x="1097" d="M129 96l203 398l-203 397h236l213 -397l-213 -398h-236zM530 96l203 398l-203 397h236l213 -397l-213 -398h-236z" />
<glyph unicode="&#xbc;" horiz-adv-x="1894" d="M176 1159l258 146h176v-701h-201v488l-159 -80zM430 0l832 1290h219l-831 -1290h-220zM1096 125v145l352 433h196v-433h84v-145h-84v-123h-178v123h-370zM1255 270h211v250z" />
<glyph unicode="&#xbd;" horiz-adv-x="1894" d="M135 1159l258 146h176v-701h-201v488l-159 -80zM389 0l832 1290h219l-831 -1290h-220zM1198 625q51 35 129 66.5t168 31.5q135 0 198.5 -62.5t63.5 -154.5q0 -74 -34.5 -120t-84 -81t-104.5 -65.5t-96 -73.5h321v-164h-549v92q0 53 26 95.5t62.5 77t81.5 63.5t82 54.5 t62.5 50t25.5 50.5q0 37 -22.5 52.5t-57.5 15.5q-47 0 -102 -22.5t-96 -49.5z" />
<glyph unicode="&#xbe;" horiz-adv-x="1894" d="M143 670l91 139q37 -29 83 -47.5t97 -18.5q49 0 79.5 20.5t30.5 63.5q0 53 -38.5 69.5t-96.5 16.5q-27 0 -53.5 -4t-46.5 -10l-33 72l217 172h-272v162h491v-156l-157 -125q106 -20 146 -79.5t40 -137.5q0 -98 -83 -160.5t-222 -62.5q-86 0 -154.5 23.5t-118.5 62.5z M466 0l832 1290h219l-831 -1290h-220zM1133 125v145l352 433h196v-433h84v-145h-84v-123h-178v123h-370zM1292 270h211v250z" />
<glyph unicode="&#xbf;" horiz-adv-x="1048" d="M139 -86q0 115 45 186.5t135 137.5q45 33 78 57t54.5 52t32 60.5t10.5 79.5v45h245v-45q0 -39 -5 -83t-21.5 -90t-51 -91t-92.5 -86q-33 -23 -65.5 -47t-59 -51t-43 -56.5t-16.5 -62.5q0 -61 47 -101t131 -40q55 0 102.5 16.5t83 37t59 41t34.5 30.5l159 -144 q-10 -14 -40.5 -46.5t-84 -66.5t-132 -60.5t-183.5 -26.5q-100 0 -178 28.5t-132 77.5t-83 113.5t-29 134.5zM469 678v283h293v-283h-293z" />
<glyph unicode="&#xc0;" horiz-adv-x="1323" d="M10 0l518 1366h267l518 -1366h-287l-119 346h-508l-118 -346h-271zM367 1788h299l150 -320h-215zM471 559h363l-181 531z" />
<glyph unicode="&#xc1;" horiz-adv-x="1323" d="M10 0l518 1366h267l518 -1366h-287l-119 346h-508l-118 -346h-271zM471 559h363l-181 531zM543 1468l150 320h299l-234 -320h-215z" />
<glyph unicode="&#xc2;" horiz-adv-x="1323" d="M10 0l518 1366h267l518 -1366h-287l-119 346h-508l-118 -346h-271zM321 1468l225 320h228l225 -320h-213l-127 168l-125 -168h-213zM471 559h363l-181 531z" />
<glyph unicode="&#xc3;" horiz-adv-x="1323" d="M10 0l518 1366h267l518 -1366h-287l-119 346h-508l-118 -346h-271zM248 1647q18 18 45 40.5t60.5 41t72.5 31t84 12.5t78 -13.5t62.5 -30t61.5 -29.5t75 -13q72 0 115.5 26.5t72.5 48.5l100 -153q-18 -18 -44.5 -41t-59.5 -42.5t-72 -32.5t-84 -13t-77.5 14t-63.5 30.5 t-62.5 31t-74.5 14.5q-72 0 -116 -26.5t-73 -49.5zM471 559h363l-181 531z" />
<glyph unicode="&#xc4;" horiz-adv-x="1323" d="M10 0l518 1366h267l518 -1366h-287l-119 346h-508l-118 -346h-271zM316 1509v240h252v-240h-252zM471 559h363l-181 531zM752 1509v240h252v-240h-252z" />
<glyph unicode="&#xc5;" horiz-adv-x="1323" d="M10 0l504 1329q-53 35 -86 91.5t-33 127.5q0 57 20.5 105.5t57.5 83.5t86 54t105 19q57 0 106 -19t86 -54t57.5 -83t20.5 -104q0 -74 -34 -131t-91 -92l504 -1327h-287l-119 346h-508l-118 -346h-271zM471 559h363l-181 531zM561 1548q0 -47 28 -76.5t77 -29.5 q47 0 74.5 29.5t27.5 78.5q0 47 -27.5 77t-76.5 30q-47 0 -75 -30t-28 -79z" />
<glyph unicode="&#xc6;" horiz-adv-x="1953" d="M0 0l784 1366h1035v-227h-631v-322h465v-229h-465v-357h678v-231h-932v346h-471l-199 -346h-264zM584 557h350v610z" />
<glyph unicode="&#xc7;" horiz-adv-x="1392" d="M90 676q0 150 51.5 280.5t144.5 229t222 156t285 57.5q100 0 184 -21.5t152.5 -58.5t122 -87t94.5 -108l-183 -161q-66 94 -152.5 151t-217.5 57q-100 0 -180.5 -39.5t-136.5 -106.5t-86 -156t-30 -187t30 -184t85 -149.5t132 -100.5t173 -37q88 0 150.5 20.5t106.5 51 t74 64.5t54 59l181 -156q-31 -47 -85.5 -96.5t-128 -91.5t-161.5 -68.5t-187 -26.5q-154 0 -280.5 53.5t-218.5 148.5t-143.5 224t-51.5 283zM514 -445l27 142q39 -14 75 -19.5t68 -5.5q53 0 84 15.5t31 46.5q0 25 -25.5 42t-80.5 17q-35 0 -70 -6t-62 -16l23 139 q37 10 76 17t98 7q111 0 175.5 -53t64.5 -137q0 -53 -23.5 -94t-61.5 -69t-87 -41t-101 -13q-49 0 -87 4t-66 10q-33 6 -58 14z" />
<glyph unicode="&#xc8;" horiz-adv-x="1163" d="M143 0v1366h885v-227h-627v-322h461v-229h-461v-357h674v-231h-932zM307 1788h299l150 -320h-215z" />
<glyph unicode="&#xc9;" horiz-adv-x="1163" d="M143 0v1366h885v-227h-627v-322h461v-229h-461v-357h674v-231h-932zM471 1468l150 320h299l-234 -320h-215z" />
<glyph unicode="&#xca;" horiz-adv-x="1163" d="M143 0v1366h885v-227h-627v-322h461v-229h-461v-357h674v-231h-932zM246 1468l225 320h228l225 -320h-213l-127 168l-125 -168h-213z" />
<glyph unicode="&#xcb;" horiz-adv-x="1163" d="M143 0v1366h885v-227h-627v-322h461v-229h-461v-357h674v-231h-932zM240 1509v240h252v-240h-252zM676 1509v240h252v-240h-252z" />
<glyph unicode="&#xcc;" horiz-adv-x="544" d="M-45 1788h299l150 -320h-215zM143 0v1366h258v-1366h-258z" />
<glyph unicode="&#xcd;" horiz-adv-x="544" d="M143 0v1366h258v-1366h-258zM143 1468l150 320h299l-234 -320h-215z" />
<glyph unicode="&#xce;" horiz-adv-x="544" d="M-66 1468l225 320h228l225 -320h-213l-127 168l-125 -168h-213zM143 0v1366h258v-1366h-258z" />
<glyph unicode="&#xcf;" horiz-adv-x="544" d="M-71 1509v240h252v-240h-252zM143 0v1366h258v-1366h-258zM365 1509v240h252v-240h-252z" />
<glyph unicode="&#xd0;" horiz-adv-x="1486" d="M6 588v209h137v569h510q160 0 293 -41t229.5 -125t149.5 -215t53 -309q0 -170 -54 -296t-151.5 -211t-230.5 -127t-291 -42h-508v588h-137zM401 231h234q233 0 356 113t123 330q0 215 -113.5 340t-365.5 125h-234v-342h318v-209h-318v-357z" />
<glyph unicode="&#xd1;" horiz-adv-x="1460" d="M143 0v1366h260l662 -971v971h252v-1366h-254l-668 983v-983h-252zM274 1647q18 18 45 40.5t60.5 41t72.5 31t84 12.5t78 -13.5t62.5 -30t61.5 -29.5t75 -13q72 0 115.5 26.5t72.5 48.5l100 -153q-18 -18 -44.5 -41t-59.5 -42.5t-72 -32.5t-84 -13t-77.5 14t-63.5 30.5 t-62.5 31t-74.5 14.5q-72 0 -116 -26.5t-73 -49.5z" />
<glyph unicode="&#xd2;" horiz-adv-x="1601" d="M90 684q0 150 55.5 281t150.5 228t225 153.5t280 56.5t278.5 -56.5t225 -153.5t151.5 -228t55 -281t-55 -281t-151.5 -229t-225 -154.5t-278.5 -56.5t-279 56.5t-225 154.5t-151.5 229.5t-55.5 280.5zM360 690q0 -96 31 -184t88.5 -154.5t138.5 -105.5t183 -39 q100 0 182 39t139.5 105.5t88 154.5t30.5 184q0 98 -30.5 185.5t-88 153t-139.5 103t-182 37.5q-102 0 -183 -37.5t-138.5 -103t-88.5 -153t-31 -185.5zM504 1788h299l150 -320h-215z" />
<glyph unicode="&#xd3;" horiz-adv-x="1601" d="M90 684q0 150 55.5 281t150.5 228t225 153.5t280 56.5t278.5 -56.5t225 -153.5t151.5 -228t55 -281t-55 -281t-151.5 -229t-225 -154.5t-278.5 -56.5t-279 56.5t-225 154.5t-151.5 229.5t-55.5 280.5zM360 690q0 -96 31 -184t88.5 -154.5t138.5 -105.5t183 -39 q100 0 182 39t139.5 105.5t88 154.5t30.5 184q0 98 -30.5 185.5t-88 153t-139.5 103t-182 37.5q-102 0 -183 -37.5t-138.5 -103t-88.5 -153t-31 -185.5zM672 1468l150 320h299l-234 -320h-215z" />
<glyph unicode="&#xd4;" horiz-adv-x="1601" d="M90 684q0 150 55.5 281t150.5 228t225 153.5t280 56.5t278.5 -56.5t225 -153.5t151.5 -228t55 -281t-55 -281t-151.5 -229t-225 -154.5t-278.5 -56.5t-279 56.5t-225 154.5t-151.5 229.5t-55.5 280.5zM360 690q0 -96 31 -184t88.5 -154.5t138.5 -105.5t183 -39 q100 0 182 39t139.5 105.5t88 154.5t30.5 184q0 98 -30.5 185.5t-88 153t-139.5 103t-182 37.5q-102 0 -183 -37.5t-138.5 -103t-88.5 -153t-31 -185.5zM463 1468l225 320h228l225 -320h-213l-127 168l-125 -168h-213z" />
<glyph unicode="&#xd5;" horiz-adv-x="1601" d="M90 684q0 150 55.5 281t150.5 228t225 153.5t280 56.5t278.5 -56.5t225 -153.5t151.5 -228t55 -281t-55 -281t-151.5 -229t-225 -154.5t-278.5 -56.5t-279 56.5t-225 154.5t-151.5 229.5t-55.5 280.5zM360 690q0 -96 31 -184t88.5 -154.5t138.5 -105.5t183 -39 q100 0 182 39t139.5 105.5t88 154.5t30.5 184q0 98 -30.5 185.5t-88 153t-139.5 103t-182 37.5q-102 0 -183 -37.5t-138.5 -103t-88.5 -153t-31 -185.5zM389 1647q18 18 45 40.5t60.5 41t72.5 31t84 12.5t78 -13.5t62.5 -30t61.5 -29.5t75 -13q72 0 115.5 26.5t72.5 48.5 l100 -153q-18 -18 -44.5 -41t-59.5 -42.5t-72 -32.5t-84 -13t-77.5 14t-63.5 30.5t-62.5 31t-74.5 14.5q-72 0 -116 -26.5t-73 -49.5z" />
<glyph unicode="&#xd6;" horiz-adv-x="1601" d="M90 684q0 150 55.5 281t150.5 228t225 153.5t280 56.5t278.5 -56.5t225 -153.5t151.5 -228t55 -281t-55 -281t-151.5 -229t-225 -154.5t-278.5 -56.5t-279 56.5t-225 154.5t-151.5 229.5t-55.5 280.5zM360 690q0 -96 31 -184t88.5 -154.5t138.5 -105.5t183 -39 q100 0 182 39t139.5 105.5t88 154.5t30.5 184q0 98 -30.5 185.5t-88 153t-139.5 103t-182 37.5q-102 0 -183 -37.5t-138.5 -103t-88.5 -153t-31 -185.5zM457 1509v240h252v-240h-252zM893 1509v240h252v-240h-252z" />
<glyph unicode="&#xd7;" d="M186 426l232 231l-228 230l142 141l229 -227l232 231l139 -141l-232 -232l228 -227l-142 -141l-227 227l-231 -231z" />
<glyph unicode="&#xd8;" horiz-adv-x="1601" d="M90 684q0 150 55.5 281t150.5 228t225 153.5t280 56.5q164 0 307 -70l119 168l182 -115l-123 -176q104 -98 164.5 -234t60.5 -292q0 -150 -55 -281t-151.5 -229t-225.5 -154.5t-278 -56.5q-90 0 -173 21.5t-157 58.5l-125 -180l-182 114l135 195q-98 98 -153.5 229 t-55.5 283zM360 690q0 -86 23 -162.5t68 -140.5l520 750q-82 33 -170 32q-102 0 -183 -37.5t-138.5 -103t-88.5 -153t-31 -185.5zM614 248q82 -41 187 -41q100 0 182 39t139.5 105.5t88 154.5t30.5 184q0 90 -26.5 169t-73.5 145z" />
<glyph unicode="&#xd9;" horiz-adv-x="1380" d="M133 504v862h258v-817q0 -78 15.5 -140.5t50.5 -106.5t92 -67.5t141 -23.5t141.5 23.5t92 67.5t50 106.5t15.5 140.5v817h258v-862q0 -115 -36.5 -213t-108.5 -171t-175.5 -115t-236.5 -42t-236.5 42t-175 115t-108.5 171t-37 213zM407 1788h299l150 -320h-215z" />
<glyph unicode="&#xda;" horiz-adv-x="1380" d="M133 504v862h258v-817q0 -78 15.5 -140.5t50.5 -106.5t92 -67.5t141 -23.5t141.5 23.5t92 67.5t50 106.5t15.5 140.5v817h258v-862q0 -115 -36.5 -213t-108.5 -171t-175.5 -115t-236.5 -42t-236.5 42t-175 115t-108.5 171t-37 213zM569 1468l150 320h299l-234 -320h-215z " />
<glyph unicode="&#xdb;" horiz-adv-x="1380" d="M133 504v862h258v-817q0 -78 15.5 -140.5t50.5 -106.5t92 -67.5t141 -23.5t141.5 23.5t92 67.5t50 106.5t15.5 140.5v817h258v-862q0 -115 -36.5 -213t-108.5 -171t-175.5 -115t-236.5 -42t-236.5 42t-175 115t-108.5 171t-37 213zM354 1468l225 320h228l225 -320h-213 l-127 168l-125 -168h-213z" />
<glyph unicode="&#xdc;" horiz-adv-x="1380" d="M133 504v862h258v-817q0 -78 15.5 -140.5t50.5 -106.5t92 -67.5t141 -23.5t141.5 23.5t92 67.5t50 106.5t15.5 140.5v817h258v-862q0 -115 -36.5 -213t-108.5 -171t-175.5 -115t-236.5 -42t-236.5 42t-175 115t-108.5 171t-37 213zM346 1509v240h252v-240h-252zM782 1509 v240h252v-240h-252z" />
<glyph unicode="&#xdd;" horiz-adv-x="1228" d="M10 1366h283l328 -545l327 545h271l-474 -766v-600h-262v600zM508 1468l150 320h299l-234 -320h-215z" />
<glyph unicode="&#xde;" horiz-adv-x="1142" d="M143 0v1366h248v-233h191q143 0 234 -44.5t144.5 -109t74 -138t20.5 -134.5q0 -115 -41 -197t-106.5 -134t-147.5 -77t-162 -25h-207v-274h-248zM391 492h187q98 0 156.5 57t58.5 149q0 96 -61.5 156.5t-153.5 60.5h-187v-423z" />
<glyph unicode="&#xdf;" horiz-adv-x="1236" d="M119 0v971q0 123 33.5 204.5t96 132t148.5 72t191 21.5q76 0 146.5 -21.5t124.5 -62.5t86 -98.5t32 -128.5q0 -78 -36 -136.5t-79 -105.5t-78.5 -87t-35.5 -79q0 -37 43 -60.5t114 -39.5q125 -29 191.5 -96.5t66.5 -204.5q0 -141 -99 -222.5t-280 -81.5q-207 0 -340 117 l146 168q43 -39 93 -59.5t93 -20.5q82 0 118 19.5t36 66.5q0 20 -5 40t-23.5 36t-53.5 32.5t-94 35.5q-47 14 -91.5 31.5t-78 48t-54 76.5t-20.5 116q0 63 34 115.5t74.5 97.5t74.5 83t34 73q0 59 -39 100t-125 41q-111 0 -157 -63.5t-46 -169.5v-961h-241z" />
<glyph unicode="&#xe0;" horiz-adv-x="1032" d="M57 281q0 82 31 146.5t86 108.5t133 66.5t172 22.5q29 0 64 -1t67 -3q37 -2 76 -5v23q0 72 -57.5 113t-149.5 41q-102 0 -163.5 -27t-108.5 -57l-111 163q29 20 66 42t86 39.5t113.5 28.5t150.5 11q92 0 167 -25.5t128 -71.5t82 -110.5t29 -140.5v-645h-226l-6 90 q-39 -47 -119 -84t-178 -37q-59 0 -117.5 18.5t-106.5 56.5t-78 97.5t-30 139.5zM275 1397h258l98 -291h-194zM289 291q0 -61 44 -96t130 -35q43 0 83 14t70.5 39t50 57.5t19.5 69.5v94q-37 2 -72 4q-29 2 -60.5 3t-53.5 1q-117 0 -164 -46t-47 -105z" />
<glyph unicode="&#xe1;" horiz-adv-x="1032" d="M57 281q0 82 31 146.5t86 108.5t133 66.5t172 22.5q29 0 64 -1t67 -3q37 -2 76 -5v23q0 72 -57.5 113t-149.5 41q-102 0 -163.5 -27t-108.5 -57l-111 163q29 20 66 42t86 39.5t113.5 28.5t150.5 11q92 0 167 -25.5t128 -71.5t82 -110.5t29 -140.5v-645h-226l-6 90 q-39 -47 -119 -84t-178 -37q-59 0 -117.5 18.5t-106.5 56.5t-78 97.5t-30 139.5zM289 291q0 -61 44 -96t130 -35q43 0 83 14t70.5 39t50 57.5t19.5 69.5v94q-37 2 -72 4q-29 2 -60.5 3t-53.5 1q-117 0 -164 -46t-47 -105zM407 1106l98 291h258l-161 -291h-195z" />
<glyph unicode="&#xe2;" horiz-adv-x="1032" d="M57 281q0 82 31 146.5t86 108.5t133 66.5t172 22.5q29 0 64 -1t67 -3q37 -2 76 -5v23q0 72 -57.5 113t-149.5 41q-102 0 -163.5 -27t-108.5 -57l-111 163q29 20 66 42t86 39.5t113.5 28.5t150.5 11q92 0 167 -25.5t128 -71.5t82 -110.5t29 -140.5v-645h-226l-6 90 q-39 -47 -119 -84t-178 -37q-59 0 -117.5 18.5t-106.5 56.5t-78 97.5t-30 139.5zM172 1106l213 291h227l213 -291h-213l-114 156l-113 -156h-213zM289 291q0 -61 44 -96t130 -35q43 0 83 14t70.5 39t50 57.5t19.5 69.5v94q-37 2 -72 4q-29 2 -60.5 3t-53.5 1 q-117 0 -164 -46t-47 -105z" />
<glyph unicode="&#xe3;" horiz-adv-x="1032" d="M57 281q0 82 31 146.5t86 108.5t133 66.5t172 22.5q29 0 64 -1t67 -3q37 -2 76 -5v23q0 72 -57.5 113t-149.5 41q-102 0 -163.5 -27t-108.5 -57l-111 163q29 20 66 42t86 39.5t113.5 28.5t150.5 11q92 0 167 -25.5t128 -71.5t82 -110.5t29 -140.5v-645h-226l-6 90 q-39 -47 -119 -84t-178 -37q-59 0 -117.5 18.5t-106.5 56.5t-78 97.5t-30 139.5zM101 1260q16 18 41.5 38.5t57.5 38t70 29.5t79 12q43 0 73.5 -13t59 -28.5t59.5 -29t72 -13.5q70 0 110.5 27t69.5 47l92 -143q-16 -18 -41.5 -40t-56.5 -40.5t-69 -30.5t-79 -12 q-43 0 -74.5 13t-60 30.5t-59.5 31t-72 13.5q-70 0 -110.5 -26.5t-69.5 -47.5zM289 291q0 -61 44 -96t130 -35q43 0 83 14t70.5 39t50 57.5t19.5 69.5v94q-37 2 -72 4q-29 2 -60.5 3t-53.5 1q-117 0 -164 -46t-47 -105z" />
<glyph unicode="&#xe4;" horiz-adv-x="1032" d="M57 281q0 82 31 146.5t86 108.5t133 66.5t172 22.5q29 0 64 -1t67 -3q37 -2 76 -5v23q0 72 -57.5 113t-149.5 41q-102 0 -163.5 -27t-108.5 -57l-111 163q29 20 66 42t86 39.5t113.5 28.5t150.5 11q92 0 167 -25.5t128 -71.5t82 -110.5t29 -140.5v-645h-226l-6 90 q-39 -47 -119 -84t-178 -37q-59 0 -117.5 18.5t-106.5 56.5t-78 97.5t-30 139.5zM215 1141v223h236v-223h-236zM289 291q0 -61 44 -96t130 -35q43 0 83 14t70.5 39t50 57.5t19.5 69.5v94q-37 2 -72 4q-29 2 -60.5 3t-53.5 1q-117 0 -164 -46t-47 -105zM594 1141v223h235 v-223h-235z" />
<glyph unicode="&#xe5;" horiz-adv-x="1032" d="M57 281q0 82 31 146.5t86 108.5t133 66.5t172 22.5q29 0 64 -1t67 -3q37 -2 76 -5v23q0 72 -57.5 113t-149.5 41q-102 0 -163.5 -27t-108.5 -57l-111 163q29 20 66 42t86 39.5t113.5 28.5t150.5 11q92 0 167 -25.5t128 -71.5t82 -110.5t29 -140.5v-645h-226l-6 90 q-39 -47 -119 -84t-178 -37q-59 0 -117.5 18.5t-106.5 56.5t-78 97.5t-30 139.5zM281 1319q0 49 19.5 92t51 74t75.5 48t94 17q49 0 93 -17t76.5 -48t52 -73t19.5 -91t-19.5 -92t-51 -74t-75.5 -48t-93 -17t-93.5 17t-77 48t-52 73t-19.5 91zM289 291q0 -61 44 -96t130 -35 q43 0 83 14t70.5 39t50 57.5t19.5 69.5v94q-37 2 -72 4q-29 2 -60.5 3t-53.5 1q-117 0 -164 -46t-47 -105zM432 1319q0 -39 26 -64.5t63 -25.5q39 0 64.5 25.5t25.5 64.5q0 37 -26 62.5t-62 25.5q-39 0 -65 -25.5t-26 -62.5z" />
<glyph unicode="&#xe6;" horiz-adv-x="1701" d="M57 281q0 82 31 143t86 101t133 60.5t172 20.5q27 0 61.5 -1t65.5 -3t53.5 -3t26.5 -1v41q0 72 -54 113t-140 41q-111 0 -174.5 -27t-110.5 -57l-111 163q27 20 63 42t84 39.5t110.5 28.5t142.5 11q121 0 201.5 -33.5t138.5 -101.5q55 63 141 99t184 36q131 0 222.5 -48 t146.5 -126t79.5 -176t24.5 -201v-34h-716q0 -53 23.5 -96.5t61 -74t86 -47t95.5 -16.5q70 0 122 13.5t89 31t60.5 36.5t35.5 32l131 -148l-33.5 -33.5t-80 -58.5t-133.5 -55.5t-193 -24.5q-123 0 -219.5 45t-163.5 123q-37 -45 -77 -76.5t-86 -51t-99.5 -29t-120.5 -9.5 q-70 0 -134.5 18.5t-114.5 56.5t-80 97.5t-30 139.5zM283 291q0 -61 47 -96t133 -35q100 0 161.5 53t61.5 127v76q-8 0 -30.5 2t-50 3t-56.5 2t-49 1q-109 0 -163 -37t-54 -96zM915 582h471q0 37 -14 73.5t-41.5 66.5t-70.5 49.5t-99 19.5q-59 0 -105 -19.5t-77 -49.5 t-47.5 -67t-16.5 -73z" />
<glyph unicode="&#xe7;" horiz-adv-x="1007" d="M74 481q0 104 38 197.5t105.5 163t162.5 110.5t210 41q117 0 213 -42t164 -113l-154 -156q-41 47 -96 73.5t-127 26.5q-70 0 -121 -25.5t-85 -66.5t-50.5 -96t-16.5 -113q0 -55 16.5 -108.5t50.5 -96.5t85 -69.5t121 -26.5q72 0 131 28t100 75l144 -156 q-68 -72 -160 -115t-215 -43t-219.5 37t-162 104.5t-100 162t-34.5 208.5zM307 -445l27 138q39 -14 74 -19.5t67 -5.5q119 0 119 66q0 25 -25.5 43t-84.5 18q-35 0 -69 -6t-60 -16l22 137q37 10 75 17t97 7q111 0 173.5 -53t62.5 -137q0 -53 -22.5 -94t-60.5 -69t-86 -41 t-100 -13q-49 0 -87 4t-66 10q-33 6 -56 14z" />
<glyph unicode="&#xe8;" horiz-adv-x="1101" d="M74 492q0 106 35.5 197t100 158.5t154 106.5t197.5 39q131 0 222 -48t146.5 -126t80 -176t24.5 -201v-34h-717q0 -53 24 -96.5t61.5 -74t86 -47t95.5 -16.5q70 0 122 13.5t88.5 31t60.5 36.5t36 32l131 -148l-33.5 -33.5t-80 -58.5t-133.5 -55.5t-193 -24.5 q-115 0 -209 39t-161 107.5t-102.5 165t-35.5 213.5zM315 582h471q0 37 -14 73.5t-42 66.5t-71 49.5t-98 19.5q-59 0 -105 -19.5t-77 -49.5t-47.5 -67t-16.5 -73zM326 1397h258l98 -291h-194z" />
<glyph unicode="&#xe9;" horiz-adv-x="1101" d="M74 492q0 106 35.5 197t100 158.5t154 106.5t197.5 39q131 0 222 -48t146.5 -126t80 -176t24.5 -201v-34h-717q0 -53 24 -96.5t61.5 -74t86 -47t95.5 -16.5q70 0 122 13.5t88.5 31t60.5 36.5t36 32l131 -148l-33.5 -33.5t-80 -58.5t-133.5 -55.5t-193 -24.5 q-115 0 -209 39t-161 107.5t-102.5 165t-35.5 213.5zM315 582h471q0 37 -14 73.5t-42 66.5t-71 49.5t-98 19.5q-59 0 -105 -19.5t-77 -49.5t-47.5 -67t-16.5 -73zM463 1106l98 291h258l-161 -291h-195z" />
<glyph unicode="&#xea;" horiz-adv-x="1101" d="M74 492q0 106 35.5 197t100 158.5t154 106.5t197.5 39q131 0 222 -48t146.5 -126t80 -176t24.5 -201v-34h-717q0 -53 24 -96.5t61.5 -74t86 -47t95.5 -16.5q70 0 122 13.5t88.5 31t60.5 36.5t36 32l131 -148l-33.5 -33.5t-80 -58.5t-133.5 -55.5t-193 -24.5 q-115 0 -209 39t-161 107.5t-102.5 165t-35.5 213.5zM227 1106l213 291h227l213 -291h-213l-114 156l-113 -156h-213zM315 582h471q0 37 -14 73.5t-42 66.5t-71 49.5t-98 19.5q-59 0 -105 -19.5t-77 -49.5t-47.5 -67t-16.5 -73z" />
<glyph unicode="&#xeb;" horiz-adv-x="1101" d="M74 492q0 106 35.5 197t100 158.5t154 106.5t197.5 39q131 0 222 -48t146.5 -126t80 -176t24.5 -201v-34h-717q0 -53 24 -96.5t61.5 -74t86 -47t95.5 -16.5q70 0 122 13.5t88.5 31t60.5 36.5t36 32l131 -148l-33.5 -33.5t-80 -58.5t-133.5 -55.5t-193 -24.5 q-115 0 -209 39t-161 107.5t-102.5 165t-35.5 213.5zM246 1141v223h236v-223h-236zM315 582h471q0 37 -14 73.5t-42 66.5t-71 49.5t-98 19.5q-59 0 -105 -19.5t-77 -49.5t-47.5 -67t-16.5 -73zM625 1141v223h235v-223h-235z" />
<glyph unicode="&#xec;" horiz-adv-x="499" d="M-8 1397h258l98 -291h-194zM129 0v961h242v-961h-242z" />
<glyph unicode="&#xed;" horiz-adv-x="499" d="M129 0v961h242v-961h-242zM151 1106l98 291h258l-161 -291h-195z" />
<glyph unicode="&#xee;" horiz-adv-x="499" d="M-74 1106l213 291h227l213 -291h-213l-114 156l-113 -156h-213zM129 0v961h242v-961h-242z" />
<glyph unicode="&#xef;" horiz-adv-x="499" d="M-55 1141v223h236v-223h-236zM129 0v961h242v-961h-242zM324 1141v223h235v-223h-235z" />
<glyph unicode="&#xf0;" horiz-adv-x="1136" d="M74 451q0 98 35.5 185t99 153.5t153 105.5t193.5 39q86 0 136 -13.5t77 -23.5q-31 70 -85 129t-132 100l-96 -143l-131 78l79 121q-74 18 -163 24l28 180q137 -10 248 -36l88 131l131 -78l-71 -109q209 -100 304 -292.5t95 -448.5q0 -152 -41 -261.5t-110.5 -182 t-163 -107.5t-197.5 -35q-92 0 -179 31t-152.5 92.5t-105.5 151.5t-40 209zM317 451q0 -61 18.5 -111.5t51.5 -87.5t79 -56.5t99 -19.5q47 0 93.5 21.5t83 66.5t59 116t22.5 169q0 27 -3 56.5t-15 66.5q-29 16 -81 36.5t-122 20.5q-125 0 -205 -74.5t-80 -203.5z" />
<glyph unicode="&#xf1;" horiz-adv-x="1128" d="M119 0v961h231l6 -109q18 20 44 43t62 42t81 31.5t102 12.5q180 0 274.5 -107.5t94.5 -289.5v-584h-242v582q0 92 -50 142t-130 50q-49 0 -92 -19.5t-74 -54t-48.5 -81t-17.5 -99.5v-520h-241zM178 1260q16 18 41.5 38.5t57.5 38t70 29.5t79 12q43 0 73.5 -13t59 -28.5 t59.5 -29t72 -13.5q70 0 110.5 27t69.5 47l92 -143q-16 -18 -41.5 -40t-56.5 -40.5t-69 -30.5t-79 -12q-43 0 -74.5 13t-60 30.5t-59.5 31t-72 13.5q-70 0 -110.5 -26.5t-69.5 -47.5z" />
<glyph unicode="&#xf2;" horiz-adv-x="1179" d="M74 481q0 104 38 197.5t105.5 163t162.5 110.5t210 41t210 -41t162.5 -110.5t105.5 -162.5t38 -198q0 -104 -38 -197.5t-105.5 -164t-162.5 -111.5t-210 -41t-210 41t-162.5 111.5t-105.5 164t-38 197.5zM317 481q0 -53 16.5 -106t50.5 -98.5t85 -73t121 -27.5t121 27.5 t84.5 73t50 98.5t16.5 106q0 51 -16.5 105.5t-50 98.5t-85 71.5t-120.5 27.5q-70 0 -121 -27.5t-85 -71.5t-50.5 -98.5t-16.5 -105.5zM356 1397h258l98 -291h-194z" />
<glyph unicode="&#xf3;" horiz-adv-x="1179" d="M74 481q0 104 38 197.5t105.5 163t162.5 110.5t210 41t210 -41t162.5 -110.5t105.5 -162.5t38 -198q0 -104 -38 -197.5t-105.5 -164t-162.5 -111.5t-210 -41t-210 41t-162.5 111.5t-105.5 164t-38 197.5zM317 481q0 -53 16.5 -106t50.5 -98.5t85 -73t121 -27.5t121 27.5 t84.5 73t50 98.5t16.5 106q0 51 -16.5 105.5t-50 98.5t-85 71.5t-120.5 27.5q-70 0 -121 -27.5t-85 -71.5t-50.5 -98.5t-16.5 -105.5zM483 1106l98 291h258l-161 -291h-195z" />
<glyph unicode="&#xf4;" horiz-adv-x="1179" d="M74 481q0 104 38 197.5t105.5 163t162.5 110.5t210 41t210 -41t162.5 -110.5t105.5 -162.5t38 -198q0 -104 -38 -197.5t-105.5 -164t-162.5 -111.5t-210 -41t-210 41t-162.5 111.5t-105.5 164t-38 197.5zM264 1106l213 291h227l213 -291h-213l-114 156l-113 -156h-213z M317 481q0 -53 16.5 -106t50.5 -98.5t85 -73t121 -27.5t121 27.5t84.5 73t50 98.5t16.5 106q0 51 -16.5 105.5t-50 98.5t-85 71.5t-120.5 27.5q-70 0 -121 -27.5t-85 -71.5t-50.5 -98.5t-16.5 -105.5z" />
<glyph unicode="&#xf5;" horiz-adv-x="1179" d="M74 481q0 104 38 197.5t105.5 163t162.5 110.5t210 41t210 -41t162.5 -110.5t105.5 -162.5t38 -198q0 -104 -38 -197.5t-105.5 -164t-162.5 -111.5t-210 -41t-210 41t-162.5 111.5t-105.5 164t-38 197.5zM203 1260q16 18 41.5 38.5t57.5 38t70 29.5t79 12q43 0 73.5 -13 t59 -28.5t59.5 -29t72 -13.5q70 0 110.5 27t69.5 47l92 -143q-16 -18 -41.5 -40t-56.5 -40.5t-69 -30.5t-79 -12q-43 0 -74.5 13t-60 30.5t-59.5 31t-72 13.5q-70 0 -110.5 -26.5t-69.5 -47.5zM317 481q0 -53 16.5 -106t50.5 -98.5t85 -73t121 -27.5t121 27.5t84.5 73 t50 98.5t16.5 106q0 51 -16.5 105.5t-50 98.5t-85 71.5t-120.5 27.5q-70 0 -121 -27.5t-85 -71.5t-50.5 -98.5t-16.5 -105.5z" />
<glyph unicode="&#xf6;" horiz-adv-x="1179" d="M74 481q0 104 38 197.5t105.5 163t162.5 110.5t210 41t210 -41t162.5 -110.5t105.5 -162.5t38 -198q0 -104 -38 -197.5t-105.5 -164t-162.5 -111.5t-210 -41t-210 41t-162.5 111.5t-105.5 164t-38 197.5zM285 1141v223h236v-223h-236zM317 481q0 -53 16.5 -106 t50.5 -98.5t85 -73t121 -27.5t121 27.5t84.5 73t50 98.5t16.5 106q0 51 -16.5 105.5t-50 98.5t-85 71.5t-120.5 27.5q-70 0 -121 -27.5t-85 -71.5t-50.5 -98.5t-16.5 -105.5zM664 1141v223h235v-223h-235z" />
<glyph unicode="&#xf7;" horiz-adv-x="1112" d="M147 557v203h816v-203h-816zM446 233v205h218v-205h-218zM446 881v204h218v-204h-218z" />
<glyph unicode="&#xf8;" horiz-adv-x="1179" d="M74 481q0 104 38 197.5t105.5 163t162.5 110.5t210 41q119 0 219 -47l96 139l150 -92l-101 -145q72 -72 112 -165t40 -202q0 -104 -38 -197.5t-105.5 -164t-162.5 -111.5t-210 -41q-59 0 -114.5 11.5t-102.5 31.5l-90 -129l-148 92l92 136q-74 72 -113.5 167t-39.5 205z M317 481q0 -45 11.5 -90t36.5 -86l319 463q-45 16 -94 16q-70 0 -121 -27.5t-85 -71.5t-50.5 -98.5t-16.5 -105.5zM498 190q37 -14 92 -14q70 0 121 27.5t84.5 73t50 98.5t16.5 106q0 86 -45 170z" />
<glyph unicode="&#xf9;" horiz-adv-x="1128" d="M115 377v584h241v-582q0 -92 50.5 -142.5t130.5 -50.5q49 0 92 19.5t73.5 54.5t48 81t17.5 99v521h242v-961h-232l-6 109q-18 -20 -45 -43t-61.5 -42.5t-79.5 -31.5t-103 -12q-180 0 -274 107.5t-94 289.5zM326 1397h258l98 -291h-194z" />
<glyph unicode="&#xfa;" horiz-adv-x="1128" d="M115 377v584h241v-582q0 -92 50.5 -142.5t130.5 -50.5q49 0 92 19.5t73.5 54.5t48 81t17.5 99v521h242v-961h-232l-6 109q-18 -20 -45 -43t-61.5 -42.5t-79.5 -31.5t-103 -12q-180 0 -274 107.5t-94 289.5zM455 1106l98 291h258l-161 -291h-195z" />
<glyph unicode="&#xfb;" horiz-adv-x="1128" d="M115 377v584h241v-582q0 -92 50.5 -142.5t130.5 -50.5q49 0 92 19.5t73.5 54.5t48 81t17.5 99v521h242v-961h-232l-6 109q-18 -20 -45 -43t-61.5 -42.5t-79.5 -31.5t-103 -12q-180 0 -274 107.5t-94 289.5zM239 1106l213 291h227l213 -291h-213l-114 156l-113 -156h-213z " />
<glyph unicode="&#xfc;" horiz-adv-x="1128" d="M115 377v584h241v-582q0 -92 50.5 -142.5t130.5 -50.5q49 0 92 19.5t73.5 54.5t48 81t17.5 99v521h242v-961h-232l-6 109q-18 -20 -45 -43t-61.5 -42.5t-79.5 -31.5t-103 -12q-180 0 -274 107.5t-94 289.5zM266 1141v223h236v-223h-236zM645 1141v223h235v-223h-235z" />
<glyph unicode="&#xfd;" horiz-adv-x="1079" d="M10 961h279l274 -658l242 658h264l-401 -961q-29 -72 -57.5 -147.5t-70.5 -140t-103.5 -105.5t-155.5 -41q-82 0 -136.5 19.5t-95.5 54.5l109 170q20 -16 44.5 -32t61.5 -16q49 0 81 41t67 127l30 78zM455 1106l98 291h258l-161 -291h-195z" />
<glyph unicode="&#xfe;" horiz-adv-x="1169" d="M119 -414v1780h239v-504q37 41 116 79t190 38t191.5 -41t133.5 -110.5t80 -158.5t27 -186q0 -113 -33 -197.5t-82 -144.5q-82 -98 -179 -136t-200 -38q-47 0 -81 4t-61.5 11.5t-51 16.5t-50.5 19v-432h-239zM358 236q72 -59 217 -60q66 0 117 24.5t87 67.5t54.5 98.5 t18.5 116.5t-13.5 113.5t-43 91.5t-76.5 60.5t-117 21.5q-55 0 -100 -23.5t-77 -60.5t-49.5 -81t-17.5 -85v-284z" />
<glyph unicode="&#xff;" horiz-adv-x="1079" d="M10 961h279l274 -658l242 658h264l-401 -961q-29 -72 -57.5 -147.5t-70.5 -140t-103.5 -105.5t-155.5 -41q-82 0 -136.5 19.5t-95.5 54.5l109 170q20 -16 44.5 -32t61.5 -16q49 0 81 41t67 127l30 78zM244 1141v223h236v-223h-236zM623 1141v223h235v-223h-235z" />
<glyph unicode="&#x152;" horiz-adv-x="2260" d="M90 684q0 150 54.5 281t149.5 228t222 153.5t272 56.5q147 0 267.5 -57.5t185.5 -145.5v166h885v-227h-635v-322h469v-229h-469v-357h682v-231h-932v170q-33 -47 -81 -85t-106.5 -64.5t-126 -42t-139.5 -15.5q-145 0 -272 56.5t-222 154.5t-149.5 229.5t-54.5 280.5z M358 690q0 -96 31 -184t89.5 -154.5t139.5 -105.5t183 -39q100 0 181 39t138.5 105.5t88 154.5t30.5 184q0 98 -30.5 185.5t-88 153t-139.5 103t-182 37.5q-102 0 -183 -37.5t-138.5 -103t-88.5 -153t-31 -185.5z" />
<glyph unicode="&#x153;" horiz-adv-x="1888" d="M74 481q0 104 38 197.5t105.5 163t162.5 110.5t210 41q119 0 218 -51t163 -133q66 88 161 136t216 48q131 0 222 -48t146.5 -126t80 -176t24.5 -201v-34h-717q0 -53 23.5 -96.5t61.5 -74t86 -47t95 -16.5q70 0 122 13.5t89 31t60.5 36.5t35.5 32l131 -148l-33.5 -33.5 t-80 -58.5t-133 -55.5t-193.5 -24.5q-127 0 -226.5 49.5t-166.5 141.5q-61 -86 -162.5 -138.5t-222.5 -52.5q-115 0 -210 41t-162.5 111.5t-105.5 164t-38 197.5zM317 481q0 -53 16.5 -106t50.5 -98.5t85 -73t121 -27.5t121 27.5t84.5 73t50 98.5t16.5 106q0 51 -16.5 105.5 t-50 98.5t-85 71.5t-120.5 27.5q-70 0 -121 -27.5t-85 -71.5t-50.5 -98.5t-16.5 -105.5zM1102 582h471q0 37 -14.5 73.5t-42 66.5t-70.5 49.5t-98 19.5q-59 0 -105.5 -19.5t-77 -49.5t-47 -67t-16.5 -73z" />
<glyph unicode="&#x178;" horiz-adv-x="1228" d="M10 1366h283l328 -545l327 545h271l-474 -766v-600h-262v600zM275 1509v240h252v-240h-252zM711 1509v240h252v-240h-252z" />
<glyph unicode="&#x2c6;" horiz-adv-x="919" d="M133 1106l213 291h227l213 -291h-213l-114 156l-113 -156h-213z" />
<glyph unicode="&#x2dc;" horiz-adv-x="946" d="M78 1260q16 18 41.5 38.5t57.5 38t70 29.5t79 12q43 0 73.5 -13t59 -28.5t59.5 -29t72 -13.5q70 0 110.5 27t69.5 47l92 -143q-16 -18 -41.5 -40t-56.5 -40.5t-69 -30.5t-79 -12q-43 0 -74.5 13t-60 30.5t-59.5 31t-72 13.5q-70 0 -110.5 -26.5t-69.5 -47.5z" />
<glyph unicode="&#x2000;" horiz-adv-x="905" />
<glyph unicode="&#x2001;" horiz-adv-x="1810" />
<glyph unicode="&#x2002;" horiz-adv-x="905" />
<glyph unicode="&#x2003;" horiz-adv-x="1810" />
<glyph unicode="&#x2004;" horiz-adv-x="603" />
<glyph unicode="&#x2005;" horiz-adv-x="452" />
<glyph unicode="&#x2006;" horiz-adv-x="301" />
<glyph unicode="&#x2007;" horiz-adv-x="301" />
<glyph unicode="&#x2008;" horiz-adv-x="226" />
<glyph unicode="&#x2009;" horiz-adv-x="362" />
<glyph unicode="&#x200a;" horiz-adv-x="100" />
<glyph unicode="&#x2010;" horiz-adv-x="903" d="M139 457v229h625v-229h-625z" />
<glyph unicode="&#x2011;" horiz-adv-x="903" d="M139 457v229h625v-229h-625z" />
<glyph unicode="&#x2012;" horiz-adv-x="903" d="M139 457v229h625v-229h-625z" />
<glyph unicode="&#x2013;" horiz-adv-x="1024" d="M0 459v229h1024v-229h-1024z" />
<glyph unicode="&#x2014;" horiz-adv-x="2048" d="M0 459v229h2048v-229h-2048z" />
<glyph unicode="&#x2018;" horiz-adv-x="548" d="M98 932l140 432h182l-45 -432h-277z" />
<glyph unicode="&#x2019;" horiz-adv-x="548" d="M129 932l45 432h277l-140 -432h-182z" />
<glyph unicode="&#x201a;" horiz-adv-x="579" d="M139 -147l45 432h277l-139 -432h-183z" />
<glyph unicode="&#x201c;" horiz-adv-x="937" d="M98 932l140 432h182l-45 -432h-277zM487 932l140 432h182l-45 -432h-277z" />
<glyph unicode="&#x201d;" horiz-adv-x="937" d="M129 932l45 432h277l-140 -432h-182zM518 932l45 432h277l-140 -432h-182z" />
<glyph unicode="&#x201e;" horiz-adv-x="972" d="M139 -147l45 432h277l-139 -432h-183zM534 -147l45 432h277l-139 -432h-183z" />
<glyph unicode="&#x2022;" horiz-adv-x="897" d="M170 702q0 57 21.5 108.5t59.5 89.5t89 59.5t109 21.5q57 0 108 -21.5t89 -59.5t59.5 -89t21.5 -109q0 -57 -21.5 -108t-59.5 -89t-89 -59.5t-108 -21.5t-108.5 21.5t-89.5 59.5t-59.5 89t-21.5 108z" />
<glyph unicode="&#x2026;" horiz-adv-x="1624" d="M135 0v283h293v-283h-293zM665 0v283h293v-283h-293zM1198 0v283h293v-283h-293z" />
<glyph unicode="&#x202f;" horiz-adv-x="362" />
<glyph unicode="&#x2039;" horiz-adv-x="696" d="M119 494l213 397h235l-202 -397l202 -398h-235z" />
<glyph unicode="&#x203a;" horiz-adv-x="696" d="M129 96l203 398l-203 397h236l213 -397l-213 -398h-236z" />
<glyph unicode="&#x205f;" horiz-adv-x="452" />
<glyph unicode="&#x20ac;" d="M68 422l47 151h112q-2 20 -2 41v43v39t2 39h-159l47 152h135q25 96 68.5 177t107 140.5t145.5 92t185 32.5q125 0 209 -42t151 -107l-129 -164q-47 47 -97 68.5t-128 21.5q-106 0 -170 -60.5t-92 -158.5h387l-47 -152h-367q-2 -20 -2 -38.5v-39.5v-43t2 -41h393l-47 -151 h-317q29 -98 92 -157.5t168 -59.5q78 0 128 21.5t97 68.5l129 -164q-68 -66 -151.5 -107.5t-208.5 -41.5q-100 0 -183.5 32.5t-145.5 91t-106.5 139.5t-68.5 177h-184z" />
<glyph unicode="&#x2122;" horiz-adv-x="1763" d="M68 1196v170h720v-170h-262v-614h-196v614h-262zM862 582l25 784h164l217 -334l213 334h174l24 -784h-178l-14 510l-191 -312h-65l-182 291l-15 -489h-172z" />
<glyph unicode="&#xe000;" horiz-adv-x="962" d="M0 0v963h963v-963h-963z" />
</font>
</defs></svg> 