<?xml version="1.0" encoding="utf-8"?>
<!-- Generator: Adobe Illustrator 16.0.0, SVG Export Plug-In . SVG Version: 6.00 Build 0)  -->
<!DOCTYPE svg PUBLIC "-//W3C//DTD SVG 1.1//EN" "http://www.w3.org/Graphics/SVG/1.1/DTD/svg11.dtd">
<svg version="1.1" id="Layer_1" xmlns="http://www.w3.org/2000/svg" xmlns:xlink="http://www.w3.org/1999/xlink" x="0px" y="0px"
	 width="68.576px" height="67.988px" viewBox="0 0 68.576 67.988" enable-background="new 0 0 68.576 67.988" xml:space="preserve">
<g>
	<path fill="#CCCAC5" d="M34.51,0.005c-18.776,0-33.998,15.222-33.998,33.999c0,18.776,15.222,33.997,33.998,33.997
		S68.508,52.78,68.508,34.004C68.508,15.227,53.286,0.005,34.51,0.005z M34.511,64.146c-16.622,0-30.144-13.522-30.144-30.143
		c0-16.622,13.521-30.144,30.144-30.144c16.62,0,30.143,13.521,30.143,30.144C64.653,50.624,51.131,64.146,34.511,64.146z"/>
	<path fill="#CCCAC5" d="M34.509,24.191c-5.418,0-9.811,4.394-9.811,9.813c0,5.418,4.393,9.812,9.811,9.812
		c5.419,0,9.813-4.394,9.813-9.812C44.321,28.585,39.928,24.191,34.509,24.191z M34.51,38.196c-2.312,0-4.191-1.881-4.191-4.193
		c0-2.312,1.88-4.193,4.191-4.193s4.192,1.882,4.192,4.193C38.702,36.315,36.821,38.196,34.51,38.196z"/>
</g>
</svg>
